<?xml version="1.0" encoding="UTF-8" standalone="no"?>
<!-- Created with Inkscape (http://www.inkscape.org/) -->

<svg
   xmlns:ns0="http://www.iki.fi/pav/software/textext/"
   xmlns:dc="http://purl.org/dc/elements/1.1/"
   xmlns:cc="http://creativecommons.org/ns#"
   xmlns:rdf="http://www.w3.org/1999/02/22-rdf-syntax-ns#"
   xmlns:svg="http://www.w3.org/2000/svg"
   xmlns="http://www.w3.org/2000/svg"
   xmlns:sodipodi="http://sodipodi.sourceforge.net/DTD/sodipodi-0.dtd"
   xmlns:inkscape="http://www.inkscape.org/namespaces/inkscape"
   width="744.09448819"
   height="1052.3622047"
   id="svg2"
   version="1.1"
   inkscape:version="0.48.5 r10040"
   sodipodi:docname="1dof.pdf">
  <sodipodi:namedview
     id="base"
     pagecolor="#ffffff"
     bordercolor="#666666"
     borderopacity="1.0"
     inkscape:pageopacity="0.0"
     inkscape:pageshadow="2"
     inkscape:zoom="2.7658386"
     inkscape:cx="177.8008"
     inkscape:cy="881.35246"
     inkscape:document-units="px"
     inkscape:current-layer="layer1"
     showgrid="false"
     inkscape:snap-bbox="false"
     inkscape:snap-global="false"
     inkscape:object-nodes="true"
     inkscape:snap-bbox-edge-midpoints="true"
     inkscape:snap-nodes="true"
     inkscape:snap-bbox-midpoints="true"
     inkscape:snap-object-midpoints="true"
     inkscape:window-width="1920"
     inkscape:window-height="1007"
     inkscape:window-x="0"
     inkscape:window-y="25"
     inkscape:window-maximized="1" />
  <defs
     id="defs4" />
  <metadata
     id="metadata7">
    <rdf:RDF>
      <cc:Work
         rdf:about="">
        <dc:format>image/svg+xml</dc:format>
        <dc:type
           rdf:resource="http://purl.org/dc/dcmitype/StillImage" />
        <dc:title></dc:title>
      </cc:Work>
    </rdf:RDF>
  </metadata>
  <g
     id="layer1"
     inkscape:groupmode="layer"
     inkscape:label="Layer 1">
    <path
       style="fill:#000000;stroke:none;stroke-width:1px;stroke-linecap:butt;stroke-linejoin:miter;stroke-opacity:1;fill-opacity:0.25560537"
       d="m 55,50.933609 91.78571,1e-6 92.5,91.78571 0,92.5 -92.5,0 -92.499996,-92.5 z"
       id="path4625"
       inkscape:connector-curvature="0" />
    <rect
       y="50.933609"
       x="55"
       height="183.57143"
       width="183.57143"
       id="rect2985"
       style="fill:none;stroke:#000000;stroke-width:2;stroke-miterlimit:4;stroke-opacity:1;stroke-dasharray:none;fill-opacity:1" />
    <path
       sodipodi:nodetypes="cc"
       inkscape:connector-curvature="0"
       id="path3761"
       d="m 146.78571,142.71932 -92.499996,0"
       style="fill:none;stroke:#000000;stroke-width:1px;stroke-linecap:butt;stroke-linejoin:miter;stroke-opacity:1" />
    <path
       inkscape:connector-curvature="0"
       id="path3763"
       d="m 146.78571,235.21932 0,-92.5 92.5,0"
       style="fill:none;stroke:#000000;stroke-width:1px;stroke-linecap:butt;stroke-linejoin:miter;stroke-opacity:1" />
    <path
       inkscape:connector-curvature="0"
       id="path3765"
       d="m 146.78571,142.71932 0,-91.78571"
       style="fill:none;stroke:#000000;stroke-width:1px;stroke-linecap:butt;stroke-linejoin:miter;stroke-opacity:1" />
    <path
       inkscape:connector-curvature="0"
       id="path3767"
       d="M 146.78571,142.71932 54.285714,50.93361"
       style="fill:none;stroke:#000000;stroke-width:1px;stroke-linecap:butt;stroke-linejoin:miter;stroke-opacity:1" />
    <path
       inkscape:connector-curvature="0"
       id="path3769"
       d="m 239.28571,235.21932 -92.5,-92.5"
       style="fill:none;stroke:#000000;stroke-width:1px;stroke-linecap:butt;stroke-linejoin:miter;stroke-opacity:1" />
    <path
       sodipodi:type="arc"
       style="fill:#ffffff;stroke:#000000;stroke-width:1;stroke-miterlimit:4;stroke-opacity:1;stroke-dasharray:none;fill-opacity:1"
       id="path3773"
       sodipodi:cx="20.452583"
       sodipodi:cy="131.74031"
       sodipodi:rx="5.6244602"
       sodipodi:ry="5.6244602"
       d="m 26.077044,131.74031 a 5.6244602,5.6244602 0 1 1 -11.248921,0 5.6244602,5.6244602 0 1 1 11.248921,0 z"
       transform="translate(34.547417,102.76472)" />
    <path
       sodipodi:type="arc"
       style="fill:#ffffff;fill-opacity:1;stroke:#000000;stroke-width:1;stroke-miterlimit:4;stroke-opacity:1;stroke-dasharray:none"
       id="path3777"
       sodipodi:cx="20.452583"
       sodipodi:cy="131.74031"
       sodipodi:rx="5.6244602"
       sodipodi:ry="5.6244602"
       d="m 26.077044,131.74031 a 5.6244602,5.6244602 0 1 1 -11.248921,0 5.6244602,5.6244602 0 1 1 11.248921,0 z"
       transform="translate(34.547417,-80.806702)" />
    <path
       sodipodi:type="arc"
       style="fill:#ffffff;fill-opacity:1;stroke:#000000;stroke-width:1;stroke-miterlimit:4;stroke-opacity:1;stroke-dasharray:none"
       id="path3781"
       sodipodi:cx="20.452583"
       sodipodi:cy="131.74031"
       sodipodi:rx="5.6244602"
       sodipodi:ry="5.6244602"
       d="m 26.077044,131.74031 a 5.6244602,5.6244602 0 1 1 -11.248921,0 5.6244602,5.6244602 0 1 1 11.248921,0 z"
       transform="translate(218.11884,-80.806702)" />
    <path
       sodipodi:type="arc"
       style="fill:#ffffff;fill-opacity:1;stroke:#000000;stroke-width:1;stroke-miterlimit:4;stroke-opacity:1;stroke-dasharray:none"
       id="path3785"
       sodipodi:cx="20.452583"
       sodipodi:cy="131.74031"
       sodipodi:rx="5.6244602"
       sodipodi:ry="5.6244602"
       d="m 26.077044,131.74031 a 5.6244602,5.6244602 0 1 1 -11.248921,0 5.6244602,5.6244602 0 1 1 11.248921,0 z"
       transform="translate(218.11884,102.76472)" />
    <rect
       y="135.43309"
       x="139.99948"
       height="14.572464"
       width="14.572464"
       id="rect3789"
       style="fill:#ffffff;fill-opacity:1;stroke:#000000;stroke-width:1.5;stroke-miterlimit:4;stroke-opacity:1;stroke-dasharray:none" />
    <path
       inkscape:connector-curvature="0"
       id="path3829"
       d="m 54.5,142.71932 92.28571,92.5"
       style="fill:none;stroke:#000000;stroke-width:1px;stroke-linecap:butt;stroke-linejoin:miter;stroke-opacity:1" />
    <path
       transform="translate(126.33313,103.47901)"
       d="m 26.077044,131.74031 a 5.6244602,5.6244602 0 1 1 -11.248921,0 5.6244602,5.6244602 0 1 1 11.248921,0 z"
       sodipodi:ry="5.6244602"
       sodipodi:rx="5.6244602"
       sodipodi:cy="131.74031"
       sodipodi:cx="20.452583"
       id="path3787"
       style="fill:#ffffff;fill-opacity:1;stroke:#000000;stroke-width:1;stroke-miterlimit:4;stroke-opacity:1;stroke-dasharray:none"
       sodipodi:type="arc" />
    <path
       transform="translate(34.047417,10.979014)"
       d="m 26.077044,131.74031 a 5.6244602,5.6244602 0 1 1 -11.248921,0 5.6244602,5.6244602 0 1 1 11.248921,0 z"
       sodipodi:ry="5.6244602"
       sodipodi:rx="5.6244602"
       sodipodi:cy="131.74031"
       sodipodi:cx="20.452583"
       id="path3775"
       style="fill:#ffffff;fill-opacity:1;stroke:#000000;stroke-width:1;stroke-miterlimit:4;stroke-opacity:1;stroke-dasharray:none"
       sodipodi:type="arc" />
    <path
       inkscape:connector-curvature="0"
       id="path3831"
       d="m 146.78571,50.93361 92.28572,91.78571"
       style="fill:none;stroke:#000000;stroke-width:1px;stroke-linecap:butt;stroke-linejoin:miter;stroke-opacity:1" />
    <path
       transform="translate(218.61885,10.979014)"
       d="m 26.077044,131.74031 a 5.6244602,5.6244602 0 1 1 -11.248921,0 5.6244602,5.6244602 0 1 1 11.248921,0 z"
       sodipodi:ry="5.6244602"
       sodipodi:rx="5.6244602"
       sodipodi:cy="131.74031"
       sodipodi:cx="20.452583"
       id="path3783"
       style="fill:#ffffff;fill-opacity:1;stroke:#000000;stroke-width:1;stroke-miterlimit:4;stroke-opacity:1;stroke-dasharray:none"
       sodipodi:type="arc" />
    <path
       transform="translate(126.33313,-80.806701)"
       d="m 26.077044,131.74031 a 5.6244602,5.6244602 0 1 1 -11.248921,0 5.6244602,5.6244602 0 1 1 11.248921,0 z"
       sodipodi:ry="5.6244602"
       sodipodi:rx="5.6244602"
       sodipodi:cy="131.74031"
       sodipodi:cx="20.452583"
       id="path3779"
       style="fill:#ffffff;fill-opacity:1;stroke:#000000;stroke-width:1;stroke-miterlimit:4;stroke-opacity:1;stroke-dasharray:none"
       sodipodi:type="arc" />
    <g
       ns0:preamble="/str/dev/texts/preamble.tex"
       ns0:text="$T_1$"
       word-spacing="normal"
       letter-spacing="normal"
       font-size-adjust="none"
       font-stretch="normal"
       font-weight="normal"
       font-variant="normal"
       font-style="normal"
       stroke-miterlimit="10.433"
       xml:space="preserve"
       transform="matrix(1.6172873,0,0,-1.6172873,-286.72445,1354.0606)"
       id="content"
       style="font-style:normal;font-variant:normal;font-weight:normal;font-stretch:normal;letter-spacing:normal;word-spacing:normal;text-anchor:start;fill:none;stroke:#000000;stroke-linecap:butt;stroke-linejoin:miter;stroke-miterlimit:10.43299961;stroke-opacity:1;stroke-dasharray:none;stroke-dashoffset:0"><path
         id="path3856"
         d="m 230.29,713.83 h -5.58 l -0.46,-1.7 h 0.19 c 0.41,1.08 0.93,1.32 1.8,1.32 0,0 0.58,0 0.69,0 l -1.43,-5.16 c -0.28,-1.01 -0.62,-1 -1.02,-1 l -0.03,-0.17 h 2.62 l 0.03,0.17 c -0.37,0 -0.75,-0.01 -0.75,0.5 0,0.13 0.03,0.29 0.08,0.49 l 1.42,5.17 h 0.83 c 0.49,0 1.01,-0.07 1.01,-0.75 0,-0.16 -0.01,-0.34 -0.07,-0.57 h 0.19 z"
         inkscape:connector-curvature="0"
         style="fill:#000000;stroke-width:0" /><path
         id="path3858"
         d="m 232.31,705.63 v 0.2 c -0.53,0 -0.69,-0.01 -0.69,0.84 0,0 0,3.66 0,3.66 h -0.17 l -1.36,-0.58 0.08,-0.19 c 0.31,0.12 0.38,0.14 0.47,0.14 0.21,0 0.23,-0.17 0.23,-0.37 v -2.66 c 0,-0.85 -0.17,-0.84 -0.69,-0.84 v -0.2 z"
         inkscape:connector-curvature="0"
         style="fill:#000000;stroke-width:0" /></g>    <g
       id="g3914"
       transform="matrix(1.6172873,0,0,-1.6172873,-250.2075,1321.1592)"
       xml:space="preserve"
       stroke-miterlimit="10.433"
       font-style="normal"
       font-variant="normal"
       font-weight="normal"
       font-stretch="normal"
       font-size-adjust="none"
       letter-spacing="normal"
       word-spacing="normal"
       ns0:text="$T_2$"
       ns0:preamble="/str/dev/texts/preamble.tex"
       style="font-style:normal;font-variant:normal;font-weight:normal;font-stretch:normal;letter-spacing:normal;word-spacing:normal;text-anchor:start;fill:none;stroke:#000000;stroke-linecap:butt;stroke-linejoin:miter;stroke-miterlimit:10.43299961;stroke-opacity:1;stroke-dasharray:none;stroke-dashoffset:0"><path
         style="fill:#000000;stroke-width:0"
         inkscape:connector-curvature="0"
         d="m 230.29,713.83 h -5.58 l -0.46,-1.7 h 0.19 c 0.41,1.08 0.93,1.32 1.8,1.32 0,0 0.58,0 0.69,0 l -1.43,-5.16 c -0.28,-1.01 -0.62,-1 -1.02,-1 l -0.03,-0.17 h 2.62 l 0.03,0.17 c -0.37,0 -0.75,-0.01 -0.75,0.5 0,0.13 0.03,0.29 0.08,0.49 l 1.42,5.17 h 0.83 c 0.49,0 1.01,-0.07 1.01,-0.75 0,-0.16 -0.01,-0.34 -0.07,-0.57 h 0.19 z"
         id="path3916" /><path
         style="fill:#000000;stroke-width:0"
         inkscape:connector-curvature="0"
         d="m 232.96,706.59 -0.21,0.03 c -0.24,-0.34 -0.41,-0.4 -0.77,-0.4 h -1.64 c 1.18,0.97 2.24,1.86 2.24,2.83 0,0.73 -0.7,1.25 -1.47,1.25 -0.76,0 -1.36,-0.37 -1.61,-1.38 h 0.25 c 0.23,0.4 0.51,0.78 1.08,0.78 0.64,0 1,-0.42 1,-0.93 0,-0.72 -0.89,-1.79 -2.4,-2.97 v -0.17 h 3.09 z"
         id="path3918" /></g>    <g
       style="font-style:normal;font-variant:normal;font-weight:normal;font-stretch:normal;letter-spacing:normal;word-spacing:normal;text-anchor:start;fill:none;stroke:#000000;stroke-linecap:butt;stroke-linejoin:miter;stroke-miterlimit:10.43299961;stroke-opacity:1;stroke-dasharray:none;stroke-dashoffset:0"
       ns0:preamble="/str/dev/texts/preamble.tex"
       ns0:text="$T_3$"
       text-anchor="start"
       word-spacing="normal"
       letter-spacing="normal"
       font-size-adjust="none"
       font-stretch="normal"
       font-weight="normal"
       font-variant="normal"
       font-style="normal"
       fill-opacity="1"
       fill-rule="evenodd"
       fill="none"
       stroke-opacity="1"
       stroke-dashoffset="0"
       stroke-dasharray="none"
       stroke-miterlimit="10.433"
       stroke-linejoin="miter"
       stroke-linecap="butt"
       stroke="black"
       xml:space="preserve"
       transform="matrix(1.6172873,0,0,-1.6172873,-194.52818,1354.4222)"
       id="g3980"><path
         id="path3982"
         fill="black"
         stroke-width="0"
         d="M230.29,713.83 H224.71 L224.25,712.13 H224.44 C224.85,713.21,225.37,713.45,226.24,713.45 C226.24,713.45,226.82,713.45,226.93,713.45 L225.5,708.29 C225.22,707.28,224.88,707.29,224.48,707.29 L224.45,707.12 H227.07 L227.1,707.29 C226.73,707.29,226.35,707.28,226.35,707.79 C226.35,707.92,226.38,708.08,226.43,708.28 L227.85,713.45 H228.68 C229.17,713.45,229.69,713.38,229.69,712.7 C229.69,712.54,229.68,712.36,229.62,712.13 H229.81 Z " /><path
         id="path3984"
         fill="black"
         stroke-width="0"
         d="M232.71,707.16 L232.71,707.23 L232.71,707.29 L232.7,707.35 L232.69,707.41 L232.68,707.47 L232.67,707.52 L232.66,707.57 L232.64,707.62 L232.62,707.67 L232.6,707.72 L232.58,707.76 L232.55,707.81 L232.53,707.85 L232.5,707.89 L232.47,707.93 L232.44,707.96 L232.41,708 L232.38,708.03 L232.35,708.06 L232.31,708.09 L232.28,708.12 L232.24,708.15 L232.2,708.18 L232.16,708.2 L232.12,708.23 L232.08,708.25 L232.04,708.27 L232,708.29 L231.96,708.31 L231.92,708.33 L231.84,708.36 C232.3,708.69,232.46,709,232.46,709.37 C232.46,709.78,232.08,710.33,231.22,710.33 C230.6,710.33,230.01,710.03,229.73,709.22 L229.93,709.16 C230.1,709.46,230.41,709.8,230.94,709.8 C231.45,709.8,231.76,709.48,231.76,709.12 C231.76,708.61,231.31,708.24,230.61,708.09 L230.59,707.87 C231.78,707.92,232.07,707.24,232.07,706.83 C232.07,706.35,231.67,705.9,231.15,705.9 C230.66,705.9,230.44,706.28,230.03,706.28 C229.87,706.28,229.69,706.15,229.69,705.97 C229.69,705.66,230.19,705.55,230.56,705.55 C231.81,705.55,232.71,706.2,232.71,707.16 Z " /></g>    <g
       id="g4052"
       transform="matrix(1.6172873,0,0,-1.6172873,-158.37278,1319.713)"
       xml:space="preserve"
       stroke="black"
       stroke-linecap="butt"
       stroke-linejoin="miter"
       stroke-miterlimit="10.433"
       stroke-dasharray="none"
       stroke-dashoffset="0"
       stroke-opacity="1"
       fill="none"
       fill-rule="evenodd"
       fill-opacity="1"
       font-style="normal"
       font-variant="normal"
       font-weight="normal"
       font-stretch="normal"
       font-size-adjust="none"
       letter-spacing="normal"
       word-spacing="normal"
       text-anchor="start"
       ns0:text="$T_4$"
       ns0:preamble="/str/dev/texts/preamble.tex"
       style="font-style:normal;font-variant:normal;font-weight:normal;font-stretch:normal;letter-spacing:normal;word-spacing:normal;text-anchor:start;fill:none;stroke:#000000;stroke-linecap:butt;stroke-linejoin:miter;stroke-miterlimit:10.43299961;stroke-opacity:1;stroke-dasharray:none;stroke-dashoffset:0"><path
         d="M230.29,713.83 H224.71 L224.25,712.13 H224.44 C224.85,713.21,225.37,713.45,226.24,713.45 C226.24,713.45,226.82,713.45,226.93,713.45 L225.5,708.29 C225.22,707.28,224.88,707.29,224.48,707.29 L224.45,707.12 H227.07 L227.1,707.29 C226.73,707.29,226.35,707.28,226.35,707.79 C226.35,707.92,226.38,708.08,226.43,708.28 L227.85,713.45 H228.68 C229.17,713.45,229.69,713.38,229.69,712.7 C229.69,712.54,229.68,712.36,229.62,712.13 H229.81 Z "
         stroke-width="0"
         fill="black"
         id="path4054" /><polygon
         points="232.91,706.77 232.91,707.32 232.17,707.32 232.17,710.33 231.72,710.33 229.49,707.31 229.93,707.32 231.5,709.52 231.46,709.57 231.46,707.32 229.93,707.32 229.49,707.31 229.49,706.77 231.46,706.77 231.46,705.63 232.17,705.63 232.17,706.77 "
         stroke-width="0"
         fill="black"
         id="polygon4056" /></g>    <g
       style="font-style:normal;font-variant:normal;font-weight:normal;font-stretch:normal;letter-spacing:normal;word-spacing:normal;text-anchor:start;fill:none;stroke:#000000;stroke-linecap:butt;stroke-linejoin:miter;stroke-miterlimit:10.43299961;stroke-opacity:1;stroke-dasharray:none;stroke-dashoffset:0"
       ns0:preamble="/str/dev/texts/preamble.tex"
       ns0:text="$T_5$"
       text-anchor="start"
       word-spacing="normal"
       letter-spacing="normal"
       font-size-adjust="none"
       font-stretch="normal"
       font-weight="normal"
       font-variant="normal"
       font-style="normal"
       fill-opacity="1"
       fill-rule="evenodd"
       fill="none"
       stroke-opacity="1"
       stroke-dashoffset="0"
       stroke-dasharray="none"
       stroke-miterlimit="10.433"
       stroke-linejoin="miter"
       stroke-linecap="butt"
       stroke="black"
       xml:space="preserve"
       transform="matrix(1.6172873,0,0,-1.6172873,-287.44756,1261.5028)"
       id="g4130"><path
         id="path4132"
         fill="black"
         stroke-width="0"
         d="M230.29,713.83 H224.71 L224.25,712.13 H224.44 C224.85,713.21,225.37,713.45,226.24,713.45 C226.24,713.45,226.82,713.45,226.93,713.45 L225.5,708.29 C225.22,707.28,224.88,707.29,224.48,707.29 L224.45,707.12 H227.07 L227.1,707.29 C226.73,707.29,226.35,707.28,226.35,707.79 C226.35,707.92,226.38,708.08,226.43,708.28 L227.85,713.45 H228.68 C229.17,713.45,229.69,713.38,229.69,712.7 C229.69,712.54,229.68,712.36,229.62,712.13 H229.81 Z " /><path
         id="path4134"
         fill="black"
         stroke-width="0"
         d="M232.87,710.26 H230.64 L229.66,708.21 C229.85,708.25,229.97,708.26,230.11,708.26 C230.9,708.26,231.99,707.9,231.99,707.03 C231.99,706.37,231.46,705.93,230.94,705.93 C230.46,705.93,230.3,706.32,229.86,706.32 C229.61,706.32,229.54,706.12,229.54,706.02 C229.54,705.76,229.92,705.55,230.48,705.55 C231.67,705.55,232.58,706.33,232.58,707.26 C232.58,708.38,231.61,708.77,230.53,708.79 C230.47,708.79,230.4,708.79,230.33,708.78 L230.76,709.65 L232.52,709.64 Z " /></g>    <g
       id="g4214"
       transform="matrix(1.6172873,0,0,-1.6172873,-249.12283,1228.9629)"
       xml:space="preserve"
       stroke-miterlimit="10.433"
       font-style="normal"
       font-variant="normal"
       font-weight="normal"
       font-stretch="normal"
       font-size-adjust="none"
       letter-spacing="normal"
       word-spacing="normal"
       ns0:text="$T_6$"
       ns0:preamble="/str/dev/texts/preamble.tex"
       style="font-style:normal;font-variant:normal;font-weight:normal;font-stretch:normal;letter-spacing:normal;word-spacing:normal;text-anchor:start;fill:none;stroke:#000000;stroke-linecap:butt;stroke-linejoin:miter;stroke-miterlimit:10.43299961;stroke-opacity:1;stroke-dasharray:none;stroke-dashoffset:0"><path
         style="fill:#000000;stroke-width:0"
         inkscape:connector-curvature="0"
         d="m 230.29,713.83 h -5.58 l -0.46,-1.7 h 0.19 c 0.41,1.08 0.93,1.32 1.8,1.32 0,0 0.58,0 0.69,0 l -1.43,-5.16 c -0.28,-1.01 -0.62,-1 -1.02,-1 l -0.03,-0.17 h 2.62 l 0.03,0.17 c -0.37,0 -0.75,-0.01 -0.75,0.5 0,0.13 0.03,0.29 0.08,0.49 l 1.42,5.17 h 0.83 c 0.49,0 1.01,-0.07 1.01,-0.75 0,-0.16 -0.01,-0.34 -0.07,-0.57 h 0.19 z"
         id="path4216" /><path
         style="fill:#000000;stroke-width:0"
         inkscape:connector-curvature="0"
         d="m 232.86,707.2 0,0.08 -0.01,0.07 -0.01,0.07 -0.01,0.07 -0.01,0.06 -0.02,0.07 -0.03,0.06 -0.02,0.07 -0.03,0.06 -0.03,0.05 -0.03,0.06 -0.04,0.06 -0.04,0.05 -0.04,0.05 -0.04,0.05 -0.05,0.04 -0.05,0.05 -0.05,0.04 -0.05,0.04 -0.06,0.04 -0.05,0.03 -0.06,0.03 -0.06,0.03 -0.07,0.03 -0.06,0.02 -0.07,0.02 -0.06,0.02 -0.07,0.01 -0.07,0.01 -0.07,0.01 -0.07,0.01 -0.08,0 c -0.35,0 -0.66,-0.09 -0.97,-0.29 0.36,1.13 1.31,1.84 2.27,1.84 v 0.22 c -2.44,0 -3.2,-1.82 -3.2,-2.85 0,-1.1 0.73,-1.93 1.69,-1.93 l 0.09,0.29 c -0.77,0 -0.98,1 -0.98,1.53 0,0.17 0.01,0.34 0.05,0.56 0.32,0.18 0.58,0.25 0.83,0.25 0.75,0 0.88,-0.76 0.88,-1.32 h 0 c 0,-0.6 -0.3,-1.02 -0.78,-1.02 l -0.09,-0.29 c 0.9,0 1.62,0.74 1.62,1.65 z"
         id="path4218" /></g>    <g
       style="font-style:normal;font-variant:normal;font-weight:normal;font-stretch:normal;letter-spacing:normal;word-spacing:normal;text-anchor:start;fill:none;stroke:#000000;stroke-linecap:butt;stroke-linejoin:miter;stroke-miterlimit:10.43299961;stroke-opacity:1;stroke-dasharray:none;stroke-dashoffset:0"
       ns0:preamble="/str/dev/texts/preamble.tex"
       ns0:text="$T_7$"
       word-spacing="normal"
       letter-spacing="normal"
       font-size-adjust="none"
       font-stretch="normal"
       font-weight="normal"
       font-variant="normal"
       font-style="normal"
       stroke-miterlimit="10.433"
       xml:space="preserve"
       transform="matrix(1.6172873,0,0,-1.6172873,-195.61284,1262.2259)"
       id="g4304"><path
         id="path4306"
         d="m 230.29,713.83 h -5.58 l -0.46,-1.7 h 0.19 c 0.41,1.08 0.93,1.32 1.8,1.32 0,0 0.58,0 0.69,0 l -1.43,-5.16 c -0.28,-1.01 -0.62,-1 -1.02,-1 l -0.03,-0.17 h 2.62 l 0.03,0.17 c -0.37,0 -0.75,-0.01 -0.75,0.5 0,0.13 0.03,0.29 0.08,0.49 l 1.42,5.17 h 0.83 c 0.49,0 1.01,-0.07 1.01,-0.75 0,-0.16 -0.01,-0.34 -0.07,-0.57 h 0.19 z"
         inkscape:connector-curvature="0"
         style="fill:#000000;stroke-width:0" /><path
         id="path4308"
         d="m 232.9,710.26 h -2.91 l -0.49,-1.09 h 0.21 c 0.27,0.39 0.47,0.49 0.9,0.49 h 1.55 l -1.54,-4.11 h 0.56 z"
         inkscape:connector-curvature="0"
         style="fill:#000000;stroke-width:0" /></g>    <g
       style="font-style:normal;font-variant:normal;font-weight:normal;font-stretch:normal;letter-spacing:normal;word-spacing:normal;text-anchor:start;fill:none;stroke:#000000;stroke-linecap:butt;stroke-linejoin:miter;stroke-miterlimit:10.43299961;stroke-opacity:1;stroke-dasharray:none;stroke-dashoffset:0"
       ns0:preamble="/str/dev/texts/preamble.tex"
       ns0:text="$T_8$"
       text-anchor="start"
       word-spacing="normal"
       letter-spacing="normal"
       font-size-adjust="none"
       font-stretch="normal"
       font-weight="normal"
       font-variant="normal"
       font-style="normal"
       fill-opacity="1"
       fill-rule="evenodd"
       fill="none"
       stroke-opacity="1"
       stroke-dashoffset="0"
       stroke-dasharray="none"
       stroke-miterlimit="10.433"
       stroke-linejoin="miter"
       stroke-linecap="butt"
       stroke="black"
       xml:space="preserve"
       transform="matrix(1.6172873,0,0,-1.6172873,-159.09589,1228.6014)"
       id="g4493"><path
         id="path4495"
         fill="black"
         stroke-width="0"
         d="M230.29,713.83 H224.71 L224.25,712.13 H224.44 C224.85,713.21,225.37,713.45,226.24,713.45 C226.24,713.45,226.82,713.45,226.93,713.45 L225.5,708.29 C225.22,707.28,224.88,707.29,224.48,707.29 L224.45,707.12 H227.07 L227.1,707.29 C226.73,707.29,226.35,707.28,226.35,707.79 C226.35,707.92,226.38,708.08,226.43,708.28 L227.85,713.45 H228.68 C229.17,713.45,229.69,713.38,229.69,712.7 C229.69,712.54,229.68,712.36,229.62,712.13 H229.81 Z " /><path
         id="path4497"
         fill="black"
         stroke-width="0"
         d="M232.73,706.73 L232.73,706.77 L232.72,706.82 L232.72,706.86 L232.72,706.9 L232.71,706.95 L232.7,706.99 L232.69,707.03 L232.68,707.07 L232.66,707.11 L232.64,707.16 L232.63,707.2 L232.6,707.24 L232.58,707.28 L232.56,707.32 L232.53,707.37 L232.5,707.41 L232.46,707.45 L232.43,707.5 L232.39,707.54 L232.35,707.59 L232.3,707.63 L232.25,707.68 L232.2,707.73 L232.15,707.77 L232.09,707.82 L232.03,707.87 L231.97,707.92 L231.9,707.97 L231.83,708.03 L231.75,708.08 L231.67,708.13 L231.59,708.19 C232.16,708.49,232.59,708.81,232.59,709.31 C232.59,709.84,232.02,710.33,231.18,710.33 L231.15,710.03 C231.7,710.03,231.98,709.73,231.98,709.32 H231.98 C231.98,708.85,231.68,708.61,231.29,708.37 C230.81,708.68,230.39,709.02,230.39,709.39 C230.39,709.73,230.66,710.03,231.15,710.03 L231.18,710.33 C230.43,710.33,229.73,709.88,229.73,709.22 C229.73,708.72,230.01,708.41,230.66,707.96 C229.94,707.48,229.68,707.21,229.68,706.7 C229.68,706.1,230.27,705.55,231.2,705.55 L231.26,705.84 C230.7,705.84,230.35,706.24,230.35,706.77 C230.35,707.25,230.61,707.54,230.92,707.79 C231.73,707.24,232.09,706.97,232.09,706.53 H232.09 C232.09,706.12,231.73,705.84,231.26,705.84 L231.2,705.55 C232.27,705.55,232.73,706.22,232.73,706.73 Z " /></g>    <g
       style="font-style:normal;font-variant:normal;font-weight:normal;font-stretch:normal;letter-spacing:normal;word-spacing:normal;text-anchor:start;fill:none;stroke:#000000;stroke-linecap:butt;stroke-linejoin:miter;stroke-miterlimit:10.43299961;stroke-opacity:1;stroke-dasharray:none;stroke-dashoffset:0"
       id="g4674"
       transform="matrix(1.8710503,0,0,-1.8710503,-275.92857,1470.0804)"
       xml:space="preserve"
       stroke-miterlimit="10.433"
       font-style="normal"
       font-variant="normal"
       font-weight="normal"
       font-stretch="normal"
       font-size-adjust="none"
       letter-spacing="normal"
       word-spacing="normal"
       ns0:text="$x$"
       ns0:preamble="/str/dev/texts/preamble.tex"><path
         style="fill:#000000;stroke-width:0"
         inkscape:connector-curvature="0"
         d="m 228.59,711.29 0,0.02 -0.01,0.02 0,0.03 0,0.02 -0.01,0.02 -0.01,0.02 -0.01,0.02 0,0.02 -0.01,0.01 -0.02,0.02 -0.01,0.02 -0.01,0.01 -0.01,0.01 -0.02,0.02 -0.01,0.01 -0.02,0.01 -0.01,0.01 -0.02,0.01 -0.02,0.01 -0.01,0.01 -0.02,0.01 -0.02,0.01 -0.02,0.01 -0.02,0 -0.01,0.01 -0.02,0 -0.02,0.01 -0.02,0 -0.02,0 -0.02,0 -0.01,0 -0.02,0 c -0.5,0 -1.14,-0.74 -1.63,-1.52 -0.01,0.01 -0.08,0.33 -0.08,0.33 -0.16,0.66 -0.35,1.04 -0.69,1.19 0,0 -1.13,-0.23 -1.26,-0.27 v -0.17 c 0.2,0.05 0.35,0.07 0.46,0.07 0.55,0 0.64,-0.53 1.02,-1.96 -0.46,-0.67 -1.16,-1.77 -1.43,-1.77 -0.24,0 -0.25,0.24 -0.56,0.24 -0.22,0 -0.36,-0.16 -0.36,-0.36 0,-0.26 0.19,-0.43 0.47,-0.43 0.69,0 1.34,1.24 1.95,2.02 0.03,-0.08 0.26,-0.96 0.26,-0.96 0.25,-0.91 0.43,-1.06 0.68,-1.06 0.3,0 0.77,0.3 1.25,1.17 l -0.15,0.09 c -0.16,-0.22 -0.45,-0.7 -0.7,-0.7 -0.35,0 -0.54,1.41 -0.79,2.3 0.06,0.08 0.74,1.19 1.12,1.19 0.19,0 0.36,-0.16 0.53,-0.16 0.25,0 0.34,0.2 0.34,0.39 z"
         id="path4676" /></g>    <g
       ns0:preamble="/str/dev/texts/preamble.tex"
       ns0:text="$(0,0)$"
       word-spacing="normal"
       letter-spacing="normal"
       font-size-adjust="none"
       font-stretch="normal"
       font-weight="normal"
       font-variant="normal"
       font-style="normal"
       stroke-miterlimit="10.433"
       xml:space="preserve"
       transform="matrix(1,0,0,-1,-179.02987,956.80889)"
       id="g4774"
       style="font-style:normal;font-variant:normal;font-weight:normal;font-stretch:normal;letter-spacing:normal;word-spacing:normal;text-anchor:start;fill:none;stroke:#000000;stroke-linecap:butt;stroke-linejoin:miter;stroke-miterlimit:10.43299961;stroke-opacity:1;stroke-dasharray:none;stroke-dashoffset:0"><path
         id="path4776"
         d="m 226.99,705 v 0.18 c -1.21,0.69 -1.77,2.09 -1.77,4.46 0,2.32 0.55,3.7 1.77,4.44 v 0.17 c -1.72,-0.88 -2.72,-2.58 -2.72,-4.62 0,-2.08 0.97,-3.68 2.72,-4.63 z"
         inkscape:connector-curvature="0"
         style="fill:#000000;stroke-width:0" /><path
         id="path4778"
         d="m 231.84,710.4 0,0.17 -0.01,0.16 -0.01,0.17 -0.01,0.16 -0.02,0.16 -0.03,0.15 -0.03,0.16 -0.04,0.15 -0.03,0.15 -0.05,0.14 -0.05,0.14 -0.05,0.14 -0.05,0.14 -0.06,0.13 -0.07,0.12 -0.07,0.12 -0.07,0.11 -0.08,0.11 -0.08,0.11 -0.08,0.1 -0.09,0.09 -0.1,0.08 -0.09,0.08 -0.1,0.07 -0.11,0.06 -0.1,0.06 -0.12,0.05 -0.11,0.04 -0.12,0.03 -0.12,0.02 -0.13,0.02 -0.13,0 c -1.39,0 -2.2,-1.62 -2.2,-3.39 0,-1.81 0.76,-3.39 2.2,-3.39 v 0.26 c -1.04,0 -1.25,1.68 -1.25,3.13 0,1.19 0.14,3.12 1.25,3.12 1.12,0 1.26,-1.93 1.26,-3.12 h 0 c 0,-1.45 -0.13,-3.13 -1.26,-3.13 v -0.26 c 1.35,0 2.21,1.58 2.21,3.39 z"
         inkscape:connector-curvature="0"
         style="fill:#000000;stroke-width:0" /><path
         id="path4780"
         d="m 234.12,707.24 0,0.03 0,0.03 0,0.03 -0.01,0.03 0,0.03 0,0.02 0,0.03 -0.01,0.03 -0.01,0.05 -0.01,0.04 -0.01,0.05 -0.02,0.04 -0.01,0.04 -0.02,0.04 -0.02,0.03 -0.02,0.04 -0.02,0.03 -0.02,0.03 -0.02,0.03 -0.03,0.02 -0.02,0.03 -0.03,0.02 -0.02,0.02 -0.03,0.02 -0.02,0.01 -0.03,0.02 -0.02,0.01 -0.03,0.02 -0.02,0.01 -0.03,0 -0.02,0.01 -0.03,0.01 -0.02,0 -0.02,0.01 -0.03,0 -0.02,0 c -0.16,0 -0.57,-0.1 -0.57,-0.57 0,-0.37 0.31,-0.48 0.48,-0.48 0.08,0 0.11,0.04 0.19,0.04 0.06,0 0.16,-0.07 0.16,-0.24 0,-0.13 -0.04,-0.51 -0.67,-0.96 v -0.2 c 0.52,0.35 1.03,0.88 1.03,1.55 z"
         inkscape:connector-curvature="0"
         style="fill:#000000;stroke-width:0" /><path
         id="path4782"
         d="m 241.28,710.4 0,0.17 -0.01,0.16 -0.01,0.17 -0.02,0.16 -0.02,0.16 -0.03,0.15 -0.03,0.16 -0.03,0.15 -0.04,0.15 -0.04,0.14 -0.05,0.14 -0.05,0.14 -0.06,0.14 -0.06,0.13 -0.06,0.12 -0.07,0.12 -0.08,0.11 -0.07,0.11 -0.08,0.11 -0.09,0.1 -0.09,0.09 -0.09,0.08 -0.1,0.08 -0.1,0.07 -0.1,0.06 -0.11,0.06 -0.11,0.05 -0.12,0.04 -0.11,0.03 -0.13,0.02 -0.12,0.02 -0.13,0 c -1.39,0 -2.21,-1.62 -2.21,-3.39 0,-1.81 0.77,-3.39 2.21,-3.39 v 0.26 c -1.05,0 -1.25,1.68 -1.25,3.13 0,1.19 0.14,3.12 1.25,3.12 1.11,0 1.25,-1.93 1.25,-3.12 h 0 c 0,-1.45 -0.13,-3.13 -1.25,-3.13 v -0.26 c 1.34,0 2.21,1.58 2.21,3.39 z"
         inkscape:connector-curvature="0"
         style="fill:#000000;stroke-width:0" /><path
         id="path4784"
         d="m 244.44,709.62 0,0.19 -0.01,0.19 -0.02,0.19 -0.02,0.18 -0.02,0.18 -0.03,0.18 -0.04,0.18 -0.04,0.17 -0.05,0.17 -0.05,0.16 -0.06,0.17 -0.06,0.16 -0.07,0.15 -0.07,0.16 -0.08,0.15 -0.09,0.15 -0.09,0.14 -0.09,0.14 -0.1,0.14 -0.1,0.13 -0.11,0.14 -0.12,0.12 -0.12,0.13 -0.12,0.12 -0.13,0.12 -0.14,0.11 -0.13,0.11 -0.15,0.11 -0.15,0.1 -0.15,0.1 -0.16,0.09 -0.16,0.1 v -0.18 c 1.22,-0.71 1.77,-2.11 1.77,-4.46 0,-2.34 -0.54,-3.72 -1.77,-4.44 V 705 c 1.72,0.86 2.73,2.56 2.73,4.62 z"
         inkscape:connector-curvature="0"
         style="fill:#000000;stroke-width:0" /></g>    <g
       id="g4906"
       transform="matrix(1,0,0,-1,-87.195156,957.17044)"
       xml:space="preserve"
       stroke-miterlimit="10.433"
       font-style="normal"
       font-variant="normal"
       font-weight="normal"
       font-stretch="normal"
       font-size-adjust="none"
       letter-spacing="normal"
       word-spacing="normal"
       ns0:text="$(1,0)$"
       ns0:preamble="/str/dev/texts/preamble.tex"
       style="font-style:normal;font-variant:normal;font-weight:normal;font-stretch:normal;letter-spacing:normal;word-spacing:normal;text-anchor:start;fill:none;stroke:#000000;stroke-linecap:butt;stroke-linejoin:miter;stroke-miterlimit:10.43299961;stroke-opacity:1;stroke-dasharray:none;stroke-dashoffset:0"><path
         style="fill:#000000;stroke-width:0"
         inkscape:connector-curvature="0"
         d="m 226.99,705 v 0.18 c -1.21,0.69 -1.77,2.09 -1.77,4.46 0,2.32 0.55,3.7 1.77,4.44 v 0.17 c -1.72,-0.88 -2.72,-2.58 -2.72,-4.62 0,-2.08 0.97,-3.68 2.72,-4.63 z"
         id="path4908" /><path
         style="fill:#000000;stroke-width:0"
         inkscape:connector-curvature="0"
         d="m 231.01,707.12 v 0.16 c -0.66,0 -0.9,-0.02 -0.9,1.29 0,0.01 0,5.26 0,5.26 h -0.14 l -1.7,-0.82 0.05,-0.15 c 0.37,0.16 0.46,0.19 0.59,0.19 0.31,0 0.35,-0.27 0.35,-0.61 v -3.87 c 0,-1.31 -0.24,-1.28 -0.9,-1.29 v -0.16 z"
         id="path4910" /><path
         style="fill:#000000;stroke-width:0"
         inkscape:connector-curvature="0"
         d="m 234.12,707.24 0,0.03 0,0.03 0,0.03 -0.01,0.03 0,0.03 0,0.02 0,0.03 -0.01,0.03 -0.01,0.05 -0.01,0.04 -0.01,0.05 -0.02,0.04 -0.01,0.04 -0.02,0.04 -0.02,0.03 -0.02,0.04 -0.02,0.03 -0.02,0.03 -0.02,0.03 -0.03,0.02 -0.02,0.03 -0.03,0.02 -0.02,0.02 -0.03,0.02 -0.02,0.01 -0.03,0.02 -0.02,0.01 -0.03,0.02 -0.02,0.01 -0.03,0 -0.02,0.01 -0.03,0.01 -0.02,0 -0.02,0.01 -0.03,0 -0.02,0 c -0.16,0 -0.57,-0.1 -0.57,-0.57 0,-0.37 0.31,-0.48 0.48,-0.48 0.08,0 0.11,0.04 0.19,0.04 0.06,0 0.16,-0.07 0.16,-0.24 0,-0.13 -0.04,-0.51 -0.67,-0.96 v -0.2 c 0.52,0.35 1.03,0.88 1.03,1.55 z"
         id="path4912" /><path
         style="fill:#000000;stroke-width:0"
         inkscape:connector-curvature="0"
         d="m 241.28,710.4 0,0.17 -0.01,0.16 -0.01,0.17 -0.02,0.16 -0.02,0.16 -0.03,0.15 -0.03,0.16 -0.03,0.15 -0.04,0.15 -0.04,0.14 -0.05,0.14 -0.05,0.14 -0.06,0.14 -0.06,0.13 -0.06,0.12 -0.07,0.12 -0.08,0.11 -0.07,0.11 -0.08,0.11 -0.09,0.1 -0.09,0.09 -0.09,0.08 -0.1,0.08 -0.1,0.07 -0.1,0.06 -0.11,0.06 -0.11,0.05 -0.12,0.04 -0.11,0.03 -0.13,0.02 -0.12,0.02 -0.13,0 c -1.39,0 -2.21,-1.62 -2.21,-3.39 0,-1.81 0.77,-3.39 2.21,-3.39 v 0.26 c -1.05,0 -1.25,1.68 -1.25,3.13 0,1.19 0.14,3.12 1.25,3.12 1.11,0 1.25,-1.93 1.25,-3.12 h 0 c 0,-1.45 -0.13,-3.13 -1.25,-3.13 v -0.26 c 1.34,0 2.21,1.58 2.21,3.39 z"
         id="path4914" /><path
         style="fill:#000000;stroke-width:0"
         inkscape:connector-curvature="0"
         d="m 244.44,709.62 0,0.19 -0.01,0.19 -0.02,0.19 -0.02,0.18 -0.02,0.18 -0.03,0.18 -0.04,0.18 -0.04,0.17 -0.05,0.17 -0.05,0.16 -0.06,0.17 -0.06,0.16 -0.07,0.15 -0.07,0.16 -0.08,0.15 -0.09,0.15 -0.09,0.14 -0.09,0.14 -0.1,0.14 -0.1,0.13 -0.11,0.14 -0.12,0.12 -0.12,0.13 -0.12,0.12 -0.13,0.12 -0.14,0.11 -0.13,0.11 -0.15,0.11 -0.15,0.1 -0.15,0.1 -0.16,0.09 -0.16,0.1 v -0.18 c 1.22,-0.71 1.77,-2.11 1.77,-4.46 0,-2.34 -0.54,-3.72 -1.77,-4.44 V 705 c 1.72,0.86 2.73,2.56 2.73,4.62 z"
         id="path4916" /></g>    <g
       style="font-style:normal;font-variant:normal;font-weight:normal;font-stretch:normal;letter-spacing:normal;word-spacing:normal;text-anchor:start;fill:none;stroke:#000000;stroke-linecap:butt;stroke-linejoin:miter;stroke-miterlimit:10.43299961;stroke-opacity:1;stroke-dasharray:none;stroke-dashoffset:0"
       ns0:preamble="/str/dev/texts/preamble.tex"
       ns0:text="$(2,0)$"
       word-spacing="normal"
       letter-spacing="normal"
       font-size-adjust="none"
       font-stretch="normal"
       font-weight="normal"
       font-variant="normal"
       font-style="normal"
       stroke-miterlimit="10.433"
       xml:space="preserve"
       transform="matrix(1,0,0,-1,4.2780041,957.17044)"
       id="g5050"><path
         id="path5052"
         d="m 226.99,705 v 0.18 c -1.21,0.69 -1.77,2.09 -1.77,4.46 0,2.32 0.55,3.7 1.77,4.44 v 0.17 c -1.72,-0.88 -2.72,-2.58 -2.72,-4.62 0,-2.08 0.97,-3.68 2.72,-4.63 z"
         inkscape:connector-curvature="0"
         style="fill:#000000;stroke-width:0" /><path
         id="path5054"
         d="m 231.87,708.41 -0.16,0.03 c -0.29,-0.5 -0.53,-0.59 -1.02,-0.59 h -2.29 c 1.57,1.44 3.01,2.74 3.01,4.19 0,1.03 -0.88,1.75 -1.84,1.75 -0.97,0 -1.73,-0.52 -2.02,-1.88 h 0.21 c 0.28,0.56 0.67,1.14 1.44,1.14 0.86,0 1.35,-0.66 1.35,-1.41 0,-1.07 -1.15,-2.65 -3.11,-4.37 v -0.15 h 3.92 z"
         inkscape:connector-curvature="0"
         style="fill:#000000;stroke-width:0" /><path
         id="path5056"
         d="m 234.52,707.24 0,0.03 0,0.03 0,0.03 -0.01,0.03 0,0.03 0,0.02 -0.01,0.03 0,0.03 -0.01,0.05 -0.01,0.04 -0.01,0.05 -0.02,0.04 -0.01,0.04 -0.02,0.04 -0.02,0.03 -0.02,0.04 -0.02,0.03 -0.02,0.03 -0.02,0.03 -0.03,0.02 -0.02,0.03 -0.03,0.02 -0.02,0.02 -0.03,0.02 -0.02,0.01 -0.03,0.02 -0.02,0.01 -0.03,0.02 -0.03,0.01 -0.02,0 -0.03,0.01 -0.02,0.01 -0.02,0 -0.03,0.01 -0.02,0 -0.02,0 c -0.16,0 -0.58,-0.1 -0.58,-0.57 0,-0.37 0.32,-0.48 0.49,-0.48 0.08,0 0.11,0.04 0.19,0.04 0.06,0 0.16,-0.07 0.16,-0.24 0,-0.13 -0.04,-0.51 -0.67,-0.96 v -0.2 c 0.52,0.35 1.03,0.88 1.03,1.55 z"
         inkscape:connector-curvature="0"
         style="fill:#000000;stroke-width:0" /><path
         id="path5058"
         d="m 241.68,710.4 -0.01,0.17 0,0.16 -0.01,0.17 -0.02,0.16 -0.02,0.16 -0.03,0.15 -0.03,0.16 -0.03,0.15 -0.04,0.15 -0.04,0.14 -0.05,0.14 -0.05,0.14 -0.06,0.14 -0.06,0.13 -0.07,0.12 -0.07,0.12 -0.07,0.11 -0.08,0.11 -0.08,0.11 -0.08,0.1 -0.09,0.09 -0.09,0.08 -0.1,0.08 -0.1,0.07 -0.1,0.06 -0.11,0.06 -0.11,0.05 -0.12,0.04 -0.12,0.03 -0.12,0.02 -0.12,0.02 -0.13,0 c -1.39,0 -2.21,-1.62 -2.21,-3.39 0,-1.81 0.77,-3.39 2.21,-3.39 v 0.26 c -1.05,0 -1.26,1.68 -1.26,3.13 0,1.19 0.14,3.12 1.26,3.12 1.11,0 1.25,-1.93 1.25,-3.12 h 0 c 0,-1.45 -0.13,-3.13 -1.25,-3.13 v -0.26 c 1.34,0 2.21,1.58 2.21,3.39 z"
         inkscape:connector-curvature="0"
         style="fill:#000000;stroke-width:0" /><path
         id="path5060"
         d="m 244.84,709.62 0,0.19 -0.01,0.19 -0.02,0.19 -0.02,0.18 -0.02,0.18 -0.03,0.18 -0.04,0.18 -0.04,0.17 -0.05,0.17 -0.05,0.16 -0.06,0.17 -0.06,0.16 -0.07,0.15 -0.08,0.16 -0.07,0.15 -0.09,0.15 -0.09,0.14 -0.09,0.14 -0.1,0.14 -0.11,0.13 -0.11,0.14 -0.11,0.12 -0.12,0.13 -0.12,0.12 -0.13,0.12 -0.14,0.11 -0.13,0.11 -0.15,0.11 -0.15,0.1 -0.15,0.1 -0.16,0.09 -0.16,0.1 v -0.18 c 1.21,-0.71 1.77,-2.11 1.77,-4.46 0,-2.34 -0.54,-3.72 -1.77,-4.44 V 705 c 1.72,0.86 2.73,2.56 2.73,4.62 z"
         inkscape:connector-curvature="0"
         style="fill:#000000;stroke-width:0" /></g>    <g
       id="g5206"
       transform="matrix(1,0,0,-1,-199.27689,852.68134)"
       xml:space="preserve"
       stroke="black"
       stroke-linecap="butt"
       stroke-linejoin="miter"
       stroke-miterlimit="10.433"
       stroke-dasharray="none"
       stroke-dashoffset="0"
       stroke-opacity="1"
       fill="none"
       fill-rule="evenodd"
       fill-opacity="1"
       font-style="normal"
       font-variant="normal"
       font-weight="normal"
       font-stretch="normal"
       font-size-adjust="none"
       letter-spacing="normal"
       word-spacing="normal"
       text-anchor="start"
       ns0:text="$(0,1)$"
       ns0:preamble="/str/dev/texts/preamble.tex"
       style="font-style:normal;font-variant:normal;font-weight:normal;font-stretch:normal;letter-spacing:normal;word-spacing:normal;text-anchor:start;fill:none;stroke:#000000;stroke-linecap:butt;stroke-linejoin:miter;stroke-miterlimit:10.43299961;stroke-opacity:1;stroke-dasharray:none;stroke-dashoffset:0"><path
         d="M226.99,705 V705.18 C225.78,705.87,225.22,707.27,225.22,709.64 C225.22,711.96,225.77,713.34,226.99,714.08 V714.25 C225.27,713.37,224.27,711.67,224.27,709.63 C224.27,707.55,225.24,705.95,226.99,705 Z "
         stroke-width="0"
         fill="black"
         id="path5208" /><path
         d="M231.84,710.4 L231.84,710.57 L231.83,710.73 L231.82,710.9 L231.81,711.06 L231.79,711.22 L231.76,711.37 L231.73,711.53 L231.69,711.68 L231.66,711.83 L231.61,711.97 L231.56,712.11 L231.51,712.25 L231.46,712.39 L231.4,712.52 L231.33,712.64 L231.26,712.76 L231.19,712.87 L231.11,712.98 L231.03,713.09 L230.95,713.19 L230.86,713.28 L230.76,713.36 L230.67,713.44 L230.57,713.51 L230.46,713.57 L230.36,713.63 L230.24,713.68 L230.13,713.72 L230.01,713.75 L229.89,713.77 L229.76,713.79 L229.63,713.79 C228.24,713.79,227.43,712.17,227.43,710.4 C227.43,708.59,228.19,707.01,229.63,707.01 V707.27 C228.59,707.27,228.38,708.95,228.38,710.4 C228.38,711.59,228.52,713.52,229.63,713.52 C230.75,713.52,230.89,711.59,230.89,710.4 H230.89 C230.89,708.95,230.76,707.27,229.63,707.27 V707.01 C230.98,707.01,231.84,708.59,231.84,710.4 Z "
         stroke-width="0"
         fill="black"
         id="path5210" /><path
         d="M234.12,707.24 L234.12,707.27 L234.12,707.3 L234.12,707.33 L234.11,707.36 L234.11,707.39 L234.11,707.41 L234.11,707.44 L234.1,707.47 L234.09,707.52 L234.08,707.56 L234.07,707.61 L234.05,707.65 L234.04,707.69 L234.02,707.73 L234,707.76 L233.98,707.8 L233.96,707.83 L233.94,707.86 L233.92,707.89 L233.89,707.91 L233.87,707.94 L233.84,707.96 L233.82,707.98 L233.79,708 L233.77,708.01 L233.74,708.03 L233.72,708.04 L233.69,708.06 L233.67,708.07 L233.64,708.07 L233.62,708.08 L233.59,708.09 L233.57,708.09 L233.55,708.1 L233.52,708.1 L233.5,708.1 C233.34,708.1,232.93,708,232.93,707.53 C232.93,707.16,233.24,707.05,233.41,707.05 C233.49,707.05,233.52,707.09,233.6,707.09 C233.66,707.09,233.76,707.02,233.76,706.85 C233.76,706.72,233.72,706.34,233.09,705.89 V705.69 C233.61,706.04,234.12,706.57,234.12,707.24 Z "
         stroke-width="0"
         fill="black"
         id="path5212" /><path
         d="M240.44,707.12 V707.28 C239.79,707.28,239.55,707.26,239.55,708.57 C239.55,708.58,239.55,713.83,239.55,713.83 H239.41 L237.71,713.01 L237.76,712.86 C238.12,713.02,238.21,713.05,238.34,713.05 C238.65,713.05,238.69,712.78,238.69,712.44 V708.57 C238.69,707.26,238.45,707.29,237.8,707.28 V707.12 Z "
         stroke-width="0"
         fill="black"
         id="path5214" /><path
         d="M244.44,709.62 L244.44,709.81 L244.43,710 L244.41,710.19 L244.39,710.37 L244.37,710.55 L244.34,710.73 L244.3,710.91 L244.26,711.08 L244.21,711.25 L244.16,711.41 L244.1,711.58 L244.04,711.74 L243.97,711.89 L243.9,712.05 L243.82,712.2 L243.73,712.35 L243.64,712.49 L243.55,712.63 L243.45,712.77 L243.35,712.9 L243.24,713.04 L243.12,713.16 L243,713.29 L242.88,713.41 L242.75,713.53 L242.61,713.64 L242.48,713.75 L242.33,713.86 L242.18,713.96 L242.03,714.06 L241.87,714.15 L241.71,714.25 V714.07 C242.93,713.36,243.48,711.96,243.48,709.61 C243.48,707.27,242.94,705.89,241.71,705.17 V705 C243.43,705.86,244.44,707.56,244.44,709.62 Z "
         stroke-width="0"
         fill="black"
         id="path5216" /></g>    <g
       style="font-style:normal;font-variant:normal;font-weight:normal;font-stretch:normal;letter-spacing:normal;word-spacing:normal;text-anchor:start;fill:none;stroke:#000000;stroke-linecap:butt;stroke-linejoin:miter;stroke-miterlimit:10.43299961;stroke-opacity:1;stroke-dasharray:none;stroke-dashoffset:0"
       ns0:preamble="/str/dev/texts/preamble.tex"
       ns0:text="$(0,2)$"
       word-spacing="normal"
       letter-spacing="normal"
       font-size-adjust="none"
       font-stretch="normal"
       font-weight="normal"
       font-variant="normal"
       font-style="normal"
       stroke-miterlimit="10.433"
       xml:space="preserve"
       transform="matrix(1,0,0,-1,-199.27689,760.12352)"
       id="g5374"><path
         id="path5376"
         d="m 226.99,705 v 0.18 c -1.21,0.69 -1.77,2.09 -1.77,4.46 0,2.32 0.55,3.7 1.77,4.44 v 0.17 c -1.72,-0.88 -2.72,-2.58 -2.72,-4.62 0,-2.08 0.97,-3.68 2.72,-4.63 z"
         inkscape:connector-curvature="0"
         style="fill:#000000;stroke-width:0" /><path
         id="path5378"
         d="m 231.84,710.4 0,0.17 -0.01,0.16 -0.01,0.17 -0.01,0.16 -0.02,0.16 -0.03,0.15 -0.03,0.16 -0.04,0.15 -0.03,0.15 -0.05,0.14 -0.05,0.14 -0.05,0.14 -0.05,0.14 -0.06,0.13 -0.07,0.12 -0.07,0.12 -0.07,0.11 -0.08,0.11 -0.08,0.11 -0.08,0.1 -0.09,0.09 -0.1,0.08 -0.09,0.08 -0.1,0.07 -0.11,0.06 -0.1,0.06 -0.12,0.05 -0.11,0.04 -0.12,0.03 -0.12,0.02 -0.13,0.02 -0.13,0 c -1.39,0 -2.2,-1.62 -2.2,-3.39 0,-1.81 0.76,-3.39 2.2,-3.39 v 0.26 c -1.04,0 -1.25,1.68 -1.25,3.13 0,1.19 0.14,3.12 1.25,3.12 1.12,0 1.26,-1.93 1.26,-3.12 h 0 c 0,-1.45 -0.13,-3.13 -1.26,-3.13 v -0.26 c 1.35,0 2.21,1.58 2.21,3.39 z"
         inkscape:connector-curvature="0"
         style="fill:#000000;stroke-width:0" /><path
         id="path5380"
         d="m 234.12,707.24 0,0.03 0,0.03 0,0.03 -0.01,0.03 0,0.03 0,0.02 0,0.03 -0.01,0.03 -0.01,0.05 -0.01,0.04 -0.01,0.05 -0.02,0.04 -0.01,0.04 -0.02,0.04 -0.02,0.03 -0.02,0.04 -0.02,0.03 -0.02,0.03 -0.02,0.03 -0.03,0.02 -0.02,0.03 -0.03,0.02 -0.02,0.02 -0.03,0.02 -0.02,0.01 -0.03,0.02 -0.02,0.01 -0.03,0.02 -0.02,0.01 -0.03,0 -0.02,0.01 -0.03,0.01 -0.02,0 -0.02,0.01 -0.03,0 -0.02,0 c -0.16,0 -0.57,-0.1 -0.57,-0.57 0,-0.37 0.31,-0.48 0.48,-0.48 0.08,0 0.11,0.04 0.19,0.04 0.06,0 0.16,-0.07 0.16,-0.24 0,-0.13 -0.04,-0.51 -0.67,-0.96 v -0.2 c 0.52,0.35 1.03,0.88 1.03,1.55 z"
         inkscape:connector-curvature="0"
         style="fill:#000000;stroke-width:0" /><path
         id="path5382"
         d="m 241.31,708.41 -0.16,0.03 c -0.3,-0.5 -0.54,-0.59 -1.03,-0.59 h -2.28 c 1.57,1.44 3,2.74 3,4.19 0,1.03 -0.88,1.75 -1.84,1.75 -0.96,0 -1.73,-0.52 -2.02,-1.88 h 0.22 c 0.28,0.56 0.67,1.14 1.43,1.14 0.87,0 1.36,-0.66 1.36,-1.41 0,-1.07 -1.16,-2.65 -3.12,-4.37 v -0.15 h 3.92 z"
         inkscape:connector-curvature="0"
         style="fill:#000000;stroke-width:0" /><path
         id="path5384"
         d="m 244.44,709.62 0,0.19 -0.01,0.19 -0.02,0.19 -0.02,0.18 -0.02,0.18 -0.03,0.18 -0.04,0.18 -0.04,0.17 -0.05,0.17 -0.05,0.16 -0.06,0.17 -0.06,0.16 -0.07,0.15 -0.07,0.16 -0.08,0.15 -0.09,0.15 -0.09,0.14 -0.09,0.14 -0.1,0.14 -0.1,0.13 -0.11,0.14 -0.12,0.12 -0.12,0.13 -0.12,0.12 -0.13,0.12 -0.14,0.11 -0.13,0.11 -0.15,0.11 -0.15,0.1 -0.15,0.1 -0.16,0.09 -0.16,0.1 v -0.18 c 1.22,-0.71 1.77,-2.11 1.77,-4.46 0,-2.34 -0.54,-3.72 -1.77,-4.44 V 705 c 1.72,0.86 2.73,2.56 2.73,4.62 z"
         inkscape:connector-curvature="0"
         style="fill:#000000;stroke-width:0" /></g>  </g>
</svg>
