%!PS-Adobe-3.0 EPSF-3.0
%%Creator: MATLAB, The MathWorks, Inc. Version 8.3.0.532 (R2014a). Operating System: Linux 4.1.2-2-ARCH #1 SMP PREEMPT Wed Jul 15 08:30:32 UTC 2015 x86_64.
%%Title: /str/dev/elte-ellipticpde/notes/fig/grid3.eps
%%CreationDate: 07/25/2015  11:36:39
%%DocumentNeededFonts: Helvetica
%%DocumentProcessColors: Cyan Magenta Yellow Black
%%LanguageLevel: 2
%%Pages: 1
%%BoundingBox:    81   227   529   564
%%EndComments

%%BeginProlog
% MathWorks dictionary
/MathWorks 160 dict begin
% definition operators
/bdef {bind def} bind def
/ldef {load def} bind def
/xdef {exch def} bdef
/xstore {exch store} bdef
% operator abbreviations
/c  /clip ldef
/cc /concat ldef
/cp /closepath ldef
/gr /grestore ldef
/gs /gsave ldef
/mt /moveto ldef
/np /newpath ldef
/cm /currentmatrix ldef
/sm /setmatrix ldef
/rm /rmoveto ldef
/rl /rlineto ldef
/s {show newpath} bdef
/sc {setcmykcolor} bdef
/sr /setrgbcolor ldef
/sg /setgray ldef
/w /setlinewidth ldef
/j /setlinejoin ldef
/cap /setlinecap ldef
/rc {rectclip} bdef
/rf {rectfill} bdef
% page state control
/pgsv () def
/bpage {/pgsv save def} bdef
/epage {pgsv restore} bdef
/bplot /gsave ldef
/eplot {stroke grestore} bdef
% orientation switch
/portraitMode 0 def /landscapeMode 1 def /rotateMode 2 def
% coordinate system mappings
/dpi2point 0 def
% font control
/FontSize 0 def
/FMS {/FontSize xstore findfont [FontSize 0 0 FontSize neg 0 0]
  makefont setfont} bdef
/reencode {exch dup where {pop load} {pop StandardEncoding} ifelse
  exch dup 3 1 roll findfont dup length dict begin
  { 1 index /FID ne {def}{pop pop} ifelse } forall
  /Encoding exch def currentdict end definefont pop} bdef
/isroman {findfont /CharStrings get /Agrave known} bdef
/FMSR {3 1 roll 1 index dup isroman {reencode} {pop pop} ifelse
  exch FMS} bdef
/csm {1 dpi2point div -1 dpi2point div scale neg translate
 dup landscapeMode eq {pop -90 rotate}
  {rotateMode eq {90 rotate} if} ifelse} bdef
% line types: solid, dotted, dashed, dotdash
/SO { [] 0 setdash } bdef
/DO { [.5 dpi2point mul 4 dpi2point mul] 0 setdash } bdef
/DA { [6 dpi2point mul] 0 setdash } bdef
/DD { [.5 dpi2point mul 4 dpi2point mul 6 dpi2point mul 4
  dpi2point mul] 0 setdash } bdef
% macros for lines and objects
/L {lineto stroke} bdef
/MP {3 1 roll moveto 1 sub {rlineto} repeat} bdef
/AP {{rlineto} repeat} bdef
/PDlw -1 def
/W {/PDlw currentlinewidth def setlinewidth} def
/PP {closepath eofill} bdef
/DP {closepath stroke} bdef
/MR {4 -2 roll moveto dup  0 exch rlineto exch 0 rlineto
  neg 0 exch rlineto closepath} bdef
/FR {MR stroke} bdef
/PR {MR fill} bdef
/L1i {{currentfile picstr readhexstring pop} image} bdef
/tMatrix matrix def
/MakeOval {newpath tMatrix currentmatrix pop translate scale
0 0 1 0 360 arc tMatrix setmatrix} bdef
/FO {MakeOval stroke} bdef
/PO {MakeOval fill} bdef
/PD {currentlinewidth 2 div 0 360 arc fill
   PDlw -1 eq not {PDlw w /PDlw -1 def} if} def
/FA {newpath tMatrix currentmatrix pop translate scale
  0 0 1 5 -2 roll arc tMatrix setmatrix stroke} bdef
/PA {newpath tMatrix currentmatrix pop	translate 0 0 moveto scale
  0 0 1 5 -2 roll arc closepath tMatrix setmatrix fill} bdef
/FAn {newpath tMatrix currentmatrix pop translate scale
  0 0 1 5 -2 roll arcn tMatrix setmatrix stroke} bdef
/PAn {newpath tMatrix currentmatrix pop translate 0 0 moveto scale
  0 0 1 5 -2 roll arcn closepath tMatrix setmatrix fill} bdef
/vradius 0 def /hradius 0 def /lry 0 def
/lrx 0 def /uly 0 def /ulx 0 def /rad 0 def
/MRR {/vradius xdef /hradius xdef /lry xdef /lrx xdef /uly xdef
  /ulx xdef newpath tMatrix currentmatrix pop ulx hradius add uly
  vradius add translate hradius vradius scale 0 0 1 180 270 arc 
  tMatrix setmatrix lrx hradius sub uly vradius add translate
  hradius vradius scale 0 0 1 270 360 arc tMatrix setmatrix
  lrx hradius sub lry vradius sub translate hradius vradius scale
  0 0 1 0 90 arc tMatrix setmatrix ulx hradius add lry vradius sub
  translate hradius vradius scale 0 0 1 90 180 arc tMatrix setmatrix
  closepath} bdef
/FRR {MRR stroke } bdef
/PRR {MRR fill } bdef
/MlrRR {/lry xdef /lrx xdef /uly xdef /ulx xdef /rad lry uly sub 2 div def
  newpath tMatrix currentmatrix pop ulx rad add uly rad add translate
  rad rad scale 0 0 1 90 270 arc tMatrix setmatrix lrx rad sub lry rad
  sub translate rad rad scale 0 0 1 270 90 arc tMatrix setmatrix
  closepath} bdef
/FlrRR {MlrRR stroke } bdef
/PlrRR {MlrRR fill } bdef
/MtbRR {/lry xdef /lrx xdef /uly xdef /ulx xdef /rad lrx ulx sub 2 div def
  newpath tMatrix currentmatrix pop ulx rad add uly rad add translate
  rad rad scale 0 0 1 180 360 arc tMatrix setmatrix lrx rad sub lry rad
  sub translate rad rad scale 0 0 1 0 180 arc tMatrix setmatrix
  closepath} bdef
/FtbRR {MtbRR stroke } bdef
/PtbRR {MtbRR fill } bdef
/stri 6 array def /dtri 6 array def
/smat 6 array def /dmat 6 array def
/tmat1 6 array def /tmat2 6 array def /dif 3 array def
/asub {/ind2 exch def /ind1 exch def dup dup
  ind1 get exch ind2 get sub exch } bdef
/tri_to_matrix {
  2 0 asub 3 1 asub 4 0 asub 5 1 asub
  dup 0 get exch 1 get 7 -1 roll astore } bdef
/compute_transform {
  dmat dtri tri_to_matrix tmat1 invertmatrix 
  smat stri tri_to_matrix tmat2 concatmatrix } bdef
/ds {stri astore pop} bdef
/dt {dtri astore pop} bdef
/db {2 copy /cols xdef /rows xdef mul dup 3 mul string
  currentfile 
  3 index 0 eq {/ASCIIHexDecode filter}
  {/ASCII85Decode filter 3 index 2 eq {/RunLengthDecode filter} if }
  ifelse exch readstring pop
  dup 0 3 index getinterval /rbmap xdef
  dup 2 index dup getinterval /gbmap xdef
  1 index dup 2 mul exch getinterval /bbmap xdef pop pop}bdef
/it {gs np dtri aload pop moveto lineto lineto cp c
  cols rows 8 compute_transform 
  rbmap gbmap bbmap true 3 colorimage gr}bdef
/il {newpath moveto lineto stroke}bdef
currentdict end def
%%EndProlog

%%BeginSetup
MathWorks begin

0 cap

end
%%EndSetup

%%Page: 1 1
%%BeginPageSetup
%%PageBoundingBox:    81   227   529   564
MathWorks begin
bpage
%%EndPageSetup

%%BeginObject: obj1
bplot

/dpi2point 12 def
portraitMode 0972 6768 csm

    0     0  5376  4033 rc
85 dict begin %Colortable dictionary
/c0 { 0.000000 0.000000 0.000000 sr} bdef
/c1 { 1.000000 1.000000 1.000000 sr} bdef
/c2 { 0.900000 0.000000 0.000000 sr} bdef
/c3 { 0.000000 0.820000 0.000000 sr} bdef
/c4 { 0.000000 0.000000 0.800000 sr} bdef
/c5 { 0.910000 0.820000 0.320000 sr} bdef
/c6 { 1.000000 0.260000 0.820000 sr} bdef
/c7 { 0.000000 0.820000 0.820000 sr} bdef
c0
1 j
1 sg
   0    0 5377 4034 rf
6 w
0 3288 3287 0 0 -3288 1138 3589 4 MP
PP
-3287 0 0 3288 3287 0 0 -3288 1138 3589 5 MP stroke
4 w
DO
SO
6 w
0 sg
1138 3589 mt 4425 3589 L
1138  301 mt 4425  301 L
1138 3589 mt 1138  301 L
4425 3589 mt 4425  301 L
1138 3589 mt 4425 3589 L
1138 3589 mt 1138  301 L
1138 3589 mt 1138 3556 L
1138  301 mt 1138  334 L
%%IncludeResource: font Helvetica
/Helvetica /ISOLatin1Encoding 120 FMSR

1035 3734 mt 
(-1) s
1960 3589 mt 1960 3556 L
1960  301 mt 1960  334 L
1807 3734 mt 
(-0.5) s
2782 3589 mt 2782 3556 L
2782  301 mt 2782  334 L
2749 3734 mt 
(0) s
3603 3589 mt 3603 3556 L
3603  301 mt 3603  334 L
3520 3734 mt 
(0.5) s
4425 3589 mt 4425 3556 L
4425  301 mt 4425  334 L
4392 3734 mt 
(1) s
1138 3589 mt 1171 3589 L
4425 3589 mt 4392 3589 L
 967 3633 mt 
(-1) s
1138 3260 mt 1171 3260 L
4425 3260 mt 4392 3260 L
 867 3304 mt 
(-0.8) s
1138 2931 mt 1171 2931 L
4425 2931 mt 4392 2931 L
 867 2975 mt 
(-0.6) s
1138 2602 mt 1171 2602 L
4425 2602 mt 4392 2602 L
 867 2646 mt 
(-0.4) s
1138 2274 mt 1171 2274 L
4425 2274 mt 4392 2274 L
 867 2318 mt 
(-0.2) s
1138 1945 mt 1171 1945 L
4425 1945 mt 4392 1945 L
1037 1989 mt 
(0) s
1138 1616 mt 1171 1616 L
4425 1616 mt 4392 1616 L
 937 1660 mt 
(0.2) s
1138 1288 mt 1171 1288 L
4425 1288 mt 4392 1288 L
 937 1332 mt 
(0.4) s
1138  959 mt 1171  959 L
4425  959 mt 4392  959 L
 937 1003 mt 
(0.6) s
1138  630 mt 1171  630 L
4425  630 mt 4392  630 L
 937  674 mt 
(0.8) s
1138  301 mt 1171  301 L
4425  301 mt 4392  301 L
1037  345 mt 
(1) s
1138 3589 mt 4425 3589 L
1138  301 mt 4425  301 L
1138 3589 mt 1138  301 L
4425 3589 mt 4425  301 L
gs 1138 301 3288 3289 rc
/c8 { 0.000000 0.000000 1.000000 sr} bdef
c8
148 -49 -58 114 -90 -65 1811 1240 4 MP stroke
/c9 { 0.000000 0.500000 0.000000 sr} bdef
c9
-119 -86 104 -28 15 114 1811 1240 4 MP stroke
/c10 { 1.000000 0.000000 0.000000 sr} bdef
c10
-105 28 43 -116 62 88 1869 1698 4 MP stroke
/c11 { 0.000000 0.750000 0.750000 sr} bdef
c11
124 90 -97 76 -27 -166 2782 1945 4 MP stroke
/c12 { 0.750000 0.000000 0.750000 sr} bdef
c12
-124 -90 166 -26 -42 116 2286 1585 4 MP stroke
/c13 { 0.750000 0.750000 0.000000 sr} bdef
c13
156 1 -65 90 -91 -91 4111 979 4 MP stroke
0.25 sg
124 90 -166 26 42 -116 3277 2305 4 MP stroke
c8
90 -124 26 167 -116 -43 3141 1450 4 MP stroke
c9
-89 124 -77 -98 166 -26 2782 1945 4 MP stroke
c10
65 -89 91 91 -156 -2 2076 2916 4 MP stroke
c11
47 -117 66 94 -113 23 2968 3120 4 MP stroke
c12
93 -66 -20 127 -73 -61 1513 1681 4 MP stroke
c13
-75 110 -14 -114 89 4 1513 1681 4 MP stroke
0.25 sg
74 -110 74 61 -148 49 1811 1240 4 MP stroke
c8
1 -156 89 65 -90 91 1815 615 4 MP stroke
c9
90 -124 77 98 -167 26 2782 1945 4 MP stroke
c10
118 46 -94 66 -24 -112 1607 2131 4 MP stroke
c11
-65 108 -62 -88 127 -20 1607 2131 4 MP stroke
c12
65 -108 24 112 -89 -4 1869 1698 4 MP stroke
c13
-126 -21 60 -73 66 94 2782 301 4 MP stroke
0.25 sg
50 148 -115 -59 65 -89 3487 974 4 MP stroke
c8
-50 -148 111 74 -61 74 3289 382 4 MP stroke
c9
47 -118 80 97 -127 21 2782 301 4 MP stroke
c10
-47 117 -66 -94 113 -23 2595 770 4 MP stroke
c11
-118 -46 94 -66 24 112 3956 1759 4 MP stroke
c12
-90 -65 91 -91 -1 156 3752 2650 4 MP stroke
c13
-62 -88 104 -28 -42 116 3446 1840 4 MP stroke
0.25 sg
62 88 -127 20 65 -108 3694 2192 4 MP stroke
c8
89 4 -65 108 -24 -112 4050 2209 4 MP stroke
c9
15 114 -89 -4 74 -110 3752 2650 4 MP stroke
c10
-14 -114 119 86 -105 28 3694 2192 4 MP stroke
c11
-88 62 -29 -104 117 42 2676 1281 4 MP stroke
c12
88 -62 20 128 -108 -66 3028 1033 4 MP stroke
c13
5 -89 108 66 -113 23 3046 677 4 MP stroke
0.25 sg
115 -15 -4 89 -111 -74 3487 974 4 MP stroke
c8
-115 15 86 -119 29 104 3028 1033 4 MP stroke
c9
127 21 -60 73 -67 -94 2782 3589 4 MP stroke
c10
50 148 -111 -74 61 -74 2274 3508 4 MP stroke
c11
-50 -148 115 59 -65 89 2076 2916 4 MP stroke
c12
127 -20 -47 117 -80 -97 3289 3508 4 MP stroke
c13
113 -22 6 108 -119 -86 3752 2650 4 MP stroke
0.25 sg
21 114 -108 5 87 -119 2076 2916 4 MP stroke
c8
-32 103 -76 -97 108 -6 1990 2462 4 MP stroke
c9
32 -103 96 83 -128 20 2117 2050 4 MP stroke
c10
-5 89 -108 -66 113 -23 2517 3213 4 MP stroke
c11
-115 15 4 -89 111 74 2076 2916 4 MP stroke
c12
115 -15 -86 119 -29 -104 2535 2857 4 MP stroke
c13
20 127 -117 -46 97 -81 1218 2453 4 MP stroke
0.25 sg
34 -110 81 52 -115 58 2274 382 4 MP stroke
c8
-34 110 -81 -97 115 -13 2138 821 4 MP stroke
c9
81 -104 -1 156 -80 -52 2138 821 4 MP stroke
c10
-20 -127 117 46 -97 81 4345 1437 4 MP stroke
c11
-32 103 -96 -83 128 -20 3446 1840 4 MP stroke
c12
-21 -114 108 -5 -87 119 3487 974 4 MP stroke
c13
32 -103 76 97 -108 6 3573 1428 4 MP stroke
0.25 sg
20 -127 74 61 -94 66 4425 1945 4 MP stroke
c8
149 -49 -75 110 -74 -61 4345 2453 4 MP stroke
c9
-148 49 58 -114 90 65 3752 2650 4 MP stroke
c10
-80 -52 114 -58 -34 110 3425 3069 4 MP stroke
c11
-81 104 1 -156 80 52 3425 3069 4 MP stroke
c12
82 -105 31 83 -113 22 3752 2650 4 MP stroke
c13
-114 13 34 -110 80 97 2968 3120 4 MP stroke
0.25 sg
115 -13 -83 96 -32 -83 3425 3069 4 MP stroke
c8
21 128 -103 -32 82 -96 2968 3120 4 MP stroke
c9
-20 -128 108 66 -88 62 2887 2609 4 MP stroke
c10
-97 76 -6 -108 103 32 2887 2609 4 MP stroke
c11
-116 -43 88 -62 28 105 2422 2440 4 MP stroke
c12
27 166 -124 -90 97 -76 2887 2609 4 MP stroke
c13
-26 -166 116 42 -90 124 2782 1945 4 MP stroke
0.25 sg
51 -81 59 115 -110 -34 1657 2588 4 MP stroke
c8
-105 -82 156 1 -51 81 1657 2588 4 MP stroke
c9
104 82 -83 32 -21 -114 2076 2916 4 MP stroke
c10
13 114 -96 -82 83 -32 1657 2588 4 MP stroke
c11
-12 -114 109 33 -97 81 1607 2131 4 MP stroke
c12
103 32 -83 96 -20 -128 2676 1281 4 MP stroke
c13
82 -96 32 83 -114 13 2595 770 4 MP stroke
0.25 sg
-103 -31 98 -77 5 108 2265 1154 4 MP stroke
c8
-113 22 -6 -108 119 86 1811 1240 4 MP stroke
c9
114 -21 -82 105 -32 -84 2265 1154 4 MP stroke
c10
-51 81 -59 -115 110 34 3906 1302 4 MP stroke
c11
105 82 -156 -1 51 -81 3906 1302 4 MP stroke
c12
-104 -82 83 -32 21 114 3487 974 4 MP stroke
c13
12 114 -109 -33 97 -81 3956 1759 4 MP stroke
0.25 sg
-13 -114 96 82 -83 32 3906 1302 4 MP stroke
c8
148 -50 -59 115 -89 -65 1631 1109 4 MP stroke
c9
-119 -86 104 -29 15 115 1840 1469 4 MP stroke
c10
-104 28 42 -116 62 88 1993 1874 4 MP stroke
c11
124 90 -98 76 -26 -166 2729 1613 4 MP stroke
c12
-123 -90 166 -26 -43 116 2202 1818 4 MP stroke
c13
156 1 -65 90 -91 -91 3929 797 4 MP stroke
0.25 sg
123 90 -166 26 43 -116 3361 2072 4 MP stroke
c8
90 -124 26 166 -116 -42 2909 1365 4 MP stroke
c9
-90 123 -76 -97 166 -26 3114 1892 4 MP stroke
c10
65 -90 91 91 -156 -1 1764 2913 4 MP stroke
c11
46 -118 66 94 -112 24 2742 3166 4 MP stroke
c12
94 -66 -20 127 -74 -61 1366 1559 4 MP stroke
c13
-75 110 -14 -115 89 5 1691 1689 4 MP stroke
0.25 sg
75 -111 73 61 -148 50 1515 1338 4 MP stroke
c8
1 -156 90 65 -91 91 1634 797 4 MP stroke
c9
90 -123 76 97 -166 26 2449 1998 4 MP stroke
c10
117 47 -94 66 -23 -113 1560 1906 4 MP stroke
c11
-66 109 -61 -88 127 -21 1862 2091 4 MP stroke
c12
65 -109 24 113 -89 -4 1691 1689 4 MP stroke
c13
-127 -20 61 -74 66 94 2914 489 4 MP stroke
0.25 sg
49 148 -114 -58 65 -90 3617 795 4 MP stroke
c8
-50 -149 110 75 -60 74 3167 529 4 MP stroke
c9
47 -117 80 97 -127 20 2528 342 4 MP stroke
c10
-46 118 -66 -94 112 -24 2821 724 4 MP stroke
c11
-117 -47 94 -66 23 113 4003 1984 4 MP stroke
c12
-90 -66 91 -91 -1 157 3750 2962 4 MP stroke
c13
-62 -88 104 -29 -42 117 3361 2072 4 MP stroke
0.25 sg
62 88 -128 20 66 -108 3825 1975 4 MP stroke
c8
89 4 -66 109 -23 -113 4003 1984 4 MP stroke
c9
15 115 -89 -4 74 -111 3901 2430 4 MP stroke
c10
-15 -115 119 86 -104 29 3485 2248 4 MP stroke
c11
-88 62 -28 -104 116 42 2909 1365 4 MP stroke
c12
88 -62 20 127 -108 -65 2812 901 4 MP stroke
c13
5 -88 108 65 -113 23 2821 724 4 MP stroke
0.25 sg
114 -14 -4 89 -110 -75 3266 826 4 MP stroke
c8
-114 14 86 -118 28 104 3085 1241 4 MP stroke
c9
127 20 -61 74 -66 -94 2649 3401 4 MP stroke
c10
50 149 -110 -75 60 -74 2396 3361 4 MP stroke
c11
-49 -148 114 58 -65 90 1946 3095 4 MP stroke
c12
126 -20 -46 117 -80 -97 3128 3314 4 MP stroke
c13
113 -21 5 108 -118 -87 3514 2478 4 MP stroke
0.25 sg
22 114 -108 5 86 -119 2249 2678 4 MP stroke
c8
-32 103 -76 -98 108 -5 2206 2451 4 MP stroke
c9
32 -103 96 83 -128 20 1862 2091 4 MP stroke
c10
-5 88 -108 -65 113 -23 2742 3166 4 MP stroke
c11
-114 14 4 -89 110 75 2297 3064 4 MP stroke
c12
114 -14 -86 118 -28 -104 2478 2649 4 MP stroke
c13
21 127 -118 -47 97 -80 1413 2292 4 MP stroke
0.25 sg
34 -109 81 51 -115 58 2045 499 4 MP stroke
c8
-34 109 -80 -97 114 -12 2367 795 4 MP stroke
c9
82 -105 -1 156 -81 -51 1977 718 4 MP stroke
c10
-21 -127 118 47 -97 80 4150 1598 4 MP stroke
c11
-32 103 -96 -83 128 -20 3701 1799 4 MP stroke
c12
-22 -114 108 -5 -86 119 3314 1212 4 MP stroke
c13
32 -103 76 98 -108 5 3357 1439 4 MP stroke
0.25 sg
20 -127 74 61 -94 66 4237 2077 4 MP stroke
c8
148 -49 -74 110 -74 -61 4197 2331 4 MP stroke
c9
-148 50 59 -115 89 65 3932 2781 4 MP stroke
c10
-81 -51 115 -58 -34 109 3357 3289 4 MP stroke
c11
-82 105 1 -156 81 51 3586 3172 4 MP stroke
c12
82 -105 31 83 -113 22 3525 2693 4 MP stroke
c13
-115 13 34 -110 81 97 3128 3314 4 MP stroke
0.25 sg
114 -12 -83 95 -31 -83 3361 2903 4 MP stroke
c8
20 128 -103 -32 83 -96 3133 2928 4 MP stroke
c9
-20 -128 108 66 -88 62 2711 2733 4 MP stroke
c10
-98 76 -5 -108 103 32 3092 2673 4 MP stroke
c11
-116 -42 88 -62 28 104 2478 2649 4 MP stroke
c12
27 166 -124 -90 97 -76 3082 2457 4 MP stroke
c13
-26 -166 116 43 -90 123 2602 2193 4 MP stroke
0.25 sg
52 -81 58 114 -110 -33 1438 2520 4 MP stroke
c8
-105 -81 156 1 -51 80 1554 2750 4 MP stroke
c9
105 82 -84 32 -21 -114 2033 2689 4 MP stroke
c10
13 114 -96 -82 83 -32 1824 2525 4 MP stroke
c11
-12 -114 110 34 -98 80 1413 2292 4 MP stroke
c12
103 31 -83 96 -20 -127 2636 1025 4 MP stroke
c13
83 -96 31 83 -114 13 2367 795 4 MP stroke
0.25 sg
-103 -32 97 -76 6 108 2275 1369 4 MP stroke
c8
-113 21 -5 -108 118 87 2049 1412 4 MP stroke
c9
114 -22 -82 105 -32 -83 2202 987 4 MP stroke
c10
-52 81 -58 -114 110 33 4125 1370 4 MP stroke
c11
105 81 -156 -1 51 -80 4009 1140 4 MP stroke
c12
-105 -82 84 -32 21 114 3530 1201 4 MP stroke
c13
12 114 -110 -34 98 -80 4150 1598 4 MP stroke
0.25 sg
-13 -114 96 82 -83 32 3739 1365 4 MP stroke
c8
-90 -65 148 -50 -58 115 1335 1208 4 MP stroke
c9
15 115 -119 -86 104 -29 2078 1642 4 MP stroke
c10
62 88 -104 29 42 -117 2202 1818 4 MP stroke
c11
-27 -166 124 90 -97 76 2481 1433 4 MP stroke
c12
-43 117 -123 -90 166 -27 2449 1998 4 MP stroke
c13
-91 -91 156 1 -65 90 3617 795 4 MP stroke
0.25 sg
43 -117 123 90 -166 27 3114 1892 4 MP stroke
c8
-116 -42 90 -124 26 166 2729 1613 4 MP stroke
c9
166 -26 -90 124 -76 -98 3294 1645 4 MP stroke
c10
-156 -1 65 -90 91 91 1634 3093 4 MP stroke
c11
-113 24 47 -118 66 94 2649 3401 4 MP stroke
c12
-74 -61 94 -66 -20 127 1178 1691 4 MP stroke
c13
89 4 -75 111 -14 -115 1840 1469 4 MP stroke
0.25 sg
-148 49 74 -110 74 61 1366 1559 4 MP stroke
c8
-91 90 1 -156 90 66 1631 1109 4 MP stroke
c9
-166 26 90 -124 76 98 2269 2245 4 MP stroke
c10
-23 -112 117 46 -94 66 1326 1813 4 MP stroke
c11
127 -20 -65 108 -62 -88 1993 1874 4 MP stroke
c12
-89 -4 66 -109 23 113 1560 1906 4 MP stroke
c13
66 93 -127 -20 61 -73 3167 529 4 MP stroke
0.25 sg
65 -89 49 148 -114 -59 3518 499 4 MP stroke
c8
-61 74 -49 -148 110 74 3266 826 4 MP stroke
c9
-126 20 46 -117 80 97 2435 576 4 MP stroke
c10
113 -24 -47 118 -66 -94 2914 489 4 MP stroke
c11
23 112 -117 -46 94 -66 4237 2077 4 MP stroke
c12
-1 156 -90 -65 91 -91 3929 3093 4 MP stroke
c13
-43 116 -61 -88 104 -28 3485 2248 4 MP stroke
0.25 sg
66 -109 61 88 -127 21 3701 1799 4 MP stroke
c8
-23 -113 89 4 -66 109 3825 1975 4 MP stroke
c9
75 -110 14 115 -89 -5 3872 2201 4 MP stroke
c10
-105 29 -14 -115 119 86 3514 2478 4 MP stroke
c11
116 42 -88 62 -28 -104 3085 1241 4 MP stroke
c12
-108 -66 88 -62 20 128 2636 1025 4 MP stroke
c13
-112 23 4 -89 108 66 2812 901 4 MP stroke
0.25 sg
-110 -74 114 -15 -4 89 3037 855 4 MP stroke
c8
28 104 -114 15 86 -119 3314 1212 4 MP stroke
c9
-66 -93 127 20 -61 73 2396 3361 4 MP stroke
c10
61 -74 49 148 -110 -74 2297 3064 4 MP stroke
c11
-65 89 -49 -148 114 59 2045 3391 4 MP stroke
c12
-80 -97 127 -20 -47 117 2875 3354 4 MP stroke
c13
-118 -86 113 -21 5 107 3288 2521 4 MP stroke
0.25 sg
86 -119 22 114 -108 5 2206 2451 4 MP stroke
c8
107 -6 -31 103 -76 -97 2269 2245 4 MP stroke
c9
-128 20 32 -103 96 83 1798 2296 4 MP stroke
c10
112 -23 -4 89 -108 -66 2751 2989 4 MP stroke
c11
110 74 -114 15 4 -89 2526 3035 4 MP stroke
c12
-28 -104 114 -15 -86 119 2249 2678 4 MP stroke
c13
97 -80 20 126 -117 -46 1372 2038 4 MP stroke
0.25 sg
-115 58 34 -109 81 51 1977 718 4 MP stroke
c8
115 -13 -34 110 -81 -97 2435 576 4 MP stroke
c9
-81 -51 82 -105 -1 156 1813 928 4 MP stroke
c10
-97 80 -20 -126 117 46 4191 1852 4 MP stroke
c11
128 -20 -32 103 -96 -83 3765 1594 4 MP stroke
c12
-86 119 -22 -114 108 -5 3357 1439 4 MP stroke
c13
-107 6 31 -103 76 97 3294 1645 4 MP stroke
0.25 sg
-94 66 20 -127 74 61 4197 2331 4 MP stroke
c8
-74 -61 149 -49 -75 110 3901 2430 4 MP stroke
c9
90 65 -148 50 58 -115 4228 2682 4 MP stroke
c10
-34 109 -81 -51 115 -58 3518 3391 4 MP stroke
c11
81 51 -82 105 1 -156 3750 2962 4 MP stroke
c12
-114 22 82 -105 32 83 3361 2903 4 MP stroke
c13
80 97 -114 13 34 -110 3357 3289 4 MP stroke
0.25 sg
-31 -83 114 -13 -83 96 3133 2928 4 MP stroke
c8
82 -96 20 128 -102 -32 3092 2673 4 MP stroke
c9
-88 62 -20 -127 108 65 2751 2989 4 MP stroke
c10
103 32 -97 76 -6 -108 3288 2521 4 MP stroke
c11
29 104 -117 -42 88 -62 2711 2733 4 MP stroke
c12
97 -76 27 166 -124 -90 3029 2125 4 MP stroke
c13
-90 124 -26 -166 116 42 2654 2525 4 MP stroke
0.25 sg
-110 -34 51 -80 59 114 1335 2682 4 MP stroke
c8
-51 80 -105 -81 156 1 1764 2913 4 MP stroke
c9
-21 -113 105 82 -84 31 1824 2525 4 MP stroke
c10
83 -32 12 114 -95 -82 1798 2296 4 MP stroke
c11
-97 80 -12 -114 109 34 1438 2520 4 MP stroke
c12
-20 -128 103 32 -83 96 2430 962 4 MP stroke
c13
-114 12 83 -95 31 83 2202 987 4 MP stroke
0.25 sg
5 108 -103 -32 98 -76 2481 1433 4 MP stroke
c8
118 86 -113 21 -5 -107 2275 1369 4 MP stroke
c9
-31 -84 113 -21 -82 105 1975 1030 4 MP stroke
c10
110 34 -51 80 -59 -114 4228 1208 4 MP stroke
c11
51 -80 105 81 -156 -1 3799 977 4 MP stroke
c12
21 113 -105 -82 84 -31 3739 1365 4 MP stroke
c13
97 -80 12 114 -109 -34 4125 1370 4 MP stroke
0.25 sg
-83 32 -12 -114 95 82 3765 1594 4 MP stroke
c8
58 -115 90 65 -148 50 1631 1109 4 MP stroke
c9
-104 28 -15 -114 119 86 1840 1469 4 MP stroke
c10
-42 116 -62 -88 104 -28 1993 1874 4 MP stroke
c11
98 -76 26 166 -124 -90 2729 1613 4 MP stroke
c12
-166 27 43 -117 123 90 2202 1818 4 MP stroke
c13
65 -90 91 91 -156 -1 3929 797 4 MP stroke
0.25 sg
166 -27 -43 117 -123 -90 3361 2072 4 MP stroke
c8
-26 -166 116 42 -90 124 2909 1365 4 MP stroke
c9
76 97 -166 26 90 -123 3114 1892 4 MP stroke
c10
-91 -91 156 1 -65 90 1764 2913 4 MP stroke
c11
-67 -94 113 -24 -46 118 2742 3166 4 MP stroke
c12
20 -127 74 61 -94 66 1366 1559 4 MP stroke
c13
14 114 -89 -4 75 -110 1691 1689 4 MP stroke
0.25 sg
-73 -61 148 -50 -75 111 1515 1338 4 MP stroke
c8
-89 -65 90 -91 -1 156 1634 797 4 MP stroke
c9
-76 -97 166 -26 -90 123 2449 1998 4 MP stroke
c10
94 -66 23 113 -117 -47 1560 1906 4 MP stroke
c11
62 88 -128 21 66 -109 1862 2091 4 MP stroke
c12
-24 -113 89 4 -65 109 1691 1689 4 MP stroke
c13
-60 74 -67 -94 127 20 2914 489 4 MP stroke
0.25 sg
114 58 -65 90 -49 -148 3617 795 4 MP stroke
c8
-111 -75 61 -74 50 149 3167 529 4 MP stroke
c9
-80 -97 127 -20 -47 117 2528 342 4 MP stroke
c10
67 94 -113 24 46 -118 2821 724 4 MP stroke
c11
-94 66 -23 -113 117 47 4003 1984 4 MP stroke
c12
-91 91 1 -157 90 66 3750 2962 4 MP stroke
c13
-105 28 43 -116 62 88 3361 2072 4 MP stroke
0.25 sg
128 -21 -66 109 -62 -88 3825 1975 4 MP stroke
c8
66 -108 23 112 -89 -4 4003 1984 4 MP stroke
c9
89 5 -74 110 -15 -115 3901 2430 4 MP stroke
c10
-119 -87 104 -28 15 115 3485 2248 4 MP stroke
c11
28 104 -116 -42 88 -62 2909 1365 4 MP stroke
c12
-20 -128 108 66 -88 62 2812 901 4 MP stroke
c13
-108 -65 113 -23 -5 88 2821 724 4 MP stroke
0.25 sg
4 -89 110 75 -114 14 3266 826 4 MP stroke
c8
-86 119 -28 -105 114 -14 3085 1241 4 MP stroke
c9
60 -74 67 94 -127 -20 2649 3401 4 MP stroke
c10
111 75 -61 74 -50 -149 2396 3361 4 MP stroke
c11
-114 -58 65 -90 49 148 1946 3095 4 MP stroke
c12
46 -117 80 97 -126 20 3128 3314 4 MP stroke
c13
-6 -107 119 86 -113 21 3514 2478 4 MP stroke
0.25 sg
108 -5 -86 119 -22 -114 2249 2678 4 MP stroke
c8
76 98 -108 5 32 -103 2206 2451 4 MP stroke
c9
-96 -82 128 -21 -32 103 1862 2091 4 MP stroke
c10
108 65 -113 23 5 -88 2742 3166 4 MP stroke
c11
-4 89 -110 -75 114 -14 2297 3064 4 MP stroke
c12
86 -119 28 105 -114 14 2478 2649 4 MP stroke
c13
118 47 -97 80 -21 -127 1413 2292 4 MP stroke
0.25 sg
-80 -51 114 -58 -34 109 2045 499 4 MP stroke
c8
81 97 -115 12 34 -109 2367 795 4 MP stroke
c9
1 -156 81 51 -82 105 1977 718 4 MP stroke
c10
-118 -47 97 -80 21 127 4150 1598 4 MP stroke
c11
96 82 -128 21 32 -103 3701 1799 4 MP stroke
c12
-108 5 86 -119 22 114 3314 1212 4 MP stroke
c13
-76 -98 108 -5 -32 103 3357 1439 4 MP stroke
0.25 sg
-74 -61 94 -66 -20 127 4237 2077 4 MP stroke
c8
74 -110 74 61 -148 49 4197 2331 4 MP stroke
c9
-58 115 -90 -65 148 -50 3932 2781 4 MP stroke
c10
-114 59 33 -110 81 51 3357 3289 4 MP stroke
c11
-1 156 -81 -51 82 -105 3586 3172 4 MP stroke
c12
-32 -83 114 -22 -82 105 3525 2693 4 MP stroke
c13
-34 110 -81 -97 115 -13 3128 3314 4 MP stroke
0.25 sg
82 -96 32 84 -114 12 3361 2903 4 MP stroke
c8
103 32 -83 96 -20 -128 3133 2928 4 MP stroke
c9
-108 -66 88 -62 20 128 2711 2733 4 MP stroke
c10
5 108 -103 -32 98 -76 3092 2673 4 MP stroke
c11
-88 62 -28 -104 116 42 2478 2649 4 MP stroke
c12
124 90 -97 76 -27 -166 3082 2457 4 MP stroke
c13
-116 -42 90 -124 26 166 2602 2193 4 MP stroke
0.25 sg
-58 -115 110 34 -52 81 1438 2520 4 MP stroke
c8
-157 -1 52 -80 105 81 1554 2750 4 MP stroke
c9
83 -31 22 113 -105 -82 2033 2689 4 MP stroke
c10
96 83 -83 31 -13 -114 1824 2525 4 MP stroke
c11
-109 -34 97 -80 12 114 1413 2292 4 MP stroke
c12
83 -96 20 127 -103 -31 2636 1025 4 MP stroke
c13
-32 -84 115 -12 -83 96 2367 795 4 MP stroke
0.25 sg
-98 76 -5 -108 103 32 2275 1369 4 MP stroke
c8
6 107 -119 -86 113 -21 2049 1412 4 MP stroke
c9
82 -105 32 83 -114 22 2202 987 4 MP stroke
c10
58 115 -110 -34 52 -81 4125 1370 4 MP stroke
c11
157 1 -52 80 -105 -81 4009 1140 4 MP stroke
c12
-83 31 -22 -113 105 82 3530 1201 4 MP stroke
c13
109 34 -97 80 -12 -114 4150 1598 4 MP stroke
0.25 sg
-96 -83 83 -31 13 114 3739 1365 4 MP stroke
c8
148 -49 -58 115 -90 -66 1721 1175 4 MP stroke
c9
-118 -87 104 -28 14 115 1826 1354 4 MP stroke
c10
-104 28 42 -116 62 88 1931 1786 4 MP stroke
c11
124 90 -98 76 -26 -166 2755 1779 4 MP stroke
c12
-124 -90 166 -27 -42 117 2244 1701 4 MP stroke
c13
156 1 -65 90 -91 -91 4020 888 4 MP stroke
0.25 sg
124 90 -166 27 42 -117 3319 2189 4 MP stroke
c8
90 -124 26 166 -116 -42 3025 1407 4 MP stroke
c9
-90 124 -76 -97 166 -27 2948 1919 4 MP stroke
c10
65 -90 91 91 -156 -1 1920 2914 4 MP stroke
c11
46 -117 67 94 -113 23 2855 3143 4 MP stroke
c12
94 -66 -20 127 -74 -61 1440 1620 4 MP stroke
c13
-75 110 -14 -114 89 4 1602 1685 4 MP stroke
0.25 sg
75 -110 73 61 -148 49 1663 1289 4 MP stroke
c8
2 -156 89 65 -91 91 1725 706 4 MP stroke
c9
90 -124 76 97 -166 27 2615 1971 4 MP stroke
c10
117 47 -94 66 -23 -113 1583 2019 4 MP stroke
c11
-66 108 -62 -88 128 -20 1734 2111 4 MP stroke
c12
65 -108 24 113 -89 -5 1780 1694 4 MP stroke
c13
-126 -20 60 -74 66 94 2848 395 4 MP stroke
0.25 sg
49 148 -114 -58 65 -90 3552 885 4 MP stroke
c8
-50 -148 111 75 -61 73 3228 456 4 MP stroke
c9
47 -117 80 97 -127 20 2655 322 4 MP stroke
c10
-46 117 -67 -94 113 -23 2708 747 4 MP stroke
c11
-117 -47 94 -66 23 113 3980 1871 4 MP stroke
c12
-90 -65 91 -91 -1 156 3751 2806 4 MP stroke
c13
-62 -88 105 -28 -43 116 3404 1956 4 MP stroke
0.25 sg
62 88 -128 21 66 -109 3759 2084 4 MP stroke
c8
89 5 -66 108 -23 -113 4026 2097 4 MP stroke
c9
14 115 -89 -5 75 -110 3826 2540 4 MP stroke
c10
-15 -115 119 87 -104 28 3589 2220 4 MP stroke
c11
-88 62 -28 -104 116 42 2793 1323 4 MP stroke
c12
88 -62 20 128 -108 -66 2920 967 4 MP stroke
c13
4 -89 108 65 -112 24 2933 700 4 MP stroke
0.25 sg
114 -15 -4 89 -110 -74 3376 900 4 MP stroke
c8
-114 15 86 -119 28 104 3057 1137 4 MP stroke
c9
126 20 -60 74 -66 -94 2715 3495 4 MP stroke
c10
50 148 -111 -75 61 -73 2335 3434 4 MP stroke
c11
-49 -148 114 58 -65 90 2011 3005 4 MP stroke
c12
127 -20 -46 117 -81 -97 3209 3411 4 MP stroke
c13
113 -21 6 107 -119 -86 3633 2564 4 MP stroke
0.25 sg
22 114 -108 5 86 -119 2163 2797 4 MP stroke
c8
-32 103 -76 -98 108 -5 2098 2456 4 MP stroke
c9
31 -103 96 82 -127 21 1989 2070 4 MP stroke
c10
-4 89 -108 -65 112 -24 2630 3190 4 MP stroke
c11
-114 15 4 -89 110 74 2187 2990 4 MP stroke
c12
114 -15 -86 119 -28 -104 2506 2753 4 MP stroke
c13
20 127 -118 -47 98 -80 1315 2372 4 MP stroke
0.25 sg
34 -110 80 51 -114 59 2159 440 4 MP stroke
c8
-33 110 -81 -97 114 -13 2253 808 4 MP stroke
c9
82 -105 -1 156 -81 -51 2058 769 4 MP stroke
c10
-20 -127 118 47 -98 80 4248 1518 4 MP stroke
c11
-31 103 -96 -82 127 -21 3574 1820 4 MP stroke
c12
-22 -114 108 -5 -86 119 3400 1093 4 MP stroke
c13
32 -103 76 98 -108 5 3465 1434 4 MP stroke
0.25 sg
20 -127 74 61 -94 66 4331 2011 4 MP stroke
c8
148 -49 -74 110 -74 -61 4271 2392 4 MP stroke
c9
-148 49 58 -115 90 66 3842 2715 4 MP stroke
c10
-80 -51 114 -59 -34 110 3391 3179 4 MP stroke
c11
-82 105 1 -156 81 51 3505 3121 4 MP stroke
c12
82 -104 32 83 -114 21 3639 2672 4 MP stroke
c13
-114 13 34 -110 80 97 3048 3217 4 MP stroke
0.25 sg
114 -13 -82 96 -32 -83 3393 2986 4 MP stroke
c8
20 128 -103 -32 83 -96 3050 3024 4 MP stroke
c9
-20 -128 108 66 -88 62 2799 2671 4 MP stroke
c10
-97 76 -5 -108 102 32 2990 2641 4 MP stroke
c11
-116 -42 88 -62 28 104 2450 2545 4 MP stroke
c12
26 166 -124 -90 98 -76 2984 2533 4 MP stroke
c13
-26 -166 116 42 -90 124 2692 2069 4 MP stroke
0.25 sg
51 -81 58 115 -109 -34 1547 2554 4 MP stroke
c8
-105 -82 157 1 -52 81 1606 2669 4 MP stroke
c9
105 82 -83 31 -22 -113 2055 2802 4 MP stroke
c10
12 114 -96 -83 84 -31 1740 2556 4 MP stroke
c11
-12 -114 109 34 -97 80 1510 2212 4 MP stroke
c12
103 32 -83 96 -20 -128 2656 1153 4 MP stroke
c13
82 -96 32 84 -114 12 2481 783 4 MP stroke
0.25 sg
-103 -31 98 -76 5 107 2270 1262 4 MP stroke
c8
-113 21 -6 -107 119 86 1930 1326 4 MP stroke
c9
113 -22 -82 105 -31 -83 2233 1070 4 MP stroke
c10
-51 81 -58 -115 109 34 4016 1336 4 MP stroke
c11
105 82 -157 -1 52 -81 3957 1221 4 MP stroke
c12
-105 -82 83 -31 22 113 3508 1088 4 MP stroke
c13
12 114 -109 -34 97 -80 4053 1678 4 MP stroke
0.25 sg
-12 -114 96 83 -84 31 3823 1334 4 MP stroke
c8
148 -50 -58 115 -90 -65 1542 1044 4 MP stroke
c9
-119 -86 105 -28 14 114 1855 1584 4 MP stroke
c10
-104 28 42 -116 62 88 2055 1962 4 MP stroke
c11
124 90 -97 76 -27 -166 2703 1447 4 MP stroke
c12
-124 -90 166 -26 -42 116 2159 1934 4 MP stroke
c13
156 1 -66 90 -90 -91 3838 706 4 MP stroke
0.25 sg
124 90 -166 26 42 -116 3404 1956 4 MP stroke
c8
90 -124 27 166 -117 -42 2793 1323 4 MP stroke
c9
-90 124 -76 -98 166 -26 3280 1866 4 MP stroke
c10
65 -90 91 91 -156 -1 1608 2912 4 MP stroke
c11
47 -117 66 94 -113 23 2630 3190 4 MP stroke
c12
94 -66 -20 127 -74 -61 1292 1498 4 MP stroke
c13
-75 110 -14 -114 89 4 1780 1694 4 MP stroke
0.25 sg
75 -110 74 61 -149 49 1367 1388 4 MP stroke
c8
1 -156 90 65 -91 91 1543 888 4 MP stroke
c9
90 -124 76 98 -166 26 2283 2024 4 MP stroke
c10
117 46 -93 66 -24 -112 1537 1793 4 MP stroke
c11
-66 108 -62 -88 128 -20 1989 2070 4 MP stroke
c12
65 -108 24 112 -89 -4 1602 1685 4 MP stroke
c13
-127 -20 61 -74 66 94 2980 583 4 MP stroke
0.25 sg
49 148 -115 -58 66 -90 3682 705 4 MP stroke
c8
-49 -148 110 74 -61 74 3107 603 4 MP stroke
c9
47 -117 80 97 -127 20 2401 362 4 MP stroke
c10
-47 117 -66 -94 113 -23 2933 700 4 MP stroke
c11
-117 -46 93 -66 24 112 4026 2097 4 MP stroke
c12
-89 -65 90 -91 -1 156 3749 3119 4 MP stroke
c13
-62 -88 104 -28 -42 116 3319 2189 4 MP stroke
0.25 sg
62 88 -127 20 65 -108 3891 1867 4 MP stroke
c8
89 4 -65 108 -24 -112 3980 1871 4 MP stroke
c9
14 114 -89 -4 75 -110 3975 2319 4 MP stroke
c10
-15 -114 119 86 -104 28 3381 2277 4 MP stroke
c11
-88 62 -28 -105 116 43 3025 1407 4 MP stroke
c12
88 -62 21 128 -109 -66 2704 836 4 MP stroke
c13
4 -89 109 66 -113 23 2708 747 4 MP stroke
0.25 sg
115 -15 -5 89 -110 -74 3156 751 4 MP stroke
c8
-115 14 87 -119 28 105 3113 1345 4 MP stroke
c9
127 20 -61 74 -66 -94 2583 3307 4 MP stroke
c10
49 148 -110 -74 61 -74 2456 3287 4 MP stroke
c11
-49 -148 115 58 -66 90 1881 3185 4 MP stroke
c12
127 -20 -47 117 -80 -97 3048 3217 4 MP stroke
c13
114 -22 5 108 -119 -86 3396 2391 4 MP stroke
0.25 sg
21 113 -108 6 87 -119 2335 2559 4 MP stroke
c8
-31 103 -77 -97 108 -6 2314 2446 4 MP stroke
c9
31 -103 96 83 -127 20 1734 2111 4 MP stroke
c10
-4 89 -109 -66 113 -23 2855 3143 4 MP stroke
c11
-115 15 5 -89 110 74 2407 3139 4 MP stroke
c12
115 -14 -87 119 -28 -105 2450 2545 4 MP stroke
c13
21 127 -118 -46 97 -81 1510 2212 4 MP stroke
0.25 sg
34 -110 81 52 -115 58 1930 557 4 MP stroke
c8
-34 110 -80 -97 114 -13 2481 783 4 MP stroke
c9
82 -104 -1 156 -81 -52 1896 667 4 MP stroke
c10
-21 -127 118 46 -97 81 4053 1678 4 MP stroke
c11
-31 103 -96 -83 127 -20 3829 1779 4 MP stroke
c12
-21 -113 108 -6 -87 119 3228 1331 4 MP stroke
c13
31 -103 77 97 -108 6 3249 1444 4 MP stroke
0.25 sg
20 -127 73 61 -93 66 4143 2143 4 MP stroke
c8
148 -49 -75 110 -73 -61 4123 2270 4 MP stroke
c9
-148 50 58 -115 90 65 4021 2846 4 MP stroke
c10
-81 -52 115 -58 -34 110 3323 3398 4 MP stroke
c11
-82 104 1 -156 81 52 3667 3223 4 MP stroke
c12
82 -105 32 84 -114 21 3412 2715 4 MP stroke
c13
-114 13 34 -110 80 97 3209 3411 4 MP stroke
0.25 sg
114 -12 -82 96 -32 -84 3330 2820 4 MP stroke
c8
21 127 -103 -31 82 -96 3216 2832 4 MP stroke
c9
-20 -128 108 66 -88 62 2623 2795 4 MP stroke
c10
-98 77 -5 -108 103 31 3195 2705 4 MP stroke
c11
-117 -42 88 -62 29 104 2506 2753 4 MP stroke
c12
26 166 -124 -90 98 -76 3179 2381 4 MP stroke
c13
-26 -167 116 43 -90 124 2512 2316 4 MP stroke
0.25 sg
51 -80 59 114 -110 -34 1328 2487 4 MP stroke
c8
-105 -82 156 1 -51 81 1503 2830 4 MP stroke
c9
105 82 -83 31 -22 -113 2012 2575 4 MP stroke
c10
13 114 -96 -83 83 -31 1907 2493 4 MP stroke
c11
-13 -115 110 34 -97 81 1315 2372 4 MP stroke
c12
103 32 -82 96 -21 -128 2616 898 4 MP stroke
c13
83 -96 32 83 -115 13 2253 808 4 MP stroke
0.25 sg
-103 -32 98 -76 5 108 2281 1477 4 MP stroke
c8
-114 22 -5 -108 119 86 2167 1499 4 MP stroke
c9
113 -21 -81 104 -32 -83 2170 904 4 MP stroke
c10
-51 80 -59 -114 110 34 4235 1403 4 MP stroke
c11
105 82 -156 -1 51 -81 4060 1060 4 MP stroke
c12
-105 -82 83 -31 22 113 3551 1315 4 MP stroke
c13
13 115 -110 -34 97 -81 4248 1518 4 MP stroke
0.25 sg
-13 -114 96 83 -83 31 3656 1397 4 MP stroke
c8
-90 -65 149 -49 -59 114 1277 1323 4 MP stroke
c9
15 114 -119 -86 104 -28 2182 1613 4 MP stroke
c10
62 88 -104 28 42 -116 2244 1701 4 MP stroke
c11
-26 -166 124 90 -98 76 2384 1509 4 MP stroke
c12
-43 116 -124 -90 167 -26 2615 1971 4 MP stroke
c13
-91 -91 156 2 -65 89 3552 885 4 MP stroke
0.25 sg
43 -116 123 90 -166 26 2948 1919 4 MP stroke
c8
-116 -42 89 -124 27 166 2755 1779 4 MP stroke
c9
167 -27 -90 124 -77 -97 3218 1547 4 MP stroke
c10
-156 -1 66 -90 90 91 1725 3184 4 MP stroke
c11
-113 24 46 -118 67 94 2715 3495 4 MP stroke
c12
-74 -61 94 -66 -20 127 1158 1818 4 MP stroke
c13
89 4 -74 110 -15 -114 1826 1354 4 MP stroke
0.25 sg
-148 49 75 -110 73 61 1440 1620 4 MP stroke
c8
-91 91 1 -156 90 65 1721 1175 4 MP stroke
c9
-167 27 90 -124 77 97 2345 2343 4 MP stroke
c10
-23 -113 117 47 -94 66 1232 1879 4 MP stroke
c11
127 -20 -65 108 -62 -88 1931 1786 4 MP stroke
c12
-89 -4 65 -108 24 112 1583 2019 4 MP stroke
c13
66 94 -127 -20 61 -74 3228 456 4 MP stroke
0.25 sg
65 -90 50 148 -115 -58 3404 440 4 MP stroke
c8
-61 74 -50 -148 111 74 3376 900 4 MP stroke
c9
-127 20 47 -117 80 97 2515 673 4 MP stroke
c10
113 -24 -47 118 -66 -94 2848 395 4 MP stroke
c11
23 113 -117 -47 94 -66 4331 2011 4 MP stroke
c12
-1 156 -90 -65 91 -91 4020 3002 4 MP stroke
c13
-43 116 -62 -88 105 -28 3589 2220 4 MP stroke
0.25 sg
66 -108 62 88 -128 20 3574 1820 4 MP stroke
c8
-24 -112 89 4 -65 108 3759 2084 4 MP stroke
c9
75 -110 14 114 -89 -4 3783 2196 4 MP stroke
c10
-104 28 -15 -114 119 86 3633 2564 4 MP stroke
c11
117 42 -88 62 -29 -104 3057 1137 4 MP stroke
c12
-108 -66 88 -62 20 128 2656 1153 4 MP stroke
c13
-113 23 5 -89 108 66 2920 967 4 MP stroke
0.25 sg
-110 -74 115 -15 -5 89 3033 944 4 MP stroke
c8
28 104 -115 15 87 -119 3400 1093 4 MP stroke
c9
-66 -94 127 20 -61 74 2335 3434 4 MP stroke
c10
61 -74 50 148 -111 -74 2187 2990 4 MP stroke
c11
-65 90 -50 -148 115 58 2159 3450 4 MP stroke
c12
-80 -97 126 -21 -46 118 2828 3471 4 MP stroke
c13
-119 -87 114 -21 5 108 3293 2628 4 MP stroke
0.25 sg
86 -119 22 113 -108 6 2098 2456 4 MP stroke
c8
108 -5 -32 103 -76 -98 2193 2148 4 MP stroke
c9
-128 20 32 -103 96 83 1894 2379 4 MP stroke
c10
113 -23 -5 89 -108 -66 2643 2923 4 MP stroke
c11
110 74 -115 15 5 -89 2530 2946 4 MP stroke
c12
-28 -104 115 -15 -87 119 2163 2797 4 MP stroke
c13
97 -80 20 127 -117 -47 1255 1992 4 MP stroke
0.25 sg
-114 58 34 -110 80 52 2058 769 4 MP stroke
c8
114 -13 -34 110 -80 -97 2354 479 4 MP stroke
c9
-81 -51 82 -105 -1 156 1812 1084 4 MP stroke
c10
-97 80 -20 -127 117 47 4308 1898 4 MP stroke
c11
128 -20 -32 103 -96 -83 3669 1511 4 MP stroke
c12
-86 119 -22 -113 108 -6 3465 1434 4 MP stroke
c13
-108 5 32 -103 76 98 3370 1742 4 MP stroke
0.25 sg
-94 66 20 -127 74 61 4271 2392 4 MP stroke
c8
-74 -61 148 -49 -74 110 3826 2540 4 MP stroke
c9
90 65 -149 49 59 -114 4286 2567 4 MP stroke
c10
-34 110 -81 -52 115 -58 3633 3333 4 MP stroke
c11
81 51 -82 105 1 -156 3751 2806 4 MP stroke
c12
-113 21 81 -104 32 83 3393 2986 4 MP stroke
c13
81 97 -115 13 34 -110 3391 3179 4 MP stroke
0.25 sg
-32 -83 114 -13 -82 96 3050 3024 4 MP stroke
c8
83 -96 20 128 -103 -32 2990 2641 4 MP stroke
c9
-88 62 -21 -128 109 66 2859 3054 4 MP stroke
c10
103 32 -98 76 -5 -108 3282 2413 4 MP stroke
c11
29 104 -117 -42 88 -62 2799 2671 4 MP stroke
c12
97 -76 26 166 -123 -90 2905 2035 4 MP stroke
c13
-90 124 -27 -166 117 42 2770 2567 4 MP stroke
0.25 sg
-109 -34 51 -81 58 115 1394 2796 4 MP stroke
c8
-52 80 -104 -82 156 2 1920 2914 4 MP stroke
c9
-22 -114 105 82 -83 32 1740 2556 4 MP stroke
c10
84 -31 12 114 -96 -83 1703 2214 4 MP stroke
c11
-97 80 -13 -114 110 34 1547 2554 4 MP stroke
c12
-21 -127 103 31 -82 96 2347 1058 4 MP stroke
c13
-114 12 82 -96 32 84 2233 1070 4 MP stroke
0.25 sg
6 108 -103 -32 97 -76 2579 1357 4 MP stroke
c8
119 87 -114 21 -5 -108 2270 1262 4 MP stroke
c9
-31 -83 113 -22 -82 105 1893 1135 4 MP stroke
c10
109 34 -51 81 -58 -115 4169 1094 4 MP stroke
c11
52 -80 104 82 -156 -2 3643 976 4 MP stroke
c12
22 114 -105 -82 83 -32 3823 1334 4 MP stroke
c13
97 -80 13 114 -110 -34 4016 1336 4 MP stroke
0.25 sg
-84 31 -12 -114 96 83 3860 1676 4 MP stroke
c8
58 -114 90 65 -148 49 1483 1159 4 MP stroke
c9
-104 28 -15 -115 119 87 1959 1555 4 MP stroke
c10
-43 116 -62 -88 105 -28 2097 1846 4 MP stroke
c11
97 -76 27 166 -124 -90 2605 1523 4 MP stroke
c12
-167 27 43 -117 124 90 2325 1908 4 MP stroke
c13
65 -90 91 91 -156 -1 3773 796 4 MP stroke
0.25 sg
167 -27 -43 117 -124 -90 3238 1982 4 MP stroke
c8
-26 -166 116 42 -90 124 2819 1489 4 MP stroke
c9
76 98 -166 26 90 -124 3204 1769 4 MP stroke
c10
-91 -91 156 1 -65 90 1699 3003 4 MP stroke
c11
-66 -93 113 -24 -47 117 2696 3284 4 MP stroke
c12
20 -127 74 61 -94 66 1272 1625 4 MP stroke
c13
15 114 -89 -4 74 -110 1766 1579 4 MP stroke
0.25 sg
-74 -61 148 -49 -74 110 1440 1449 4 MP stroke
c8
-89 -66 91 -90 -2 156 1633 953 4 MP stroke
c9
-76 -98 166 -26 -90 124 2359 2121 4 MP stroke
c10
94 -66 23 112 -117 -46 1443 1859 4 MP stroke
c11
62 88 -127 20 65 -108 1928 1982 4 MP stroke
c12
-23 -112 89 4 -66 108 1626 1798 4 MP stroke
c13
-60 73 -66 -93 126 20 3041 509 4 MP stroke
0.25 sg
115 59 -65 89 -50 -148 3568 647 4 MP stroke
c8
-110 -74 61 -74 49 148 3217 678 4 MP stroke
c9
-80 -97 126 -20 -46 117 2481 459 4 MP stroke
c10
66 93 -113 24 47 -117 2867 606 4 MP stroke
c11
-94 66 -23 -112 117 46 4120 2031 4 MP stroke
c12
-90 91 1 -156 89 65 3840 3028 4 MP stroke
c13
-105 28 43 -116 62 88 3423 2160 4 MP stroke
0.25 sg
128 -21 -66 109 -62 -88 3763 1887 4 MP stroke
c8
66 -108 23 113 -89 -5 3914 1980 4 MP stroke
c9
89 4 -75 110 -14 -114 3886 2315 4 MP stroke
c10
-119 -86 105 -29 14 115 3500 2363 4 MP stroke
c11
28 104 -116 -42 88 -62 2997 1303 4 MP stroke
c12
-20 -128 108 66 -88 62 2724 963 4 MP stroke
c13
-108 -66 112 -23 -4 89 2816 812 4 MP stroke
0.25 sg
5 -89 110 74 -115 15 3152 840 4 MP stroke
c8
-87 119 -28 -104 115 -15 3199 1227 4 MP stroke
c9
60 -73 66 93 -126 -20 2522 3381 4 MP stroke
c10
110 74 -61 74 -49 -148 2346 3212 4 MP stroke
c11
-115 -59 65 -89 50 148 1995 3243 4 MP stroke
c12
47 -117 80 97 -127 20 3002 3334 4 MP stroke
c13
-5 -108 118 86 -113 22 3401 2499 4 MP stroke
0.25 sg
107 -6 -86 119 -21 -113 2227 2564 4 MP stroke
c8
76 97 -107 6 31 -103 2238 2348 4 MP stroke
c9
-96 -82 128 -20 -32 102 1830 2194 4 MP stroke
c10
108 66 -112 23 4 -89 2747 3078 4 MP stroke
c11
-5 89 -110 -74 115 -15 2411 3050 4 MP stroke
c12
87 -119 28 104 -115 15 2364 2663 4 MP stroke
c13
117 47 -97 80 -20 -127 1392 2165 4 MP stroke
0.25 sg
-81 -52 115 -58 -34 110 2011 608 4 MP stroke
c8
81 97 -115 13 34 -110 2401 686 4 MP stroke
c9
1 -156 81 51 -82 105 1895 823 4 MP stroke
c10
-117 -47 97 -80 20 127 4171 1725 4 MP stroke
c11
96 82 -128 20 32 -102 3733 1696 4 MP stroke
c12
-107 6 86 -119 21 113 3336 1326 4 MP stroke
c13
-76 -97 107 -6 -31 103 3325 1542 4 MP stroke
0.25 sg
-74 -61 94 -66 -20 127 4217 2204 4 MP stroke
c8
74 -111 74 61 -148 50 4049 2380 4 MP stroke
c9
-58 114 -90 -65 148 -49 4080 2731 4 MP stroke
c10
-114 58 34 -109 80 51 3438 3340 4 MP stroke
c11
-1 156 -81 -51 82 -105 3668 3067 4 MP stroke
c12
-32 -83 114 -22 -82 105 3443 2798 4 MP stroke
c13
-34 109 -80 -97 114 -12 3243 3301 4 MP stroke
0.25 sg
83 -96 31 83 -114 13 3247 2915 4 MP stroke
c8
103 31 -82 96 -21 -127 3113 2800 4 MP stroke
c9
-108 -66 88 -62 20 128 2731 2861 4 MP stroke
c10
5 108 -103 -32 98 -76 3190 2597 4 MP stroke
c11
-88 62 -29 -104 117 42 2594 2691 4 MP stroke
c12
123 90 -97 76 -26 -166 3055 2291 4 MP stroke
c13
-116 -42 90 -124 26 166 2628 2359 4 MP stroke
0.25 sg
-59 -115 110 34 -51 81 1386 2601 4 MP stroke
c8
-156 -2 51 -80 105 82 1659 2831 4 MP stroke
c9
83 -31 21 113 -104 -82 1928 2607 4 MP stroke
c10
96 83 -83 32 -13 -115 1811 2411 4 MP stroke
c11
-110 -34 97 -80 13 114 1425 2406 4 MP stroke
c12
83 -96 20 128 -103 -32 2533 994 4 MP stroke
c13
-32 -84 114 -12 -82 96 2284 891 4 MP stroke
0.25 sg
-98 76 -5 -108 103 32 2378 1401 4 MP stroke
c8
5 108 -118 -86 113 -22 2162 1391 4 MP stroke
c9
82 -105 31 84 -113 21 2088 1009 4 MP stroke
c10
59 115 -110 -34 51 -81 4177 1289 4 MP stroke
c11
156 2 -51 80 -105 -82 3904 1059 4 MP stroke
c12
-83 31 -21 -113 104 82 3635 1283 4 MP stroke
c13
110 34 -97 80 -13 -114 4138 1484 4 MP stroke
0.25 sg
-96 -83 83 -32 13 115 3752 1479 4 MP stroke
c8
-90 -65 148 -49 -58 114 1573 1224 4 MP stroke
c9
14 115 -119 -86 105 -29 1944 1441 4 MP stroke
c10
61 88 -104 28 43 -116 2035 1758 4 MP stroke
c11
-27 -166 124 90 -97 76 2631 1689 4 MP stroke
c12
-42 116 -124 -90 166 -26 2368 1791 4 MP stroke
c13
-91 -91 156 1 -65 90 3864 887 4 MP stroke
0.25 sg
42 -116 124 90 -166 26 3195 2099 4 MP stroke
c8
-116 -43 90 -123 26 166 2935 1531 4 MP stroke
c9
167 -26 -90 124 -77 -98 3038 1795 4 MP stroke
c10
-156 -1 65 -90 91 91 1855 3004 4 MP stroke
c11
-112 23 46 -117 66 94 2809 3260 4 MP stroke
c12
-74 -61 94 -66 -20 127 1346 1686 4 MP stroke
c13
89 4 -74 111 -15 -115 1677 1575 4 MP stroke
0.25 sg
-149 49 75 -110 74 61 1588 1399 4 MP stroke
c8
-91 91 1 -157 90 66 1723 862 4 MP stroke
c9
-167 26 90 -124 77 98 2525 2095 4 MP stroke
c10
-23 -113 117 47 -94 66 1466 1972 4 MP stroke
c11
128 -20 -66 108 -62 -88 1800 2003 4 MP stroke
c12
-89 -4 66 -109 23 113 1715 1802 4 MP stroke
c13
66 93 -127 -20 61 -73 2974 415 4 MP stroke
0.25 sg
66 -89 49 148 -115 -59 3503 737 4 MP stroke
c8
-61 74 -49 -148 110 74 3278 604 4 MP stroke
c9
-127 20 47 -117 80 97 2608 439 4 MP stroke
c10
112 -23 -46 117 -66 -94 2754 630 4 MP stroke
c11
23 113 -117 -47 94 -66 4097 1918 4 MP stroke
c12
-1 156 -90 -66 91 -90 3841 2871 4 MP stroke
c13
-42 116 -62 -88 104 -28 3466 2044 4 MP stroke
0.25 sg
65 -108 62 88 -127 20 3697 1996 4 MP stroke
c8
-24 -113 89 4 -65 109 3937 2092 4 MP stroke
c9
75 -111 14 115 -89 -4 3812 2425 4 MP stroke
c10
-104 29 -15 -115 119 86 3604 2335 4 MP stroke
c11
117 42 -88 62 -29 -104 2881 1261 4 MP stroke
c12
-108 -66 88 -62 20 128 2832 1029 4 MP stroke
c13
-112 23 4 -89 108 66 2929 789 4 MP stroke
0.25 sg
-110 -74 114 -15 -4 89 3262 915 4 MP stroke
c8
28 104 -115 14 87 -118 3171 1122 4 MP stroke
c9
-66 -93 127 20 -61 73 2589 3475 4 MP stroke
c10
61 -74 49 148 -110 -74 2285 3286 4 MP stroke
c11
-66 89 -49 -148 115 59 2060 3153 4 MP stroke
c12
-80 -97 127 -20 -47 117 3082 3431 4 MP stroke
c13
-119 -87 114 -21 5 108 3520 2585 4 MP stroke
0.25 sg
86 -119 22 113 -108 6 2141 2683 4 MP stroke
c8
108 -6 -32 103 -76 -97 2130 2353 4 MP stroke
c9
-127 20 31 -103 96 83 1958 2173 4 MP stroke
c10
112 -23 -4 89 -108 -66 2634 3101 4 MP stroke
c11
110 74 -114 15 4 -89 2301 2975 4 MP stroke
c12
-28 -104 115 -14 -87 118 2392 2768 4 MP stroke
c13
97 -81 20 127 -117 -46 1295 2245 4 MP stroke
0.25 sg
-115 58 34 -109 81 51 2125 550 4 MP stroke
c8
114 -13 -34 110 -80 -97 2286 698 4 MP stroke
c9
-81 -51 82 -105 -1 156 1976 874 4 MP stroke
c10
-97 81 -20 -127 117 46 4268 1645 4 MP stroke
c11
127 -20 -31 103 -96 -83 3605 1717 4 MP stroke
c12
-86 119 -22 -113 108 -6 3422 1207 4 MP stroke
c13
-108 6 32 -103 76 97 3433 1537 4 MP stroke
0.25 sg
-94 66 20 -127 74 61 4311 2138 4 MP stroke
c8
-73 -61 148 -50 -75 111 4123 2441 4 MP stroke
c9
90 65 -148 49 58 -114 3990 2666 4 MP stroke
c10
-34 109 -81 -51 115 -58 3471 3230 4 MP stroke
c11
81 51 -82 105 1 -156 3587 3016 4 MP stroke
c12
-113 21 82 -105 31 84 3557 2776 4 MP stroke
c13
80 97 -114 12 34 -109 3162 3204 4 MP stroke
0.25 sg
-31 -83 114 -13 -83 96 3279 2999 4 MP stroke
c8
83 -96 20 127 -103 -31 3030 2896 4 MP stroke
c9
-88 62 -20 -128 108 66 2819 2799 4 MP stroke
c10
103 32 -98 76 -5 -108 3087 2565 4 MP stroke
c11
28 104 -116 -42 88 -62 2566 2587 4 MP stroke
c12
98 -76 26 166 -124 -90 2958 2367 4 MP stroke
c13
-90 124 -26 -166 116 42 2718 2235 4 MP stroke
0.25 sg
-110 -34 52 -81 58 115 1496 2635 4 MP stroke
c8
-51 81 -105 -82 156 1 1711 2751 4 MP stroke
c9
-22 -114 105 82 -83 32 1950 2720 4 MP stroke
c10
84 -32 12 114 -96 -82 1728 2442 4 MP stroke
c11
-97 81 -13 -115 110 34 1522 2326 4 MP stroke
c12
-20 -128 102 32 -82 96 2553 1121 4 MP stroke
c13
-114 13 83 -96 31 83 2399 879 4 MP stroke
0.25 sg
5 108 -103 -32 98 -76 2373 1293 4 MP stroke
c8
119 87 -114 21 -5 -108 2043 1305 4 MP stroke
c9
-31 -83 113 -22 -82 105 2120 1092 4 MP stroke
c10
110 34 -52 81 -58 -115 4067 1255 4 MP stroke
c11
51 -81 105 82 -156 -1 3852 1139 4 MP stroke
c12
22 114 -105 -82 83 -32 3613 1170 4 MP stroke
c13
97 -81 13 115 -110 -34 4041 1564 4 MP stroke
0.25 sg
-84 32 -12 -114 96 82 3835 1448 4 MP stroke
c8
-89 -65 148 -49 -59 114 1394 1094 4 MP stroke
c9
15 115 -119 -87 104 -28 1974 1670 4 MP stroke
c10
62 88 -105 28 43 -116 2159 1934 4 MP stroke
c11
-26 -166 124 90 -98 76 2579 1357 4 MP stroke
c12
-42 116 -124 -90 166 -26 2283 2024 4 MP stroke
c13
-91 -91 156 1 -65 90 3682 705 4 MP stroke
0.25 sg
42 -116 124 90 -166 26 3280 1866 4 MP stroke
c8
-116 -42 90 -124 26 166 2703 1447 4 MP stroke
c9
166 -27 -90 124 -76 -97 3370 1742 4 MP stroke
c10
-156 -1 65 -90 91 91 1543 3002 4 MP stroke
c11
-113 23 47 -117 66 94 2583 3307 4 MP stroke
c12
-74 -61 94 -66 -20 127 1198 1564 4 MP stroke
c13
89 5 -74 110 -15 -115 1855 1584 4 MP stroke
0.25 sg
-148 49 74 -110 74 61 1292 1498 4 MP stroke
c8
-91 91 2 -156 89 65 1542 1044 4 MP stroke
c9
-166 27 90 -124 76 97 2193 2148 4 MP stroke
c10
-23 -112 117 46 -94 66 1420 1747 4 MP stroke
c11
127 -20 -65 108 -62 -88 2055 1962 4 MP stroke
c12
-89 -5 66 -108 23 113 1537 1793 4 MP stroke
c13
66 94 -126 -20 60 -74 3107 603 4 MP stroke
0.25 sg
65 -90 50 148 -115 -58 3633 557 4 MP stroke
c8
-61 73 -49 -148 110 75 3156 751 4 MP stroke
c9
-127 20 46 -117 81 97 2354 479 4 MP stroke
c10
113 -23 -47 117 -66 -94 2980 583 4 MP stroke
c11
23 112 -117 -46 94 -66 4143 2143 4 MP stroke
c12
-2 156 -89 -65 91 -91 3838 3184 4 MP stroke
c13
-42 117 -62 -88 104 -29 3381 2277 4 MP stroke
0.25 sg
66 -108 62 88 -128 20 3829 1779 4 MP stroke
c8
-23 -113 89 5 -66 108 3891 1867 4 MP stroke
c9
75 -110 14 114 -89 -4 3961 2205 4 MP stroke
c10
-104 28 -14 -115 118 87 3396 2391 4 MP stroke
c11
116 42 -88 62 -28 -104 3113 1345 4 MP stroke
c12
-108 -65 88 -62 20 127 2616 898 4 MP stroke
c13
-112 24 4 -89 108 65 2704 836 4 MP stroke
0.25 sg
-111 -74 115 -15 -4 89 3041 766 4 MP stroke
c8
29 104 -115 15 86 -119 3228 1331 4 MP stroke
c9
-66 -94 126 20 -60 74 2456 3287 4 MP stroke
c10
61 -73 49 148 -110 -75 2407 3139 4 MP stroke
c11
-65 90 -50 -148 115 58 1930 3333 4 MP stroke
c12
-81 -97 127 -20 -46 117 2921 3237 4 MP stroke
c13
-119 -86 113 -22 6 108 3282 2413 4 MP stroke
0.25 sg
87 -118 21 113 -108 5 2314 2446 4 MP stroke
c8
107 -5 -31 103 -76 -98 2345 2343 4 MP stroke
c9
-127 20 32 -102 95 82 1703 2214 4 MP stroke
c10
112 -24 -4 89 -108 -65 2859 3054 4 MP stroke
c11
111 74 -115 15 4 -89 2522 3124 4 MP stroke
c12
-29 -104 115 -15 -86 119 2335 2559 4 MP stroke
c13
97 -80 20 127 -117 -47 1489 2085 4 MP stroke
0.25 sg
-115 59 34 -110 81 51 1896 667 4 MP stroke
c8
114 -13 -34 110 -80 -97 2515 673 4 MP stroke
c9
-81 -52 82 -105 -1 157 1814 771 4 MP stroke
c10
-97 80 -20 -127 117 47 4074 1805 4 MP stroke
c11
127 -20 -32 102 -95 -82 3860 1676 4 MP stroke
c12
-87 118 -21 -113 108 -5 3249 1444 4 MP stroke
c13
-107 5 31 -103 76 98 3218 1547 4 MP stroke
0.25 sg
-94 66 20 -127 74 61 4123 2270 4 MP stroke
c8
-74 -61 148 -50 -74 111 3975 2319 4 MP stroke
c9
89 65 -148 49 59 -114 4169 2796 4 MP stroke
c10
-34 110 -80 -51 114 -59 3404 3450 4 MP stroke
c11
81 52 -82 105 1 -157 3749 3119 4 MP stroke
c12
-113 22 82 -105 31 83 3330 2820 4 MP stroke
c13
80 97 -114 12 34 -109 3323 3398 4 MP stroke
0.25 sg
-31 -83 114 -13 -83 96 3216 2832 4 MP stroke
c8
82 -95 21 127 -103 -32 3195 2705 4 MP stroke
c9
-88 62 -20 -128 108 66 2643 2923 4 MP stroke
c10
103 31 -98 76 -5 -107 3293 2628 4 MP stroke
c11
29 104 -117 -42 88 -62 2623 2795 4 MP stroke
c12
98 -76 26 166 -124 -90 3153 2215 4 MP stroke
c13
-90 124 -26 -166 116 42 2538 2483 4 MP stroke
0.25 sg
-109 -34 51 -81 58 115 1277 2567 4 MP stroke
c8
-51 81 -105 -82 156 1 1608 2912 4 MP stroke
c9
-21 -114 104 82 -83 32 1907 2493 4 MP stroke
c10
83 -32 13 115 -96 -83 1894 2379 4 MP stroke
c11
-97 81 -13 -114 110 33 1328 2487 4 MP stroke
c12
-20 -128 103 32 -83 96 2513 866 4 MP stroke
c13
-114 13 82 -96 32 83 2170 904 4 MP stroke
0.25 sg
6 108 -103 -32 97 -76 2384 1509 4 MP stroke
c8
119 86 -113 22 -6 -108 2281 1477 4 MP stroke
c9
-31 -84 113 -21 -82 105 2057 925 4 MP stroke
c10
109 34 -51 81 -58 -115 4286 1323 4 MP stroke
c11
51 -81 105 82 -156 -1 3955 978 4 MP stroke
c12
21 114 -104 -82 83 -32 3656 1397 4 MP stroke
c13
97 -81 13 114 -110 -33 4235 1403 4 MP stroke
0.25 sg
-83 32 -13 -115 96 83 3669 1511 4 MP stroke
c8
-58 115 -90 -65 148 -50 1367 1388 4 MP stroke
c9
104 -28 14 115 -118 -87 2167 1499 4 MP stroke
c10
42 -117 62 88 -104 29 2182 1613 4 MP stroke
c11
-98 76 -26 -166 124 90 2410 1675 4 MP stroke
c12
166 -26 -42 116 -124 -90 2658 1855 4 MP stroke
c13
-65 90 -91 -91 156 1 3643 976 4 MP stroke
0.25 sg
-166 26 42 -116 124 90 2905 2035 4 MP stroke
c8
26 166 -116 -42 90 -124 2871 1821 4 MP stroke
c9
-77 -97 167 -26 -90 123 3051 1574 4 MP stroke
c10
91 91 -156 -1 65 -90 1881 3185 4 MP stroke
c11
66 94 -113 23 47 -117 2828 3471 4 MP stroke
c12
-20 127 -74 -61 94 -66 1232 1879 4 MP stroke
c13
-14 -115 89 5 -75 110 1737 1350 4 MP stroke
0.25 sg
74 61 -148 50 74 -111 1588 1571 4 MP stroke
c8
90 65 -91 91 1 -156 1812 1084 4 MP stroke
c9
77 97 -167 26 90 -123 2512 2316 4 MP stroke
c10
-94 67 -23 -113 117 46 1255 1992 4 MP stroke
c11
-62 -88 128 -21 -66 109 1804 1806 4 MP stroke
c12
23 113 -89 -5 66 -108 1672 2023 4 MP stroke
c13
61 -74 66 94 -127 -20 3162 362 4 MP stroke
0.25 sg
-114 -58 65 -90 49 148 3339 530 4 MP stroke
c8
110 74 -61 74 -49 -148 3437 826 4 MP stroke
c9
81 97 -127 20 46 -117 2642 653 4 MP stroke
c10
-66 -94 113 -23 -47 117 2735 419 4 MP stroke
c11
94 -67 23 113 -117 -46 4308 1898 4 MP stroke
c12
91 -91 -2 156 -89 -65 4021 2846 4 MP stroke
c13
104 -28 -42 116 -62 -88 3632 2104 4 MP stroke
0.25 sg
-127 20 65 -108 62 88 3508 1928 4 MP stroke
c8
-65 108 -24 -113 89 5 3783 2196 4 MP stroke
c9
-89 -5 74 -110 15 115 3708 2306 4 MP stroke
c10
118 87 -104 28 -14 -115 3737 2536 4 MP stroke
c11
-29 -104 117 42 -88 62 2940 1095 4 MP stroke
c12
20 128 -108 -66 88 -62 2764 1219 4 MP stroke
c13
109 66 -113 23 4 -89 3033 944 4 MP stroke
0.25 sg
-4 89 -111 -75 115 -14 3143 1018 4 MP stroke
c8
86 -119 28 104 -114 15 3372 989 4 MP stroke
c9
-61 74 -66 -94 127 20 2401 3528 4 MP stroke
c10
-110 -74 61 -74 49 148 2126 3064 4 MP stroke
c11
114 58 -65 90 -49 -148 2224 3360 4 MP stroke
c12
-47 117 -80 -97 127 -20 2908 3568 4 MP stroke
c13
6 108 -119 -86 113 -22 3412 2715 4 MP stroke
0.25 sg
-108 5 87 -119 21 114 2012 2575 4 MP stroke
c8
-77 -98 108 -5 -31 103 2085 2153 4 MP stroke
c9
96 83 -128 20 32 -103 2022 2359 4 MP stroke
c10
-109 -66 113 -23 -4 89 2530 2946 4 MP stroke
c11
4 -89 111 75 -115 14 2420 2872 4 MP stroke
c12
-86 119 -28 -104 114 -15 2191 2901 4 MP stroke
c13
-117 -46 97 -81 20 127 1158 2072 4 MP stroke
0.25 sg
80 51 -114 59 34 -110 2172 711 4 MP stroke
c8
-80 -97 114 -12 -34 109 2240 492 4 MP stroke
c9
-1 156 -81 -51 82 -105 1893 1135 4 MP stroke
c10
117 46 -97 81 -20 -127 4405 1818 4 MP stroke
c11
-96 -83 128 -20 -32 103 3541 1531 4 MP stroke
c12
108 -5 -87 119 -21 -114 3551 1315 4 MP stroke
c13
77 98 -108 5 31 -103 3478 1737 4 MP stroke
0.25 sg
74 61 -94 66 20 -127 4365 2326 4 MP stroke
c8
-75 110 -73 -61 148 -49 3900 2601 4 MP stroke
c9
58 -115 90 65 -148 50 4196 2502 4 MP stroke
c10
115 -59 -34 110 -81 -51 3667 3223 4 MP stroke
c11
1 -156 81 51 -82 105 3670 2755 4 MP stroke
c12
31 84 -113 21 82 -105 3506 2965 4 MP stroke
c13
33 -110 81 97 -114 13 3310 3082 4 MP stroke
0.25 sg
-82 96 -32 -84 114 -12 3082 3107 4 MP stroke
c8
-103 -32 83 -96 20 128 2907 2737 4 MP stroke
c9
108 65 -88 62 -20 -127 2947 2992 4 MP stroke
c10
-6 -108 103 32 -97 76 3179 2381 4 MP stroke
c11
88 -62 28 104 -116 -42 2770 2567 4 MP stroke
c12
-124 -90 98 -76 26 166 2808 2111 4 MP stroke
c13
116 42 -90 124 -26 -166 2860 2443 4 MP stroke
0.25 sg
58 114 -109 -34 51 -80 1503 2830 4 MP stroke
c8
157 1 -52 81 -105 -82 1972 2834 4 MP stroke
c9
-83 32 -22 -114 105 82 1762 2670 4 MP stroke
c10
-96 -83 83 -32 13 115 1619 2245 4 MP stroke
c11
109 34 -97 80 -12 -114 1644 2474 4 MP stroke
c12
-82 95 -21 -127 103 32 2368 1185 4 MP stroke
c13
31 83 -114 13 83 -96 2347 1058 4 MP stroke
0.25 sg
97 -76 5 108 -102 -32 2573 1249 4 MP stroke
c8
-6 -108 119 86 -113 22 2151 1175 4 MP stroke
c9
-82 104 -32 -83 114 -21 1924 1218 4 MP stroke
c10
-58 -114 109 34 -51 80 4060 1060 4 MP stroke
c11
-157 -1 52 -81 105 82 3591 1056 4 MP stroke
c12
83 -32 22 114 -105 -82 3801 1220 4 MP stroke
c13
-109 -34 97 -80 12 114 3919 1416 4 MP stroke
0.25 sg
96 83 -83 32 -13 -115 3944 1645 4 MP stroke
c8
-148 49 58 -114 90 65 1425 1273 4 MP stroke
c9
119 86 -105 29 -14 -115 2063 1527 4 MP stroke
c10
105 -28 -43 116 -62 -88 2140 1730 4 MP stroke
c11
-123 -90 97 -76 26 166 2508 1599 4 MP stroke
c12
124 90 -166 26 42 -116 2492 1881 4 MP stroke
c13
-156 -1 65 -90 91 91 3708 886 4 MP stroke
0.25 sg
-124 -90 166 -26 -42 116 3071 2009 4 MP stroke
c8
-90 124 -26 -166 116 42 2845 1655 4 MP stroke
c9
90 -124 77 98 -167 26 3128 1671 4 MP stroke
c10
-65 90 -91 -91 156 1 1790 3094 4 MP stroke
c11
-47 117 -66 -94 113 -23 2762 3377 4 MP stroke
c12
-94 66 20 -127 74 61 1252 1752 4 MP stroke
c13
74 -110 15 115 -89 -5 1751 1465 4 MP stroke
0.25 sg
-74 111 -74 -61 148 -50 1514 1510 4 MP stroke
c8
-1 157 -90 -66 91 -91 1722 1019 4 MP stroke
c9
-90 124 -77 -98 167 -26 2435 2219 4 MP stroke
c10
-117 -47 94 -66 23 113 1349 1925 4 MP stroke
c11
66 -109 62 88 -128 21 1866 1894 4 MP stroke
c12
-66 108 -23 -113 89 5 1649 1910 4 MP stroke
c13
127 21 -61 73 -66 -94 3101 436 4 MP stroke
0.25 sg
-50 -149 115 59 -65 90 3453 588 4 MP stroke
c8
49 148 -110 -74 61 -74 3327 752 4 MP stroke
c9
-47 117 -80 -97 127 -20 2561 556 4 MP stroke
c10
47 -117 66 94 -113 23 2801 513 4 MP stroke
c11
117 47 -94 66 -23 -113 4214 1965 4 MP stroke
c12
89 66 -91 90 2 -156 3930 2937 4 MP stroke
c13
62 88 -104 28 42 -116 3528 2132 4 MP stroke
0.25 sg
-62 -88 127 -20 -65 108 3635 1908 4 MP stroke
c8
-89 -4 65 -109 24 113 3848 2088 4 MP stroke
c9
-15 -114 89 4 -74 110 3797 2311 4 MP stroke
c10
15 114 -119 -86 104 -28 3619 2449 4 MP stroke
c11
88 -62 29 104 -117 -42 2969 1199 4 MP stroke
c12
-88 62 -20 -128 108 66 2744 1091 4 MP stroke
c13
-5 89 -108 -66 113 -23 2924 878 4 MP stroke
0.25 sg
-115 14 4 -89 111 75 3147 929 4 MP stroke
c8
115 -14 -87 118 -28 -104 3286 1108 4 MP stroke
c9
-127 -21 61 -73 66 94 2462 3454 4 MP stroke
c10
-49 -148 110 74 -61 74 2236 3138 4 MP stroke
c11
50 149 -115 -59 65 -90 2110 3302 4 MP stroke
c12
-127 20 47 -117 80 97 2955 3451 4 MP stroke
c13
-114 22 -5 -108 119 86 3406 2607 4 MP stroke
0.25 sg
-21 -113 108 -6 -87 119 2120 2570 4 MP stroke
c8
32 -102 76 97 -108 5 2162 2251 4 MP stroke
c9
-32 103 -96 -83 128 -20 1926 2276 4 MP stroke
c10
5 -89 108 66 -113 23 2639 3012 4 MP stroke
c11
115 -14 -4 89 -111 -75 2416 2961 4 MP stroke
c12
-115 14 87 -118 28 104 2277 2782 4 MP stroke
c13
-20 -127 117 46 -97 81 1275 2118 4 MP stroke
0.25 sg
-33 110 -81 -51 114 -59 2092 660 4 MP stroke
c8
34 -109 80 97 -114 12 2320 589 4 MP stroke
c9
-82 105 1 -156 81 51 1894 979 4 MP stroke
c10
20 127 -117 -46 97 -81 4288 1772 4 MP stroke
c11
32 -103 96 83 -128 20 3637 1614 4 MP stroke
c12
21 113 -108 6 87 -119 3443 1320 4 MP stroke
c13
-32 102 -76 -97 108 -5 3401 1639 4 MP stroke
0.25 sg
-20 127 -74 -61 94 -66 4291 2265 4 MP stroke
c8
-148 50 75 -111 73 61 3975 2491 4 MP stroke
c9
148 -49 -58 114 -90 -65 4138 2617 4 MP stroke
c10
81 52 -115 58 34 -110 3552 3282 4 MP stroke
c11
82 -105 -1 156 -81 -51 3669 2911 4 MP stroke
c12
-82 105 -31 -84 113 -21 3475 2881 4 MP stroke
c13
115 -12 -34 109 -81 -97 3277 3192 4 MP stroke
0.25 sg
-115 12 83 -96 32 84 3164 3011 4 MP stroke
c8
-20 -127 103 31 -83 96 3010 2769 4 MP stroke
c9
20 128 -108 -66 88 -62 2839 2927 4 MP stroke
c10
98 -76 5 108 -103 -32 3185 2489 4 MP stroke
c11
116 42 -88 62 -28 -104 2682 2629 4 MP stroke
c12
-26 -166 124 90 -98 76 2932 2201 4 MP stroke
c13
26 166 -116 -42 90 -124 2744 2401 4 MP stroke
0.25 sg
-51 81 -58 -115 109 34 1445 2716 4 MP stroke
c8
104 82 -156 -1 52 -81 1815 2833 4 MP stroke
c9
-105 -82 83 -32 22 114 1845 2638 4 MP stroke
c10
-13 -114 96 82 -83 32 1715 2328 4 MP stroke
c11
13 114 -110 -34 97 -80 1535 2440 4 MP stroke
c12
-103 -31 82 -96 21 127 2450 1090 4 MP stroke
c13
-83 96 -31 -83 114 -13 2316 975 4 MP stroke
0.25 sg
103 32 -98 76 -5 -108 2476 1325 4 MP stroke
c8
114 -22 5 108 -119 -86 2157 1283 4 MP stroke
c9
-114 22 82 -105 32 83 2006 1114 4 MP stroke
c10
51 -81 58 115 -109 -34 4118 1174 4 MP stroke
c11
-104 -82 156 1 -52 81 3748 1057 4 MP stroke
c12
105 82 -83 32 -22 -114 3718 1252 4 MP stroke
c13
-13 -114 110 34 -97 80 4028 1450 4 MP stroke
0.25 sg
13 114 -96 -82 83 -32 3848 1562 4 MP stroke
c8
58 -114 90 65 -148 49 1721 1175 4 MP stroke
c9
-104 28 -14 -115 118 87 1826 1354 4 MP stroke
c10
-43 116 -61 -88 104 -28 1931 1786 4 MP stroke
c11
97 -76 27 166 -124 -90 2755 1779 4 MP stroke
c12
-166 26 42 -116 124 90 2244 1701 4 MP stroke
c13
65 -90 91 91 -156 -1 4020 888 4 MP stroke
0.25 sg
166 -26 -42 116 -124 -90 3319 2189 4 MP stroke
c8
-26 -167 116 43 -90 124 3025 1407 4 MP stroke
c9
77 98 -167 26 90 -124 2948 1919 4 MP stroke
c10
-91 -91 156 1 -65 90 1920 2914 4 MP stroke
c11
-66 -94 112 -23 -46 117 2855 3143 4 MP stroke
c12
20 -127 74 61 -94 66 1440 1620 4 MP stroke
c13
14 114 -89 -4 75 -110 1602 1685 4 MP stroke
0.25 sg
-74 -61 149 -49 -75 110 1663 1289 4 MP stroke
c8
-89 -65 91 -91 -2 156 1725 706 4 MP stroke
c9
-77 -98 167 -26 -90 124 2615 1971 4 MP stroke
c10
94 -66 23 113 -117 -47 1583 2019 4 MP stroke
c11
62 88 -128 20 66 -108 1734 2111 4 MP stroke
c12
-24 -112 89 4 -65 108 1780 1694 4 MP stroke
c13
-60 73 -66 -93 126 20 2848 395 4 MP stroke
0.25 sg
115 59 -66 89 -49 -148 3552 885 4 MP stroke
c8
-111 -74 61 -74 50 148 3228 456 4 MP stroke
c9
-80 -97 127 -20 -47 117 2655 322 4 MP stroke
c10
66 94 -112 23 46 -117 2708 747 4 MP stroke
c11
-94 66 -23 -113 117 47 3980 1871 4 MP stroke
c12
-91 91 1 -156 90 65 3751 2806 4 MP stroke
c13
-104 28 42 -116 62 88 3404 1956 4 MP stroke
0.25 sg
127 -20 -65 108 -62 -88 3759 2084 4 MP stroke
c8
65 -108 24 113 -89 -5 4026 2097 4 MP stroke
c9
89 4 -75 111 -14 -115 3826 2540 4 MP stroke
c10
-119 -86 104 -29 15 115 3589 2220 4 MP stroke
c11
29 104 -117 -42 88 -62 2793 1323 4 MP stroke
c12
-20 -128 108 66 -88 62 2920 967 4 MP stroke
c13
-108 -66 112 -23 -4 89 2933 700 4 MP stroke
0.25 sg
4 -89 110 74 -114 15 3376 900 4 MP stroke
c8
-86 119 -28 -104 114 -15 3057 1137 4 MP stroke
c9
60 -73 66 93 -126 -20 2715 3495 4 MP stroke
c10
111 74 -61 74 -50 -148 2335 3434 4 MP stroke
c11
-115 -59 66 -89 49 148 2011 3005 4 MP stroke
c12
47 -117 80 97 -127 20 3209 3411 4 MP stroke
c13
-6 -108 119 87 -113 21 3633 2564 4 MP stroke
0.25 sg
108 -5 -86 119 -22 -114 2163 2797 4 MP stroke
c8
76 97 -108 6 32 -103 2098 2456 4 MP stroke
c9
-96 -83 127 -20 -31 103 1989 2070 4 MP stroke
c10
108 66 -112 23 4 -89 2630 3190 4 MP stroke
c11
-4 89 -110 -74 114 -15 2187 2990 4 MP stroke
c12
86 -119 28 104 -114 15 2506 2753 4 MP stroke
c13
117 46 -97 81 -20 -127 1315 2372 4 MP stroke
0.25 sg
-81 -52 115 -58 -34 110 2159 440 4 MP stroke
c8
81 97 -114 13 33 -110 2253 808 4 MP stroke
c9
1 -156 81 51 -82 105 2058 769 4 MP stroke
c10
-117 -46 97 -81 20 127 4248 1518 4 MP stroke
c11
96 83 -127 20 31 -103 3574 1820 4 MP stroke
c12
-108 5 86 -119 22 114 3400 1093 4 MP stroke
c13
-76 -97 108 -6 -32 103 3465 1434 4 MP stroke
0.25 sg
-74 -61 94 -66 -20 127 4331 2011 4 MP stroke
c8
75 -110 73 61 -148 49 4271 2392 4 MP stroke
c9
-58 114 -90 -65 148 -49 3842 2715 4 MP stroke
c10
-114 58 34 -109 80 51 3391 3179 4 MP stroke
c11
-1 156 -81 -51 82 -105 3505 3121 4 MP stroke
c12
-31 -83 113 -21 -82 104 3639 2672 4 MP stroke
c13
-34 110 -80 -97 114 -13 3048 3217 4 MP stroke
0.25 sg
83 -96 31 83 -114 13 3393 2986 4 MP stroke
c8
103 32 -83 96 -20 -128 3050 3024 4 MP stroke
c9
-108 -66 88 -62 20 128 2799 2671 4 MP stroke
c10
6 108 -103 -32 97 -76 2990 2641 4 MP stroke
c11
-88 62 -28 -104 116 42 2450 2545 4 MP stroke
c12
124 90 -98 76 -26 -166 2984 2533 4 MP stroke
c13
-116 -42 90 -124 26 166 2692 2069 4 MP stroke
0.25 sg
-59 -115 110 34 -51 81 1547 2554 4 MP stroke
c8
-156 -1 51 -81 105 82 1606 2669 4 MP stroke
c9
83 -32 22 114 -105 -82 2055 2802 4 MP stroke
c10
96 82 -84 32 -12 -114 1740 2556 4 MP stroke
c11
-109 -33 97 -81 12 114 1510 2212 4 MP stroke
c12
83 -96 20 128 -103 -32 2656 1153 4 MP stroke
c13
-32 -83 114 -13 -82 96 2481 783 4 MP stroke
0.25 sg
-98 77 -5 -108 103 31 2270 1262 4 MP stroke
c8
6 108 -119 -87 113 -21 1930 1326 4 MP stroke
c9
82 -105 31 83 -113 22 2233 1070 4 MP stroke
c10
59 115 -110 -34 51 -81 4016 1336 4 MP stroke
c11
156 1 -51 81 -105 -82 3957 1221 4 MP stroke
c12
-83 32 -22 -114 105 82 3508 1088 4 MP stroke
c13
109 33 -97 81 -12 -114 4053 1678 4 MP stroke
0.25 sg
-96 -82 84 -32 12 114 3823 1334 4 MP stroke
c8
59 -115 89 65 -148 50 1542 1044 4 MP stroke
c9
-104 29 -15 -115 119 86 1855 1584 4 MP stroke
c10
-42 116 -62 -88 104 -28 2055 1962 4 MP stroke
c11
98 -76 26 166 -124 -90 2703 1447 4 MP stroke
c12
-166 26 42 -116 124 90 2159 1934 4 MP stroke
c13
65 -90 91 91 -156 -1 3838 706 4 MP stroke
0.25 sg
166 -26 -42 116 -124 -90 3404 1956 4 MP stroke
c8
-26 -166 116 42 -90 124 2793 1323 4 MP stroke
c9
76 97 -166 27 90 -124 3280 1866 4 MP stroke
c10
-91 -91 156 1 -65 90 1608 2912 4 MP stroke
c11
-66 -94 113 -23 -47 117 2630 3190 4 MP stroke
c12
20 -127 74 61 -94 66 1292 1498 4 MP stroke
c13
14 115 -89 -5 75 -110 1780 1694 4 MP stroke
0.25 sg
-73 -61 148 -49 -75 110 1367 1388 4 MP stroke
c8
-90 -65 91 -91 -1 156 1543 888 4 MP stroke
c9
-76 -97 166 -27 -90 124 2283 2024 4 MP stroke
c10
94 -66 23 112 -117 -46 1537 1793 4 MP stroke
c11
61 88 -127 20 66 -108 1989 2070 4 MP stroke
c12
-24 -113 89 5 -65 108 1602 1685 4 MP stroke
c13
-61 74 -66 -94 127 20 2980 583 4 MP stroke
0.25 sg
114 58 -65 90 -49 -148 3682 705 4 MP stroke
c8
-110 -75 61 -73 49 148 3107 603 4 MP stroke
c9
-80 -97 127 -20 -47 117 2401 362 4 MP stroke
c10
66 94 -113 23 47 -117 2933 700 4 MP stroke
c11
-94 66 -23 -112 117 46 4026 2097 4 MP stroke
c12
-91 91 2 -156 89 65 3749 3119 4 MP stroke
c13
-104 29 42 -117 62 88 3319 2189 4 MP stroke
0.25 sg
128 -20 -66 108 -62 -88 3891 1867 4 MP stroke
c8
66 -109 23 113 -89 -4 3980 1871 4 MP stroke
c9
89 4 -75 110 -14 -114 3975 2319 4 MP stroke
c10
-119 -86 104 -28 15 114 3381 2277 4 MP stroke
c11
28 104 -116 -42 88 -62 3025 1407 4 MP stroke
c12
-20 -127 108 65 -88 62 2704 836 4 MP stroke
c13
-108 -65 112 -24 -4 89 2708 747 4 MP stroke
0.25 sg
4 -89 111 74 -115 15 3156 751 4 MP stroke
c8
-86 118 -29 -104 115 -14 3113 1345 4 MP stroke
c9
61 -74 66 94 -127 -20 2583 3307 4 MP stroke
c10
110 75 -61 73 -49 -148 2456 3287 4 MP stroke
c11
-114 -58 65 -90 49 148 1881 3185 4 MP stroke
c12
46 -117 81 97 -127 20 3048 3217 4 MP stroke
c13
-5 -108 119 86 -114 22 3396 2391 4 MP stroke
0.25 sg
108 -5 -87 118 -21 -113 2335 2559 4 MP stroke
c8
76 98 -107 5 31 -103 2314 2446 4 MP stroke
c9
-96 -83 127 -20 -31 103 1734 2111 4 MP stroke
c10
108 65 -112 24 4 -89 2855 3143 4 MP stroke
c11
-4 89 -111 -74 115 -15 2407 3139 4 MP stroke
c12
86 -118 29 104 -115 14 2450 2545 4 MP stroke
c13
118 47 -97 80 -21 -127 1510 2212 4 MP stroke
0.25 sg
-81 -51 115 -59 -34 110 1930 557 4 MP stroke
c8
80 97 -114 13 34 -110 2481 783 4 MP stroke
c9
1 -156 81 52 -82 104 1896 667 4 MP stroke
c10
-118 -47 97 -80 21 127 4053 1678 4 MP stroke
c11
96 83 -127 20 31 -103 3829 1779 4 MP stroke
c12
-108 5 87 -118 21 113 3228 1331 4 MP stroke
c13
-76 -98 107 -5 -31 103 3249 1444 4 MP stroke
0.25 sg
-74 -61 94 -66 -20 127 4143 2143 4 MP stroke
c8
74 -110 74 61 -148 49 4123 2270 4 MP stroke
c9
-59 115 -89 -65 148 -50 4021 2846 4 MP stroke
c10
-115 58 34 -110 81 52 3323 3398 4 MP stroke
c11
-1 156 -81 -52 82 -104 3667 3223 4 MP stroke
c12
-31 -83 113 -22 -82 105 3412 2715 4 MP stroke
c13
-34 110 -80 -97 114 -13 3209 3411 4 MP stroke
0.25 sg
83 -95 31 83 -114 12 3330 2820 4 MP stroke
c8
103 32 -82 95 -21 -127 3216 2832 4 MP stroke
c9
-108 -66 88 -62 20 128 2623 2795 4 MP stroke
c10
5 108 -103 -31 98 -77 3195 2705 4 MP stroke
c11
-88 62 -29 -104 117 42 2506 2753 4 MP stroke
c12
124 90 -98 76 -26 -166 3179 2381 4 MP stroke
c13
-116 -43 90 -124 26 167 2512 2316 4 MP stroke
0.25 sg
-58 -114 109 34 -51 80 1328 2487 4 MP stroke
c8
-156 -1 51 -81 105 82 1503 2830 4 MP stroke
c9
84 -32 21 114 -105 -82 2012 2575 4 MP stroke
c10
96 82 -83 32 -13 -114 1907 2493 4 MP stroke
c11
-110 -34 97 -81 13 115 1315 2372 4 MP stroke
c12
83 -96 20 128 -103 -32 2616 898 4 MP stroke
c13
-31 -83 114 -13 -83 96 2253 808 4 MP stroke
0.25 sg
-97 76 -6 -108 103 32 2281 1477 4 MP stroke
c8
5 108 -119 -86 114 -22 2167 1499 4 MP stroke
c9
82 -105 31 84 -113 21 2170 904 4 MP stroke
c10
58 114 -109 -34 51 -80 4235 1403 4 MP stroke
c11
156 1 -51 81 -105 -82 4060 1060 4 MP stroke
c12
-84 32 -21 -114 105 82 3551 1315 4 MP stroke
c13
110 34 -97 81 -13 -115 4248 1518 4 MP stroke
0.25 sg
-96 -82 83 -32 13 114 3656 1397 4 MP stroke
c8
-148 50 58 -115 90 65 1277 1323 4 MP stroke
c9
119 86 -104 28 -15 -114 2182 1613 4 MP stroke
c10
104 -29 -42 117 -62 -88 2244 1701 4 MP stroke
c11
-124 -90 98 -76 26 166 2384 1509 4 MP stroke
c12
123 90 -166 26 43 -116 2615 1971 4 MP stroke
c13
-156 -1 65 -90 91 91 3552 885 4 MP stroke
0.25 sg
-123 -90 166 -26 -43 116 2948 1919 4 MP stroke
c8
-90 124 -26 -166 116 42 2755 1779 4 MP stroke
c9
90 -124 77 97 -167 27 3218 1547 4 MP stroke
c10
-65 90 -91 -91 156 1 1725 3184 4 MP stroke
c11
-47 118 -66 -94 113 -24 2715 3495 4 MP stroke
c12
-94 66 20 -127 74 61 1158 1818 4 MP stroke
c13
75 -111 14 115 -89 -4 1826 1354 4 MP stroke
0.25 sg
-74 110 -74 -61 148 -49 1440 1620 4 MP stroke
c8
-1 156 -90 -65 91 -91 1721 1175 4 MP stroke
c9
-90 124 -77 -97 167 -27 2345 2343 4 MP stroke
c10
-117 -46 94 -67 23 113 1232 1879 4 MP stroke
c11
65 -108 62 88 -127 20 1931 1786 4 MP stroke
c12
-66 109 -23 -113 89 4 1583 2019 4 MP stroke
c13
127 20 -61 74 -66 -94 3228 456 4 MP stroke
0.25 sg
-49 -148 114 58 -65 90 3404 440 4 MP stroke
c8
49 148 -110 -74 61 -74 3376 900 4 MP stroke
c9
-46 117 -81 -97 127 -20 2515 673 4 MP stroke
c10
47 -118 66 94 -113 24 2848 395 4 MP stroke
c11
117 46 -94 67 -23 -113 4331 2011 4 MP stroke
c12
90 65 -91 91 1 -156 4020 3002 4 MP stroke
c13
61 88 -104 28 43 -116 3589 2220 4 MP stroke
0.25 sg
-61 -88 127 -20 -66 108 3574 1820 4 MP stroke
c8
-89 -4 65 -108 24 112 3759 2084 4 MP stroke
c9
-14 -115 89 5 -75 110 3783 2196 4 MP stroke
c10
14 115 -118 -87 104 -28 3633 2564 4 MP stroke
c11
88 -62 29 104 -117 -42 3057 1137 4 MP stroke
c12
-88 62 -20 -128 108 66 2656 1153 4 MP stroke
c13
-4 89 -109 -66 113 -23 2920 967 4 MP stroke
0.25 sg
-114 15 4 -89 110 74 3033 944 4 MP stroke
c8
114 -15 -86 119 -28 -104 3400 1093 4 MP stroke
c9
-127 -20 61 -74 66 94 2335 3434 4 MP stroke
c10
-49 -148 110 74 -61 74 2187 2990 4 MP stroke
c11
49 148 -114 -58 65 -90 2159 3450 4 MP stroke
c12
-127 20 47 -117 80 97 2828 3471 4 MP stroke
c13
-113 21 -6 -108 119 87 3293 2628 4 MP stroke
0.25 sg
-22 -114 108 -5 -86 119 2098 2456 4 MP stroke
c8
31 -103 77 98 -108 5 2193 2148 4 MP stroke
c9
-32 103 -96 -83 128 -20 1894 2379 4 MP stroke
c10
4 -89 109 66 -113 23 2643 2923 4 MP stroke
c11
114 -15 -4 89 -110 -74 2530 2946 4 MP stroke
c12
-114 15 86 -119 28 104 2163 2797 4 MP stroke
c13
-20 -126 117 46 -97 80 1255 1992 4 MP stroke
0.25 sg
-34 109 -80 -51 114 -58 2058 769 4 MP stroke
c8
34 -110 80 97 -114 13 2354 479 4 MP stroke
c9
-82 105 1 -156 81 51 1812 1084 4 MP stroke
c10
20 126 -117 -46 97 -80 4308 1898 4 MP stroke
c11
32 -103 96 83 -128 20 3669 1511 4 MP stroke
c12
22 114 -108 5 86 -119 3465 1434 4 MP stroke
c13
-31 103 -77 -98 108 -5 3370 1742 4 MP stroke
0.25 sg
-20 127 -74 -61 94 -66 4271 2392 4 MP stroke
c8
-149 49 75 -110 74 61 3826 2540 4 MP stroke
c9
148 -50 -58 115 -90 -65 4286 2567 4 MP stroke
c10
81 51 -115 59 34 -110 3633 3333 4 MP stroke
c11
82 -105 -1 156 -81 -51 3751 2806 4 MP stroke
c12
-82 105 -31 -84 113 -21 3393 2986 4 MP stroke
c13
114 -13 -33 110 -81 -97 3391 3179 4 MP stroke
0.25 sg
-114 13 82 -96 32 83 3050 3024 4 MP stroke
c8
-20 -128 103 32 -83 96 2990 2641 4 MP stroke
c9
20 127 -108 -65 88 -62 2859 3054 4 MP stroke
c10
97 -76 6 108 -103 -32 3282 2413 4 MP stroke
c11
117 42 -88 62 -29 -104 2799 2671 4 MP stroke
c12
-27 -166 124 90 -97 76 2905 2035 4 MP stroke
c13
26 166 -116 -42 90 -124 2770 2567 4 MP stroke
0.25 sg
-51 80 -58 -114 109 34 1394 2796 4 MP stroke
c8
105 81 -157 -1 52 -80 1920 2914 4 MP stroke
c9
-105 -82 83 -32 22 114 1740 2556 4 MP stroke
c10
-12 -114 96 83 -84 31 1703 2214 4 MP stroke
c11
12 114 -109 -34 97 -80 1547 2554 4 MP stroke
c12
-103 -32 82 -95 21 127 2347 1058 4 MP stroke
c13
-83 95 -31 -83 114 -12 2233 1070 4 MP stroke
0.25 sg
103 32 -97 76 -6 -108 2579 1357 4 MP stroke
c8
113 -21 6 108 -119 -87 2270 1262 4 MP stroke
c9
-113 21 82 -104 31 83 1893 1135 4 MP stroke
c10
51 -80 58 114 -109 -34 4169 1094 4 MP stroke
c11
-105 -81 157 1 -52 80 3643 976 4 MP stroke
c12
105 82 -83 32 -22 -114 3823 1334 4 MP stroke
c13
-12 -114 109 34 -97 80 4016 1336 4 MP stroke
0.25 sg
12 114 -96 -83 84 -31 3860 1676 4 MP stroke
c8
-90 -65 148 -49 -58 114 1483 1159 4 MP stroke
c9
15 114 -119 -86 104 -28 1959 1555 4 MP stroke
c10
62 88 -105 28 43 -116 2097 1846 4 MP stroke
c11
-26 -166 123 90 -97 76 2605 1523 4 MP stroke
c12
-43 117 -124 -90 167 -27 2325 1908 4 MP stroke
c13
-91 -91 156 1 -65 90 3773 796 4 MP stroke
0.25 sg
43 -117 124 90 -167 27 3238 1982 4 MP stroke
c8
-116 -42 90 -124 26 166 2819 1489 4 MP stroke
c9
166 -26 -90 124 -76 -98 3204 1769 4 MP stroke
c10
-156 -1 65 -90 91 91 1699 3003 4 MP stroke
c11
-113 24 47 -117 66 93 2696 3284 4 MP stroke
c12
-74 -61 94 -66 -20 127 1272 1625 4 MP stroke
c13
89 4 -74 110 -15 -114 1766 1579 4 MP stroke
0.25 sg
-148 50 74 -111 74 61 1440 1449 4 MP stroke
c8
-90 91 1 -157 89 66 1633 953 4 MP stroke
c9
-166 26 90 -124 76 98 2359 2121 4 MP stroke
c10
-23 -113 117 47 -94 66 1443 1859 4 MP stroke
c11
128 -21 -66 109 -62 -88 1928 1982 4 MP stroke
c12
-89 -4 66 -108 23 112 1626 1798 4 MP stroke
c13
67 94 -127 -21 60 -73 3041 509 4 MP stroke
0.25 sg
65 -90 50 149 -115 -59 3568 647 4 MP stroke
c8
-61 74 -49 -148 110 74 3217 678 4 MP stroke
c9
-127 20 47 -117 80 97 2481 459 4 MP stroke
c10
113 -24 -47 117 -66 -93 2867 606 4 MP stroke
c11
23 113 -117 -47 94 -66 4120 2031 4 MP stroke
c12
-1 157 -89 -66 90 -91 3840 3028 4 MP stroke
c13
-43 116 -62 -88 105 -28 3423 2160 4 MP stroke
0.25 sg
66 -109 62 88 -128 21 3763 1887 4 MP stroke
c8
-23 -112 89 4 -66 108 3914 1980 4 MP stroke
c9
74 -110 15 114 -89 -4 3886 2315 4 MP stroke
c10
-104 28 -15 -114 119 86 3500 2363 4 MP stroke
c11
116 42 -88 62 -28 -104 2997 1303 4 MP stroke
c12
-108 -66 88 -62 20 128 2724 963 4 MP stroke
c13
-113 23 5 -89 108 66 2816 812 4 MP stroke
0.25 sg
-110 -75 115 -14 -5 89 3152 840 4 MP stroke
c8
28 105 -115 14 87 -119 3199 1227 4 MP stroke
c9
-67 -94 127 21 -60 73 2522 3381 4 MP stroke
c10
61 -74 49 148 -110 -74 2346 3212 4 MP stroke
c11
-65 90 -50 -149 115 59 1995 3243 4 MP stroke
c12
-80 -97 127 -20 -47 117 3002 3334 4 MP stroke
c13
-119 -86 114 -22 5 108 3401 2499 4 MP stroke
0.25 sg
86 -119 21 113 -107 6 2227 2564 4 MP stroke
c8
108 -5 -32 102 -76 -97 2238 2348 4 MP stroke
c9
-128 21 32 -103 96 82 1830 2194 4 MP stroke
c10
113 -23 -5 89 -108 -66 2747 3078 4 MP stroke
c11
110 75 -115 14 5 -89 2411 3050 4 MP stroke
c12
-28 -105 115 -14 -87 119 2364 2663 4 MP stroke
c13
97 -80 20 127 -117 -47 1392 2165 4 MP stroke
0.25 sg
-114 58 33 -110 81 52 2011 608 4 MP stroke
c8
115 -12 -34 109 -81 -97 2401 686 4 MP stroke
c9
-81 -51 82 -105 -1 156 1895 823 4 MP stroke
c10
-97 80 -20 -127 117 47 4171 1725 4 MP stroke
c11
128 -21 -32 103 -96 -82 3733 1696 4 MP stroke
c12
-86 119 -21 -113 107 -6 3336 1326 4 MP stroke
c13
-108 5 32 -102 76 97 3325 1542 4 MP stroke
0.25 sg
-94 66 20 -127 74 61 4217 2204 4 MP stroke
c8
-74 -61 148 -50 -74 111 4049 2380 4 MP stroke
c9
90 65 -148 49 58 -114 4080 2731 4 MP stroke
c10
-33 110 -81 -52 114 -58 3438 3340 4 MP stroke
c11
81 51 -82 105 1 -156 3668 3067 4 MP stroke
c12
-114 22 82 -105 32 83 3443 2798 4 MP stroke
c13
81 97 -115 12 34 -109 3243 3301 4 MP stroke
0.25 sg
-32 -84 115 -12 -83 96 3247 2915 4 MP stroke
c8
83 -96 20 127 -103 -31 3113 2800 4 MP stroke
c9
-88 62 -20 -128 108 66 2731 2861 4 MP stroke
c10
103 32 -98 76 -5 -108 3190 2597 4 MP stroke
c11
28 104 -116 -42 88 -62 2594 2691 4 MP stroke
c12
97 -76 26 166 -123 -90 3055 2291 4 MP stroke
c13
-90 124 -26 -166 116 42 2628 2359 4 MP stroke
0.25 sg
-110 -34 51 -81 59 115 1386 2601 4 MP stroke
c8
-52 80 -104 -82 156 2 1659 2831 4 MP stroke
c9
-22 -113 105 82 -83 31 1928 2607 4 MP stroke
c10
83 -31 13 114 -96 -83 1811 2411 4 MP stroke
c11
-97 80 -13 -114 110 34 1425 2406 4 MP stroke
c12
-20 -127 103 31 -83 96 2533 994 4 MP stroke
c13
-115 12 83 -96 32 84 2284 891 4 MP stroke
0.25 sg
5 108 -103 -32 98 -76 2378 1401 4 MP stroke
c8
119 86 -114 22 -5 -108 2162 1391 4 MP stroke
c9
-32 -83 114 -22 -82 105 2088 1009 4 MP stroke
c10
110 34 -51 81 -59 -115 4177 1289 4 MP stroke
c11
52 -80 104 82 -156 -2 3904 1059 4 MP stroke
c12
22 113 -105 -82 83 -31 3635 1283 4 MP stroke
c13
97 -80 13 114 -110 -34 4138 1484 4 MP stroke
0.25 sg
-83 31 -13 -114 96 83 3752 1479 4 MP stroke
gr

0.25 sg

end %%Color Dict

eplot
%%EndObject

epage
end

showpage

%%Trailer
%%EOF
