%!PS-Adobe-3.0 EPSF-3.0
%%Creator: MATLAB, The MathWorks, Inc. Version 8.3.0.532 (R2014a). Operating System: Linux 4.1.2-2-ARCH #1 SMP PREEMPT Wed Jul 15 08:30:32 UTC 2015 x86_64.
%%Title: /str/dev/elte-ellipticpde/notes/fig/grid1.eps
%%CreationDate: 07/25/2015  11:35:08
%%DocumentNeededFonts: Helvetica
%%DocumentProcessColors: Cyan Magenta Yellow Black
%%LanguageLevel: 2
%%Pages: 1
%%BoundingBox:    81   227   529   564
%%EndComments

%%BeginProlog
% MathWorks dictionary
/MathWorks 160 dict begin
% definition operators
/bdef {bind def} bind def
/ldef {load def} bind def
/xdef {exch def} bdef
/xstore {exch store} bdef
% operator abbreviations
/c  /clip ldef
/cc /concat ldef
/cp /closepath ldef
/gr /grestore ldef
/gs /gsave ldef
/mt /moveto ldef
/np /newpath ldef
/cm /currentmatrix ldef
/sm /setmatrix ldef
/rm /rmoveto ldef
/rl /rlineto ldef
/s {show newpath} bdef
/sc {setcmykcolor} bdef
/sr /setrgbcolor ldef
/sg /setgray ldef
/w /setlinewidth ldef
/j /setlinejoin ldef
/cap /setlinecap ldef
/rc {rectclip} bdef
/rf {rectfill} bdef
% page state control
/pgsv () def
/bpage {/pgsv save def} bdef
/epage {pgsv restore} bdef
/bplot /gsave ldef
/eplot {stroke grestore} bdef
% orientation switch
/portraitMode 0 def /landscapeMode 1 def /rotateMode 2 def
% coordinate system mappings
/dpi2point 0 def
% font control
/FontSize 0 def
/FMS {/FontSize xstore findfont [FontSize 0 0 FontSize neg 0 0]
  makefont setfont} bdef
/reencode {exch dup where {pop load} {pop StandardEncoding} ifelse
  exch dup 3 1 roll findfont dup length dict begin
  { 1 index /FID ne {def}{pop pop} ifelse } forall
  /Encoding exch def currentdict end definefont pop} bdef
/isroman {findfont /CharStrings get /Agrave known} bdef
/FMSR {3 1 roll 1 index dup isroman {reencode} {pop pop} ifelse
  exch FMS} bdef
/csm {1 dpi2point div -1 dpi2point div scale neg translate
 dup landscapeMode eq {pop -90 rotate}
  {rotateMode eq {90 rotate} if} ifelse} bdef
% line types: solid, dotted, dashed, dotdash
/SO { [] 0 setdash } bdef
/DO { [.5 dpi2point mul 4 dpi2point mul] 0 setdash } bdef
/DA { [6 dpi2point mul] 0 setdash } bdef
/DD { [.5 dpi2point mul 4 dpi2point mul 6 dpi2point mul 4
  dpi2point mul] 0 setdash } bdef
% macros for lines and objects
/L {lineto stroke} bdef
/MP {3 1 roll moveto 1 sub {rlineto} repeat} bdef
/AP {{rlineto} repeat} bdef
/PDlw -1 def
/W {/PDlw currentlinewidth def setlinewidth} def
/PP {closepath eofill} bdef
/DP {closepath stroke} bdef
/MR {4 -2 roll moveto dup  0 exch rlineto exch 0 rlineto
  neg 0 exch rlineto closepath} bdef
/FR {MR stroke} bdef
/PR {MR fill} bdef
/L1i {{currentfile picstr readhexstring pop} image} bdef
/tMatrix matrix def
/MakeOval {newpath tMatrix currentmatrix pop translate scale
0 0 1 0 360 arc tMatrix setmatrix} bdef
/FO {MakeOval stroke} bdef
/PO {MakeOval fill} bdef
/PD {currentlinewidth 2 div 0 360 arc fill
   PDlw -1 eq not {PDlw w /PDlw -1 def} if} def
/FA {newpath tMatrix currentmatrix pop translate scale
  0 0 1 5 -2 roll arc tMatrix setmatrix stroke} bdef
/PA {newpath tMatrix currentmatrix pop	translate 0 0 moveto scale
  0 0 1 5 -2 roll arc closepath tMatrix setmatrix fill} bdef
/FAn {newpath tMatrix currentmatrix pop translate scale
  0 0 1 5 -2 roll arcn tMatrix setmatrix stroke} bdef
/PAn {newpath tMatrix currentmatrix pop translate 0 0 moveto scale
  0 0 1 5 -2 roll arcn closepath tMatrix setmatrix fill} bdef
/vradius 0 def /hradius 0 def /lry 0 def
/lrx 0 def /uly 0 def /ulx 0 def /rad 0 def
/MRR {/vradius xdef /hradius xdef /lry xdef /lrx xdef /uly xdef
  /ulx xdef newpath tMatrix currentmatrix pop ulx hradius add uly
  vradius add translate hradius vradius scale 0 0 1 180 270 arc 
  tMatrix setmatrix lrx hradius sub uly vradius add translate
  hradius vradius scale 0 0 1 270 360 arc tMatrix setmatrix
  lrx hradius sub lry vradius sub translate hradius vradius scale
  0 0 1 0 90 arc tMatrix setmatrix ulx hradius add lry vradius sub
  translate hradius vradius scale 0 0 1 90 180 arc tMatrix setmatrix
  closepath} bdef
/FRR {MRR stroke } bdef
/PRR {MRR fill } bdef
/MlrRR {/lry xdef /lrx xdef /uly xdef /ulx xdef /rad lry uly sub 2 div def
  newpath tMatrix currentmatrix pop ulx rad add uly rad add translate
  rad rad scale 0 0 1 90 270 arc tMatrix setmatrix lrx rad sub lry rad
  sub translate rad rad scale 0 0 1 270 90 arc tMatrix setmatrix
  closepath} bdef
/FlrRR {MlrRR stroke } bdef
/PlrRR {MlrRR fill } bdef
/MtbRR {/lry xdef /lrx xdef /uly xdef /ulx xdef /rad lrx ulx sub 2 div def
  newpath tMatrix currentmatrix pop ulx rad add uly rad add translate
  rad rad scale 0 0 1 180 360 arc tMatrix setmatrix lrx rad sub lry rad
  sub translate rad rad scale 0 0 1 0 180 arc tMatrix setmatrix
  closepath} bdef
/FtbRR {MtbRR stroke } bdef
/PtbRR {MtbRR fill } bdef
/stri 6 array def /dtri 6 array def
/smat 6 array def /dmat 6 array def
/tmat1 6 array def /tmat2 6 array def /dif 3 array def
/asub {/ind2 exch def /ind1 exch def dup dup
  ind1 get exch ind2 get sub exch } bdef
/tri_to_matrix {
  2 0 asub 3 1 asub 4 0 asub 5 1 asub
  dup 0 get exch 1 get 7 -1 roll astore } bdef
/compute_transform {
  dmat dtri tri_to_matrix tmat1 invertmatrix 
  smat stri tri_to_matrix tmat2 concatmatrix } bdef
/ds {stri astore pop} bdef
/dt {dtri astore pop} bdef
/db {2 copy /cols xdef /rows xdef mul dup 3 mul string
  currentfile 
  3 index 0 eq {/ASCIIHexDecode filter}
  {/ASCII85Decode filter 3 index 2 eq {/RunLengthDecode filter} if }
  ifelse exch readstring pop
  dup 0 3 index getinterval /rbmap xdef
  dup 2 index dup getinterval /gbmap xdef
  1 index dup 2 mul exch getinterval /bbmap xdef pop pop}bdef
/it {gs np dtri aload pop moveto lineto lineto cp c
  cols rows 8 compute_transform 
  rbmap gbmap bbmap true 3 colorimage gr}bdef
/il {newpath moveto lineto stroke}bdef
currentdict end def
%%EndProlog

%%BeginSetup
MathWorks begin

0 cap

end
%%EndSetup

%%Page: 1 1
%%BeginPageSetup
%%PageBoundingBox:    81   227   529   564
MathWorks begin
bpage
%%EndPageSetup

%%BeginObject: obj1
bplot

/dpi2point 12 def
portraitMode 0972 6768 csm

    0     0  5376  4033 rc
85 dict begin %Colortable dictionary
/c0 { 0.000000 0.000000 0.000000 sr} bdef
/c1 { 1.000000 1.000000 1.000000 sr} bdef
/c2 { 0.900000 0.000000 0.000000 sr} bdef
/c3 { 0.000000 0.820000 0.000000 sr} bdef
/c4 { 0.000000 0.000000 0.800000 sr} bdef
/c5 { 0.910000 0.820000 0.320000 sr} bdef
/c6 { 1.000000 0.260000 0.820000 sr} bdef
/c7 { 0.000000 0.820000 0.820000 sr} bdef
c0
1 j
1 sg
   0    0 5377 4034 rf
6 w
0 3288 3287 0 0 -3288 1138 3589 4 MP
PP
-3287 0 0 3288 3287 0 0 -3288 1138 3589 5 MP stroke
4 w
DO
SO
6 w
0 sg
1138 3589 mt 4425 3589 L
1138  301 mt 4425  301 L
1138 3589 mt 1138  301 L
4425 3589 mt 4425  301 L
1138 3589 mt 4425 3589 L
1138 3589 mt 1138  301 L
1138 3589 mt 1138 3556 L
1138  301 mt 1138  334 L
%%IncludeResource: font Helvetica
/Helvetica /ISOLatin1Encoding 120 FMSR

1035 3734 mt 
(-1) s
1960 3589 mt 1960 3556 L
1960  301 mt 1960  334 L
1807 3734 mt 
(-0.5) s
2782 3589 mt 2782 3556 L
2782  301 mt 2782  334 L
2749 3734 mt 
(0) s
3603 3589 mt 3603 3556 L
3603  301 mt 3603  334 L
3520 3734 mt 
(0.5) s
4425 3589 mt 4425 3556 L
4425  301 mt 4425  334 L
4392 3734 mt 
(1) s
1138 3589 mt 1171 3589 L
4425 3589 mt 4392 3589 L
 967 3633 mt 
(-1) s
1138 3260 mt 1171 3260 L
4425 3260 mt 4392 3260 L
 867 3304 mt 
(-0.8) s
1138 2931 mt 1171 2931 L
4425 2931 mt 4392 2931 L
 867 2975 mt 
(-0.6) s
1138 2602 mt 1171 2602 L
4425 2602 mt 4392 2602 L
 867 2646 mt 
(-0.4) s
1138 2274 mt 1171 2274 L
4425 2274 mt 4392 2274 L
 867 2318 mt 
(-0.2) s
1138 1945 mt 1171 1945 L
4425 1945 mt 4392 1945 L
1037 1989 mt 
(0) s
1138 1616 mt 1171 1616 L
4425 1616 mt 4392 1616 L
 937 1660 mt 
(0.2) s
1138 1288 mt 1171 1288 L
4425 1288 mt 4392 1288 L
 937 1332 mt 
(0.4) s
1138  959 mt 1171  959 L
4425  959 mt 4392  959 L
 937 1003 mt 
(0.6) s
1138  630 mt 1171  630 L
4425  630 mt 4392  630 L
 937  674 mt 
(0.8) s
1138  301 mt 1171  301 L
4425  301 mt 4392  301 L
1037  345 mt 
(1) s
1138 3589 mt 4425 3589 L
1138  301 mt 4425  301 L
1138 3589 mt 1138  301 L
4425 3589 mt 4425  301 L
gs 1138 301 3288 3289 rc
/c8 { 0.000000 0.000000 1.000000 sr} bdef
c8
593 -197 -234 458 -359 -261 1811 1240 4 MP stroke
/c9 { 0.000000 0.500000 0.000000 sr} bdef
c9
-475 -345 417 -113 58 458 1811 1240 4 MP stroke
/c10 { 1.000000 0.000000 0.000000 sr} bdef
c10
-417 113 169 -465 248 352 1869 1698 4 MP stroke
/c11 { 0.000000 0.750000 0.750000 sr} bdef
c11
496 360 -390 304 -106 -664 2782 1945 4 MP stroke
/c12 { 0.750000 0.000000 0.750000 sr} bdef
c12
-496 -360 665 -105 -169 465 2286 1585 4 MP stroke
/c13 { 0.750000 0.750000 0.000000 sr} bdef
c13
624 5 -261 359 -363 -364 4111 979 4 MP stroke
0.25 sg
495 360 -664 105 169 -465 3277 2305 4 MP stroke
c8
359 -495 106 664 -465 -169 3141 1450 4 MP stroke
c9
-359 495 -305 -390 664 -105 2782 1945 4 MP stroke
c10
261 -359 363 364 -624 -5 2076 2916 4 MP stroke
c11
186 -469 265 376 -451 93 2968 3120 4 MP stroke
c12
375 -264 -80 508 -295 -244 1513 1681 4 MP stroke
c13
-298 441 -58 -458 356 17 1513 1681 4 MP stroke
0.25 sg
298 -441 295 244 -593 197 1811 1240 4 MP stroke
c8
4 -625 359 261 -363 364 1815 615 4 MP stroke
c9
360 -495 305 390 -665 105 2782 1945 4 MP stroke
c10
469 186 -375 264 -94 -450 1607 2131 4 MP stroke
c11
-262 433 -248 -352 510 -81 1607 2131 4 MP stroke
c12
262 -433 94 450 -356 -17 1869 1698 4 MP stroke
c13
-507 -81 243 -295 264 376 2782 301 4 MP stroke
0.25 sg
198 592 -459 -233 261 -359 3487 974 4 MP stroke
c8
-198 -592 441 297 -243 295 3289 382 4 MP stroke
c9
187 -469 321 388 -508 81 2782 301 4 MP stroke
c10
-187 469 -264 -376 451 -93 2595 770 4 MP stroke
c11
-469 -186 375 -264 94 450 3956 1759 4 MP stroke
c12
-359 -261 363 -364 -4 625 3752 2650 4 MP stroke
c13
-248 -352 417 -113 -169 465 3446 1840 4 MP stroke
0.25 sg
248 352 -510 81 262 -433 3694 2192 4 MP stroke
c8
356 17 -262 433 -94 -450 4050 2209 4 MP stroke
c9
58 458 -356 -17 298 -441 3752 2650 4 MP stroke
c10
-58 -458 475 345 -417 113 3694 2192 4 MP stroke
c11
-352 248 -113 -417 465 169 2676 1281 4 MP stroke
c12
352 -248 81 511 -433 -263 3028 1033 4 MP stroke
c13
18 -356 433 263 -451 93 3046 677 4 MP stroke
0.25 sg
459 -59 -18 356 -441 -297 3487 974 4 MP stroke
c8
-459 59 346 -476 113 417 3028 1033 4 MP stroke
c9
508 81 -243 295 -265 -376 2782 3589 4 MP stroke
c10
198 592 -441 -297 243 -295 2274 3508 4 MP stroke
c11
-198 -592 459 233 -261 359 2076 2916 4 MP stroke
c12
507 -81 -186 469 -321 -388 3289 3508 4 MP stroke
c13
454 -86 21 431 -475 -345 3752 2650 4 MP stroke
0.25 sg
86 454 -432 22 346 -476 2076 2916 4 MP stroke
c8
-127 412 -305 -390 432 -22 1990 2462 4 MP stroke
c9
127 -412 383 331 -510 81 2117 2050 4 MP stroke
c10
-18 356 -433 -263 451 -93 2517 3213 4 MP stroke
c11
-459 59 18 -356 441 297 2076 2916 4 MP stroke
c12
459 -59 -346 476 -113 -417 2535 2857 4 MP stroke
c13
80 508 -469 -186 389 -322 1218 2453 4 MP stroke
0.25 sg
136 -439 323 206 -459 233 2274 382 4 MP stroke
c8
-136 439 -321 -388 457 -51 2138 821 4 MP stroke
c9
327 -419 -4 625 -323 -206 2138 821 4 MP stroke
c10
-80 -508 469 186 -389 322 4345 1437 4 MP stroke
c11
-127 412 -383 -331 510 -81 3446 1840 4 MP stroke
c12
-86 -454 432 -22 -346 476 3487 974 4 MP stroke
c13
127 -412 305 390 -432 22 3573 1428 4 MP stroke
0.25 sg
80 -508 295 244 -375 264 4425 1945 4 MP stroke
c8
593 -197 -298 441 -295 -244 4345 2453 4 MP stroke
c9
-593 197 234 -458 359 261 3752 2650 4 MP stroke
c10
-323 -206 459 -233 -136 439 3425 3069 4 MP stroke
c11
-327 419 4 -625 323 206 3425 3069 4 MP stroke
c12
327 -419 127 333 -454 86 3752 2650 4 MP stroke
c13
-457 51 136 -439 321 388 2968 3120 4 MP stroke
0.25 sg
457 -51 -330 384 -127 -333 3425 3069 4 MP stroke
c8
81 511 -411 -127 330 -384 2968 3120 4 MP stroke
c9
-81 -511 433 263 -352 248 2887 2609 4 MP stroke
c10
-390 304 -21 -431 411 127 2887 2609 4 MP stroke
c11
-465 -169 352 -248 113 417 2422 2440 4 MP stroke
c12
105 664 -495 -360 390 -304 2887 2609 4 MP stroke
c13
-105 -664 465 169 -360 495 2782 1945 4 MP stroke
0.25 sg
205 -323 234 458 -439 -135 1657 2588 4 MP stroke
c8
-419 -328 624 5 -205 323 1657 2588 4 MP stroke
c9
419 328 -333 126 -86 -454 2076 2916 4 MP stroke
c10
50 457 -383 -331 333 -126 1657 2588 4 MP stroke
c11
-50 -457 439 135 -389 322 1607 2131 4 MP stroke
c12
411 127 -330 384 -81 -511 2676 1281 4 MP stroke
c13
330 -384 127 333 -457 51 2595 770 4 MP stroke
0.25 sg
-411 -127 390 -304 21 431 2265 1154 4 MP stroke
c8
-454 86 -21 -431 475 345 1811 1240 4 MP stroke
c9
454 -86 -327 419 -127 -333 2265 1154 4 MP stroke
c10
-205 323 -234 -458 439 135 3906 1302 4 MP stroke
c11
419 328 -624 -5 205 -323 3906 1302 4 MP stroke
c12
-419 -328 333 -126 86 454 3487 974 4 MP stroke
c13
50 457 -439 -135 389 -322 3956 1759 4 MP stroke
0.25 sg
-50 -457 383 331 -333 126 3906 1302 4 MP stroke
gr

0.25 sg

end %%Color Dict

eplot
%%EndObject

epage
end

showpage

%%Trailer
%%EOF
