%!PS-Adobe-3.0 EPSF-3.0
%%Creator: MATLAB, The MathWorks, Inc. Version 8.3.0.532 (R2014a). Operating System: Linux 4.1.2-2-ARCH #1 SMP PREEMPT Wed Jul 15 08:30:32 UTC 2015 x86_64.
%%Title: /str/dev/elte-ellipticpde/notes/fig/grid2.eps
%%CreationDate: 07/25/2015  11:35:58
%%DocumentNeededFonts: Helvetica
%%DocumentProcessColors: Cyan Magenta Yellow Black
%%LanguageLevel: 2
%%Pages: 1
%%BoundingBox:    81   227   529   564
%%EndComments

%%BeginProlog
% MathWorks dictionary
/MathWorks 160 dict begin
% definition operators
/bdef {bind def} bind def
/ldef {load def} bind def
/xdef {exch def} bdef
/xstore {exch store} bdef
% operator abbreviations
/c  /clip ldef
/cc /concat ldef
/cp /closepath ldef
/gr /grestore ldef
/gs /gsave ldef
/mt /moveto ldef
/np /newpath ldef
/cm /currentmatrix ldef
/sm /setmatrix ldef
/rm /rmoveto ldef
/rl /rlineto ldef
/s {show newpath} bdef
/sc {setcmykcolor} bdef
/sr /setrgbcolor ldef
/sg /setgray ldef
/w /setlinewidth ldef
/j /setlinejoin ldef
/cap /setlinecap ldef
/rc {rectclip} bdef
/rf {rectfill} bdef
% page state control
/pgsv () def
/bpage {/pgsv save def} bdef
/epage {pgsv restore} bdef
/bplot /gsave ldef
/eplot {stroke grestore} bdef
% orientation switch
/portraitMode 0 def /landscapeMode 1 def /rotateMode 2 def
% coordinate system mappings
/dpi2point 0 def
% font control
/FontSize 0 def
/FMS {/FontSize xstore findfont [FontSize 0 0 FontSize neg 0 0]
  makefont setfont} bdef
/reencode {exch dup where {pop load} {pop StandardEncoding} ifelse
  exch dup 3 1 roll findfont dup length dict begin
  { 1 index /FID ne {def}{pop pop} ifelse } forall
  /Encoding exch def currentdict end definefont pop} bdef
/isroman {findfont /CharStrings get /Agrave known} bdef
/FMSR {3 1 roll 1 index dup isroman {reencode} {pop pop} ifelse
  exch FMS} bdef
/csm {1 dpi2point div -1 dpi2point div scale neg translate
 dup landscapeMode eq {pop -90 rotate}
  {rotateMode eq {90 rotate} if} ifelse} bdef
% line types: solid, dotted, dashed, dotdash
/SO { [] 0 setdash } bdef
/DO { [.5 dpi2point mul 4 dpi2point mul] 0 setdash } bdef
/DA { [6 dpi2point mul] 0 setdash } bdef
/DD { [.5 dpi2point mul 4 dpi2point mul 6 dpi2point mul 4
  dpi2point mul] 0 setdash } bdef
% macros for lines and objects
/L {lineto stroke} bdef
/MP {3 1 roll moveto 1 sub {rlineto} repeat} bdef
/AP {{rlineto} repeat} bdef
/PDlw -1 def
/W {/PDlw currentlinewidth def setlinewidth} def
/PP {closepath eofill} bdef
/DP {closepath stroke} bdef
/MR {4 -2 roll moveto dup  0 exch rlineto exch 0 rlineto
  neg 0 exch rlineto closepath} bdef
/FR {MR stroke} bdef
/PR {MR fill} bdef
/L1i {{currentfile picstr readhexstring pop} image} bdef
/tMatrix matrix def
/MakeOval {newpath tMatrix currentmatrix pop translate scale
0 0 1 0 360 arc tMatrix setmatrix} bdef
/FO {MakeOval stroke} bdef
/PO {MakeOval fill} bdef
/PD {currentlinewidth 2 div 0 360 arc fill
   PDlw -1 eq not {PDlw w /PDlw -1 def} if} def
/FA {newpath tMatrix currentmatrix pop translate scale
  0 0 1 5 -2 roll arc tMatrix setmatrix stroke} bdef
/PA {newpath tMatrix currentmatrix pop	translate 0 0 moveto scale
  0 0 1 5 -2 roll arc closepath tMatrix setmatrix fill} bdef
/FAn {newpath tMatrix currentmatrix pop translate scale
  0 0 1 5 -2 roll arcn tMatrix setmatrix stroke} bdef
/PAn {newpath tMatrix currentmatrix pop translate 0 0 moveto scale
  0 0 1 5 -2 roll arcn closepath tMatrix setmatrix fill} bdef
/vradius 0 def /hradius 0 def /lry 0 def
/lrx 0 def /uly 0 def /ulx 0 def /rad 0 def
/MRR {/vradius xdef /hradius xdef /lry xdef /lrx xdef /uly xdef
  /ulx xdef newpath tMatrix currentmatrix pop ulx hradius add uly
  vradius add translate hradius vradius scale 0 0 1 180 270 arc 
  tMatrix setmatrix lrx hradius sub uly vradius add translate
  hradius vradius scale 0 0 1 270 360 arc tMatrix setmatrix
  lrx hradius sub lry vradius sub translate hradius vradius scale
  0 0 1 0 90 arc tMatrix setmatrix ulx hradius add lry vradius sub
  translate hradius vradius scale 0 0 1 90 180 arc tMatrix setmatrix
  closepath} bdef
/FRR {MRR stroke } bdef
/PRR {MRR fill } bdef
/MlrRR {/lry xdef /lrx xdef /uly xdef /ulx xdef /rad lry uly sub 2 div def
  newpath tMatrix currentmatrix pop ulx rad add uly rad add translate
  rad rad scale 0 0 1 90 270 arc tMatrix setmatrix lrx rad sub lry rad
  sub translate rad rad scale 0 0 1 270 90 arc tMatrix setmatrix
  closepath} bdef
/FlrRR {MlrRR stroke } bdef
/PlrRR {MlrRR fill } bdef
/MtbRR {/lry xdef /lrx xdef /uly xdef /ulx xdef /rad lrx ulx sub 2 div def
  newpath tMatrix currentmatrix pop ulx rad add uly rad add translate
  rad rad scale 0 0 1 180 360 arc tMatrix setmatrix lrx rad sub lry rad
  sub translate rad rad scale 0 0 1 0 180 arc tMatrix setmatrix
  closepath} bdef
/FtbRR {MtbRR stroke } bdef
/PtbRR {MtbRR fill } bdef
/stri 6 array def /dtri 6 array def
/smat 6 array def /dmat 6 array def
/tmat1 6 array def /tmat2 6 array def /dif 3 array def
/asub {/ind2 exch def /ind1 exch def dup dup
  ind1 get exch ind2 get sub exch } bdef
/tri_to_matrix {
  2 0 asub 3 1 asub 4 0 asub 5 1 asub
  dup 0 get exch 1 get 7 -1 roll astore } bdef
/compute_transform {
  dmat dtri tri_to_matrix tmat1 invertmatrix 
  smat stri tri_to_matrix tmat2 concatmatrix } bdef
/ds {stri astore pop} bdef
/dt {dtri astore pop} bdef
/db {2 copy /cols xdef /rows xdef mul dup 3 mul string
  currentfile 
  3 index 0 eq {/ASCIIHexDecode filter}
  {/ASCII85Decode filter 3 index 2 eq {/RunLengthDecode filter} if }
  ifelse exch readstring pop
  dup 0 3 index getinterval /rbmap xdef
  dup 2 index dup getinterval /gbmap xdef
  1 index dup 2 mul exch getinterval /bbmap xdef pop pop}bdef
/it {gs np dtri aload pop moveto lineto lineto cp c
  cols rows 8 compute_transform 
  rbmap gbmap bbmap true 3 colorimage gr}bdef
/il {newpath moveto lineto stroke}bdef
currentdict end def
%%EndProlog

%%BeginSetup
MathWorks begin

0 cap

end
%%EndSetup

%%Page: 1 1
%%BeginPageSetup
%%PageBoundingBox:    81   227   529   564
MathWorks begin
bpage
%%EndPageSetup

%%BeginObject: obj1
bplot

/dpi2point 12 def
portraitMode 0972 6768 csm

    0     0  5376  4033 rc
85 dict begin %Colortable dictionary
/c0 { 0.000000 0.000000 0.000000 sr} bdef
/c1 { 1.000000 1.000000 1.000000 sr} bdef
/c2 { 0.900000 0.000000 0.000000 sr} bdef
/c3 { 0.000000 0.820000 0.000000 sr} bdef
/c4 { 0.000000 0.000000 0.800000 sr} bdef
/c5 { 0.910000 0.820000 0.320000 sr} bdef
/c6 { 1.000000 0.260000 0.820000 sr} bdef
/c7 { 0.000000 0.820000 0.820000 sr} bdef
c0
1 j
1 sg
   0    0 5377 4034 rf
6 w
0 3288 3287 0 0 -3288 1138 3589 4 MP
PP
-3287 0 0 3288 3287 0 0 -3288 1138 3589 5 MP stroke
4 w
DO
SO
6 w
0 sg
1138 3589 mt 4425 3589 L
1138  301 mt 4425  301 L
1138 3589 mt 1138  301 L
4425 3589 mt 4425  301 L
1138 3589 mt 4425 3589 L
1138 3589 mt 1138  301 L
1138 3589 mt 1138 3556 L
1138  301 mt 1138  334 L
%%IncludeResource: font Helvetica
/Helvetica /ISOLatin1Encoding 120 FMSR

1035 3734 mt 
(-1) s
1960 3589 mt 1960 3556 L
1960  301 mt 1960  334 L
1807 3734 mt 
(-0.5) s
2782 3589 mt 2782 3556 L
2782  301 mt 2782  334 L
2749 3734 mt 
(0) s
3603 3589 mt 3603 3556 L
3603  301 mt 3603  334 L
3520 3734 mt 
(0.5) s
4425 3589 mt 4425 3556 L
4425  301 mt 4425  334 L
4392 3734 mt 
(1) s
1138 3589 mt 1171 3589 L
4425 3589 mt 4392 3589 L
 967 3633 mt 
(-1) s
1138 3260 mt 1171 3260 L
4425 3260 mt 4392 3260 L
 867 3304 mt 
(-0.8) s
1138 2931 mt 1171 2931 L
4425 2931 mt 4392 2931 L
 867 2975 mt 
(-0.6) s
1138 2602 mt 1171 2602 L
4425 2602 mt 4392 2602 L
 867 2646 mt 
(-0.4) s
1138 2274 mt 1171 2274 L
4425 2274 mt 4392 2274 L
 867 2318 mt 
(-0.2) s
1138 1945 mt 1171 1945 L
4425 1945 mt 4392 1945 L
1037 1989 mt 
(0) s
1138 1616 mt 1171 1616 L
4425 1616 mt 4392 1616 L
 937 1660 mt 
(0.2) s
1138 1288 mt 1171 1288 L
4425 1288 mt 4392 1288 L
 937 1332 mt 
(0.4) s
1138  959 mt 1171  959 L
4425  959 mt 4392  959 L
 937 1003 mt 
(0.6) s
1138  630 mt 1171  630 L
4425  630 mt 4392  630 L
 937  674 mt 
(0.8) s
1138  301 mt 1171  301 L
4425  301 mt 4392  301 L
1037  345 mt 
(1) s
1138 3589 mt 4425 3589 L
1138  301 mt 4425  301 L
1138 3589 mt 1138  301 L
4425 3589 mt 4425  301 L
gs 1138 301 3288 3289 rc
/c8 { 0.000000 0.000000 1.000000 sr} bdef
c8
296 -98 -116 229 -180 -131 1811 1240 4 MP stroke
/c9 { 0.000000 0.500000 0.000000 sr} bdef
c9
-238 -172 209 -57 29 229 1811 1240 4 MP stroke
/c10 { 1.000000 0.000000 0.000000 sr} bdef
c10
-209 56 85 -232 124 176 1869 1698 4 MP stroke
/c11 { 0.000000 0.750000 0.750000 sr} bdef
c11
248 180 -195 152 -53 -332 2782 1945 4 MP stroke
/c12 { 0.750000 0.000000 0.750000 sr} bdef
c12
-248 -180 332 -53 -84 233 2286 1585 4 MP stroke
/c13 { 0.750000 0.750000 0.000000 sr} bdef
c13
312 2 -130 180 -182 -182 4111 979 4 MP stroke
0.25 sg
248 180 -332 53 84 -233 3277 2305 4 MP stroke
c8
180 -247 52 332 -232 -85 3141 1450 4 MP stroke
c9
-179 248 -153 -195 332 -53 2782 1945 4 MP stroke
c10
130 -179 182 182 -312 -3 2076 2916 4 MP stroke
c11
93 -234 133 188 -226 46 2968 3120 4 MP stroke
c12
187 -132 -40 254 -147 -122 1513 1681 4 MP stroke
c13
-149 221 -29 -229 178 8 1513 1681 4 MP stroke
0.25 sg
149 -220 147 122 -296 98 1811 1240 4 MP stroke
c8
2 -313 179 131 -181 182 1815 615 4 MP stroke
c9
180 -248 153 195 -333 53 2782 1945 4 MP stroke
c10
235 93 -188 132 -47 -225 1607 2131 4 MP stroke
c11
-131 216 -124 -176 255 -40 1607 2131 4 MP stroke
c12
131 -217 47 226 -178 -9 1869 1698 4 MP stroke
c13
-253 -41 121 -147 132 188 2782 301 4 MP stroke
0.25 sg
99 296 -229 -117 130 -179 3487 974 4 MP stroke
c8
-99 -296 221 149 -122 147 3289 382 4 MP stroke
c9
94 -235 160 194 -254 41 2782 301 4 MP stroke
c10
-93 234 -133 -188 226 -46 2595 770 4 MP stroke
c11
-235 -93 188 -132 47 225 3956 1759 4 MP stroke
c12
-180 -131 182 -181 -2 312 3752 2650 4 MP stroke
c13
-124 -176 209 -56 -85 232 3446 1840 4 MP stroke
0.25 sg
124 176 -255 41 131 -217 3694 2192 4 MP stroke
c8
178 8 -131 217 -47 -225 4050 2209 4 MP stroke
c9
29 229 -178 -9 149 -220 3752 2650 4 MP stroke
c10
-29 -229 238 173 -209 56 3694 2192 4 MP stroke
c11
-176 124 -57 -208 233 84 2676 1281 4 MP stroke
c12
176 -124 40 256 -216 -132 3028 1033 4 MP stroke
c13
9 -178 216 131 -225 47 3046 677 4 MP stroke
0.25 sg
229 -30 -8 178 -221 -148 3487 974 4 MP stroke
c8
-230 29 173 -237 57 208 3028 1033 4 MP stroke
c9
254 41 -121 147 -133 -188 2782 3589 4 MP stroke
c10
99 296 -221 -149 122 -147 2274 3508 4 MP stroke
c11
-99 -296 229 117 -130 179 2076 2916 4 MP stroke
c12
254 -40 -93 234 -161 -194 3289 3508 4 MP stroke
c13
227 -43 11 215 -238 -172 3752 2650 4 MP stroke
0.25 sg
43 227 -216 11 173 -238 2076 2916 4 MP stroke
c8
-64 206 -152 -195 216 -11 1990 2462 4 MP stroke
c9
63 -206 192 165 -255 41 2117 2050 4 MP stroke
c10
-9 178 -216 -131 225 -47 2517 3213 4 MP stroke
c11
-229 30 8 -178 221 148 2076 2916 4 MP stroke
c12
230 -29 -173 237 -57 -208 2535 2857 4 MP stroke
c13
40 254 -235 -93 195 -161 1218 2453 4 MP stroke
0.25 sg
68 -219 161 102 -229 117 2274 382 4 MP stroke
c8
-68 220 -161 -194 229 -26 2138 821 4 MP stroke
c9
163 -209 -2 312 -161 -103 2138 821 4 MP stroke
c10
-40 -254 235 93 -195 161 4345 1437 4 MP stroke
c11
-63 206 -192 -165 255 -41 3446 1840 4 MP stroke
c12
-43 -227 216 -11 -173 238 3487 974 4 MP stroke
c13
64 -206 152 195 -216 11 3573 1428 4 MP stroke
0.25 sg
40 -254 148 122 -188 132 4425 1945 4 MP stroke
c8
297 -99 -149 221 -148 -122 4345 2453 4 MP stroke
c9
-296 98 116 -229 180 131 3752 2650 4 MP stroke
c10
-161 -103 229 -117 -68 220 3425 3069 4 MP stroke
c11
-163 209 2 -312 161 103 3425 3069 4 MP stroke
c12
164 -210 63 167 -227 43 3752 2650 4 MP stroke
c13
-228 25 68 -219 160 194 2968 3120 4 MP stroke
0.25 sg
229 -26 -165 192 -64 -166 3425 3069 4 MP stroke
c8
41 255 -206 -63 165 -192 2968 3120 4 MP stroke
c9
-40 -256 216 132 -176 124 2887 2609 4 MP stroke
c10
-195 152 -10 -216 205 64 2887 2609 4 MP stroke
c11
-232 -85 176 -124 56 209 2422 2440 4 MP stroke
c12
53 332 -248 -180 195 -152 2887 2609 4 MP stroke
c13
-52 -332 232 84 -180 248 2782 1945 4 MP stroke
0.25 sg
103 -162 116 230 -219 -68 1657 2588 4 MP stroke
c8
-210 -164 313 2 -103 162 1657 2588 4 MP stroke
c9
209 164 -166 63 -43 -227 2076 2916 4 MP stroke
c10
25 228 -192 -165 167 -63 1657 2588 4 MP stroke
c11
-25 -229 219 68 -194 161 1607 2131 4 MP stroke
c12
205 64 -165 192 -40 -256 2676 1281 4 MP stroke
c13
165 -192 63 167 -228 25 2595 770 4 MP stroke
0.25 sg
-206 -63 196 -152 10 215 2265 1154 4 MP stroke
c8
-227 43 -11 -215 238 172 1811 1240 4 MP stroke
c9
227 -43 -164 210 -63 -167 2265 1154 4 MP stroke
c10
-103 162 -116 -230 219 68 3906 1302 4 MP stroke
c11
210 164 -313 -2 103 -162 3906 1302 4 MP stroke
c12
-209 -164 166 -63 43 227 3487 974 4 MP stroke
c13
25 229 -219 -68 194 -161 3956 1759 4 MP stroke
0.25 sg
-25 -228 192 165 -167 63 3906 1302 4 MP stroke
c8
296 -99 -117 229 -179 -130 1631 1109 4 MP stroke
c9
-238 -173 209 -56 29 229 1840 1469 4 MP stroke
c10
-209 56 85 -232 124 176 1993 1874 4 MP stroke
c11
248 180 -195 152 -53 -332 2729 1613 4 MP stroke
c12
-247 -180 332 -52 -85 232 2202 1818 4 MP stroke
c13
312 2 -131 180 -181 -182 3929 797 4 MP stroke
0.25 sg
247 180 -332 52 85 -232 3361 2072 4 MP stroke
c8
180 -248 53 332 -233 -84 2909 1365 4 MP stroke
c9
-180 247 -152 -195 332 -52 3114 1892 4 MP stroke
c10
130 -180 182 182 -312 -2 1764 2913 4 MP stroke
c11
93 -235 132 188 -225 47 2742 3166 4 MP stroke
c12
188 -132 -40 254 -148 -122 1366 1559 4 MP stroke
c13
-149 220 -29 -229 178 9 1691 1689 4 MP stroke
0.25 sg
149 -221 148 122 -297 99 1515 1338 4 MP stroke
c8
3 -312 179 130 -182 182 1634 797 4 MP stroke
c9
180 -247 152 195 -332 52 2449 1998 4 MP stroke
c10
234 93 -187 132 -47 -225 1560 1906 4 MP stroke
c11
-131 217 -124 -176 255 -41 1862 2091 4 MP stroke
c12
131 -217 47 225 -178 -8 1691 1689 4 MP stroke
c13
-253 -40 121 -148 132 188 2914 489 4 MP stroke
0.25 sg
99 296 -230 -116 131 -180 3617 795 4 MP stroke
c8
-99 -297 220 149 -121 148 3167 529 4 MP stroke
c9
93 -234 161 194 -254 40 2528 342 4 MP stroke
c10
-93 235 -132 -188 225 -47 2821 724 4 MP stroke
c11
-234 -93 187 -132 47 225 4003 1984 4 MP stroke
c12
-179 -131 181 -182 -2 313 3750 2962 4 MP stroke
c13
-124 -176 208 -57 -84 233 3361 2072 4 MP stroke
0.25 sg
124 176 -255 40 131 -216 3825 1975 4 MP stroke
c8
178 9 -131 216 -47 -225 4003 1984 4 MP stroke
c9
29 229 -178 -8 149 -221 3901 2430 4 MP stroke
c10
-29 -230 237 173 -208 57 3485 2248 4 MP stroke
c11
-176 124 -56 -209 232 85 2909 1365 4 MP stroke
c12
176 -124 41 255 -217 -131 2812 901 4 MP stroke
c13
9 -177 217 131 -226 46 2821 724 4 MP stroke
0.25 sg
229 -29 -9 178 -220 -149 3266 826 4 MP stroke
c8
-229 29 173 -238 56 209 3085 1241 4 MP stroke
c9
253 40 -121 148 -132 -188 2649 3401 4 MP stroke
c10
99 297 -220 -149 121 -148 2396 3361 4 MP stroke
c11
-99 -296 230 116 -131 180 1946 3095 4 MP stroke
c12
253 -40 -93 234 -160 -194 3128 3314 4 MP stroke
c13
226 -43 11 216 -237 -173 3514 2478 4 MP stroke
0.25 sg
43 227 -216 11 173 -238 2249 2678 4 MP stroke
c8
-63 206 -153 -195 216 -11 2206 2451 4 MP stroke
c9
64 -205 191 165 -255 40 1862 2091 4 MP stroke
c10
-9 177 -217 -131 226 -46 2742 3166 4 MP stroke
c11
-229 29 9 -178 220 149 2297 3064 4 MP stroke
c12
229 -29 -173 238 -56 -209 2478 2649 4 MP stroke
c13
41 254 -235 -93 194 -161 1413 2292 4 MP stroke
0.25 sg
68 -219 162 103 -230 116 2045 499 4 MP stroke
c8
-68 219 -160 -194 228 -25 2367 795 4 MP stroke
c9
164 -210 -2 313 -162 -103 1977 718 4 MP stroke
c10
-41 -254 235 93 -194 161 4150 1598 4 MP stroke
c11
-64 205 -191 -165 255 -40 3701 1799 4 MP stroke
c12
-43 -227 216 -11 -173 238 3314 1212 4 MP stroke
c13
63 -206 153 195 -216 11 3357 1439 4 MP stroke
0.25 sg
40 -254 147 122 -187 132 4237 2077 4 MP stroke
c8
296 -99 -149 221 -147 -122 4197 2331 4 MP stroke
c9
-296 99 117 -229 179 130 3932 2781 4 MP stroke
c10
-161 -102 229 -117 -68 219 3357 3289 4 MP stroke
c11
-164 210 2 -313 162 103 3586 3172 4 MP stroke
c12
164 -210 63 167 -227 43 3525 2693 4 MP stroke
c13
-229 25 68 -219 161 194 3128 3314 4 MP stroke
0.25 sg
228 -25 -165 192 -63 -167 3361 2903 4 MP stroke
c8
41 255 -206 -63 165 -192 3133 2928 4 MP stroke
c9
-40 -256 216 132 -176 124 2711 2733 4 MP stroke
c10
-196 152 -10 -215 206 63 3092 2673 4 MP stroke
c11
-233 -84 176 -124 57 208 2478 2649 4 MP stroke
c12
53 332 -248 -180 195 -152 3082 2457 4 MP stroke
c13
-52 -332 232 85 -180 247 2602 2193 4 MP stroke
0.25 sg
103 -162 117 229 -220 -67 1438 2520 4 MP stroke
c8
-210 -163 312 2 -102 161 1554 2750 4 MP stroke
c9
209 164 -166 63 -43 -227 2033 2689 4 MP stroke
c10
26 229 -192 -166 166 -63 1824 2525 4 MP stroke
c11
-25 -228 220 67 -195 161 1413 2292 4 MP stroke
c12
206 63 -165 192 -41 -255 2636 1025 4 MP stroke
c13
165 -192 64 166 -229 26 2367 795 4 MP stroke
0.25 sg
-206 -64 195 -152 11 216 2275 1369 4 MP stroke
c8
-226 43 -11 -216 237 173 2049 1412 4 MP stroke
c9
227 -43 -163 209 -64 -166 2202 987 4 MP stroke
c10
-103 162 -117 -229 220 67 4125 1370 4 MP stroke
c11
210 163 -312 -2 102 -161 4009 1140 4 MP stroke
c12
-209 -164 166 -63 43 227 3530 1201 4 MP stroke
c13
25 228 -220 -67 195 -161 4150 1598 4 MP stroke
0.25 sg
-26 -229 192 166 -166 63 3739 1365 4 MP stroke
c8
-180 -130 297 -99 -117 229 1335 1208 4 MP stroke
c9
29 230 -237 -173 208 -57 2078 1642 4 MP stroke
c10
124 176 -208 57 84 -233 2202 1818 4 MP stroke
c11
-53 -332 248 180 -195 152 2481 1433 4 MP stroke
c12
-85 233 -248 -180 333 -53 2449 1998 4 MP stroke
c13
-182 -182 312 3 -130 179 3617 795 4 MP stroke
0.25 sg
85 -233 247 180 -332 53 3114 1892 4 MP stroke
c8
-232 -84 179 -248 53 332 2729 1613 4 MP stroke
c9
333 -52 -180 247 -153 -195 3294 1645 4 MP stroke
c10
-312 -2 131 -180 181 182 1634 3093 4 MP stroke
c11
-226 47 93 -235 133 188 2649 3401 4 MP stroke
c12
-148 -122 188 -132 -40 254 1178 1691 4 MP stroke
c13
178 9 -149 220 -29 -229 1840 1469 4 MP stroke
0.25 sg
-296 99 149 -221 147 122 1366 1559 4 MP stroke
c8
-182 181 2 -312 180 131 1631 1109 4 MP stroke
c9
-333 52 180 -247 153 195 2269 2245 4 MP stroke
c10
-46 -225 234 93 -188 132 1326 1813 4 MP stroke
c11
255 -41 -131 217 -124 -176 1993 1874 4 MP stroke
c12
-178 -9 131 -216 47 225 1560 1906 4 MP stroke
c13
132 187 -254 -40 122 -147 3167 529 4 MP stroke
0.25 sg
130 -179 99 296 -229 -117 3518 499 4 MP stroke
c8
-122 148 -99 -296 221 148 3266 826 4 MP stroke
c9
-253 40 93 -234 160 194 2435 576 4 MP stroke
c10
226 -47 -94 235 -132 -188 2914 489 4 MP stroke
c11
46 225 -234 -93 188 -132 4237 2077 4 MP stroke
c12
-3 312 -179 -130 182 -182 3929 3093 4 MP stroke
c13
-85 232 -124 -176 209 -56 3485 2248 4 MP stroke
0.25 sg
131 -217 124 176 -255 41 3701 1799 4 MP stroke
c8
-47 -226 178 9 -131 217 3825 1975 4 MP stroke
c9
149 -220 29 229 -178 -9 3872 2201 4 MP stroke
c10
-209 57 -29 -229 238 172 3514 2478 4 MP stroke
c11
233 84 -176 124 -57 -208 3085 1241 4 MP stroke
c12
-216 -132 176 -124 40 256 2636 1025 4 MP stroke
c13
-225 46 9 -178 216 132 2812 901 4 MP stroke
0.25 sg
-221 -149 230 -29 -9 178 3037 855 4 MP stroke
c8
56 208 -229 30 173 -238 3314 1212 4 MP stroke
c9
-132 -187 254 40 -122 147 2396 3361 4 MP stroke
c10
122 -148 99 296 -221 -148 2297 3064 4 MP stroke
c11
-130 179 -99 -296 229 117 2045 3391 4 MP stroke
c12
-160 -194 253 -41 -93 235 2875 3354 4 MP stroke
c13
-237 -172 227 -43 10 215 3288 2521 4 MP stroke
0.25 sg
173 -238 43 227 -216 11 2206 2451 4 MP stroke
c8
215 -11 -63 206 -152 -195 2269 2245 4 MP stroke
c9
-256 40 64 -206 192 166 1798 2296 4 MP stroke
c10
225 -46 -9 178 -216 -132 2751 2989 4 MP stroke
c11
221 149 -230 29 9 -178 2526 3035 4 MP stroke
c12
-56 -208 229 -30 -173 238 2249 2678 4 MP stroke
c13
194 -161 40 254 -234 -93 1372 2038 4 MP stroke
0.25 sg
-229 117 68 -220 161 103 1977 718 4 MP stroke
c8
229 -25 -68 219 -161 -194 2435 576 4 MP stroke
c9
-162 -102 164 -210 -2 312 1813 928 4 MP stroke
c10
-194 161 -40 -254 234 93 4191 1852 4 MP stroke
c11
256 -40 -64 206 -192 -166 3765 1594 4 MP stroke
c12
-173 238 -43 -227 216 -11 3357 1439 4 MP stroke
c13
-215 11 63 -206 152 195 3294 1645 4 MP stroke
0.25 sg
-188 132 40 -254 148 122 4197 2331 4 MP stroke
c8
-147 -122 296 -98 -149 220 3901 2430 4 MP stroke
c9
180 130 -297 99 117 -229 4228 2682 4 MP stroke
c10
-68 219 -162 -103 230 -116 3518 3391 4 MP stroke
c11
162 102 -164 210 2 -312 3750 2962 4 MP stroke
c12
-227 43 163 -209 64 166 3361 2903 4 MP stroke
c13
161 194 -229 26 68 -220 3357 3289 4 MP stroke
0.25 sg
-63 -167 228 -25 -165 192 3133 2928 4 MP stroke
c8
165 -192 40 256 -205 -64 3092 2673 4 MP stroke
c9
-176 124 -41 -255 217 131 2751 2989 4 MP stroke
c10
206 64 -195 152 -11 -216 3288 2521 4 MP stroke
c11
57 208 -233 -84 176 -124 2711 2733 4 MP stroke
c12
195 -152 52 332 -247 -180 3029 2125 4 MP stroke
c13
-180 248 -53 -332 233 84 2654 2525 4 MP stroke
0.25 sg
-219 -68 102 -161 117 229 1335 2682 4 MP stroke
c8
-103 161 -209 -164 312 3 1764 2913 4 MP stroke
c9
-43 -227 210 164 -167 63 1824 2525 4 MP stroke
c10
166 -64 25 229 -191 -165 1798 2296 4 MP stroke
c11
-194 160 -25 -228 219 68 1438 2520 4 MP stroke
c12
-41 -255 206 63 -165 192 2430 962 4 MP stroke
c13
-228 25 165 -192 63 167 2202 987 4 MP stroke
0.25 sg
10 216 -205 -64 195 -152 2481 1433 4 MP stroke
c8
237 172 -227 43 -10 -215 2275 1369 4 MP stroke
c9
-63 -167 227 -43 -164 210 1975 1030 4 MP stroke
c10
219 68 -102 161 -117 -229 4228 1208 4 MP stroke
c11
103 -161 209 164 -312 -3 3799 977 4 MP stroke
c12
43 227 -210 -164 167 -63 3739 1365 4 MP stroke
c13
194 -160 25 228 -219 -68 4125 1370 4 MP stroke
0.25 sg
-166 64 -25 -229 191 165 3765 1594 4 MP stroke
c8
116 -229 180 130 -296 99 1631 1109 4 MP stroke
c9
-209 57 -29 -230 238 173 1840 1469 4 MP stroke
c10
-85 232 -124 -176 209 -56 1993 1874 4 MP stroke
c11
195 -152 53 332 -248 -180 2729 1613 4 MP stroke
c12
-332 53 85 -233 247 180 2202 1818 4 MP stroke
c13
130 -180 182 182 -312 -2 3929 797 4 MP stroke
0.25 sg
332 -53 -85 233 -247 -180 3361 2072 4 MP stroke
c8
-52 -332 232 84 -180 248 2909 1365 4 MP stroke
c9
153 195 -333 52 180 -247 3114 1892 4 MP stroke
c10
-182 -182 312 2 -130 180 1764 2913 4 MP stroke
c11
-133 -188 226 -47 -93 235 2742 3166 4 MP stroke
c12
40 -254 148 122 -188 132 1366 1559 4 MP stroke
c13
29 229 -178 -9 149 -220 1691 1689 4 MP stroke
0.25 sg
-147 -122 296 -99 -149 221 1515 1338 4 MP stroke
c8
-179 -131 182 -181 -3 312 1634 797 4 MP stroke
c9
-153 -195 333 -52 -180 247 2449 1998 4 MP stroke
c10
188 -132 46 225 -234 -93 1560 1906 4 MP stroke
c11
124 176 -255 41 131 -217 1862 2091 4 MP stroke
c12
-47 -226 178 9 -131 217 1691 1689 4 MP stroke
c13
-121 147 -132 -187 253 40 2914 489 4 MP stroke
0.25 sg
229 117 -130 179 -99 -296 3617 795 4 MP stroke
c8
-221 -149 122 -148 99 297 3167 529 4 MP stroke
c9
-160 -194 253 -40 -93 234 2528 342 4 MP stroke
c10
133 188 -226 47 93 -235 2821 724 4 MP stroke
c11
-188 132 -46 -225 234 93 4003 1984 4 MP stroke
c12
-182 181 3 -312 179 131 3750 2962 4 MP stroke
c13
-209 56 85 -232 124 176 3361 2072 4 MP stroke
0.25 sg
255 -41 -131 217 -124 -176 3825 1975 4 MP stroke
c8
131 -217 47 226 -178 -9 4003 1984 4 MP stroke
c9
178 9 -149 220 -29 -229 3901 2430 4 MP stroke
c10
-238 -173 209 -57 29 230 3485 2248 4 MP stroke
c11
57 208 -233 -84 176 -124 2909 1365 4 MP stroke
c12
-40 -256 216 132 -176 124 2812 901 4 MP stroke
c13
-216 -131 225 -46 -9 177 2821 724 4 MP stroke
0.25 sg
8 -178 221 149 -229 29 3266 826 4 MP stroke
c8
-173 237 -56 -208 229 -29 3085 1241 4 MP stroke
c9
121 -147 132 187 -253 -40 2649 3401 4 MP stroke
c10
221 149 -122 148 -99 -297 2396 3361 4 MP stroke
c11
-229 -117 130 -179 99 296 1946 3095 4 MP stroke
c12
93 -234 160 194 -253 40 3128 3314 4 MP stroke
c13
-11 -215 237 172 -226 43 3514 2478 4 MP stroke
0.25 sg
216 -11 -173 238 -43 -227 2249 2678 4 MP stroke
c8
152 195 -215 11 63 -206 2206 2451 4 MP stroke
c9
-192 -165 256 -40 -64 205 1862 2091 4 MP stroke
c10
216 131 -225 46 9 -177 2742 3166 4 MP stroke
c11
-8 178 -221 -149 229 -29 2297 3064 4 MP stroke
c12
173 -237 56 208 -229 29 2478 2649 4 MP stroke
c13
235 93 -194 161 -41 -254 1413 2292 4 MP stroke
0.25 sg
-161 -102 229 -117 -68 219 2045 499 4 MP stroke
c8
161 194 -229 25 68 -219 2367 795 4 MP stroke
c9
2 -312 162 102 -164 210 1977 718 4 MP stroke
c10
-235 -93 194 -161 41 254 4150 1598 4 MP stroke
c11
192 165 -256 40 64 -205 3701 1799 4 MP stroke
c12
-216 11 173 -238 43 227 3314 1212 4 MP stroke
c13
-152 -195 215 -11 -63 206 3357 1439 4 MP stroke
0.25 sg
-148 -122 188 -132 -40 254 4237 2077 4 MP stroke
c8
149 -221 147 122 -296 99 4197 2331 4 MP stroke
c9
-116 229 -180 -130 296 -99 3932 2781 4 MP stroke
c10
-229 117 68 -219 161 102 3357 3289 4 MP stroke
c11
-2 312 -162 -102 164 -210 3586 3172 4 MP stroke
c12
-63 -167 227 -43 -164 210 3525 2693 4 MP stroke
c13
-68 219 -161 -194 229 -25 3128 3314 4 MP stroke
0.25 sg
165 -192 63 167 -228 25 3361 2903 4 MP stroke
c8
206 63 -165 192 -41 -255 3133 2928 4 MP stroke
c9
-216 -132 176 -124 40 256 2711 2733 4 MP stroke
c10
10 216 -206 -64 196 -152 3092 2673 4 MP stroke
c11
-176 124 -57 -208 233 84 2478 2649 4 MP stroke
c12
248 180 -195 152 -53 -332 3082 2457 4 MP stroke
c13
-232 -84 180 -248 52 332 2602 2193 4 MP stroke
0.25 sg
-116 -230 219 68 -103 162 1438 2520 4 MP stroke
c8
-313 -2 103 -161 210 163 1554 2750 4 MP stroke
c9
166 -63 43 227 -209 -164 2033 2689 4 MP stroke
c10
192 165 -166 64 -26 -229 1824 2525 4 MP stroke
c11
-219 -68 194 -160 25 228 1413 2292 4 MP stroke
c12
165 -192 41 255 -206 -63 2636 1025 4 MP stroke
c13
-63 -167 228 -25 -165 192 2367 795 4 MP stroke
0.25 sg
-196 152 -10 -216 206 64 2275 1369 4 MP stroke
c8
11 215 -237 -172 226 -43 2049 1412 4 MP stroke
c9
164 -210 63 167 -227 43 2202 987 4 MP stroke
c10
116 230 -219 -68 103 -162 4125 1370 4 MP stroke
c11
313 2 -103 161 -210 -163 4009 1140 4 MP stroke
c12
-166 63 -43 -227 209 164 3530 1201 4 MP stroke
c13
219 68 -194 160 -25 -228 4150 1598 4 MP stroke
0.25 sg
-192 -165 166 -64 26 229 3739 1365 4 MP stroke
gr

0.25 sg

end %%Color Dict

eplot
%%EndObject

epage
end

showpage

%%Trailer
%%EOF
