<?xml version="1.0" encoding="UTF-8" standalone="no"?>
<!-- Created with Inkscape (http://www.inkscape.org/) -->

<svg
   xmlns:ns0="http://www.iki.fi/pav/software/textext/"
   xmlns:dc="http://purl.org/dc/elements/1.1/"
   xmlns:cc="http://creativecommons.org/ns#"
   xmlns:rdf="http://www.w3.org/1999/02/22-rdf-syntax-ns#"
   xmlns:svg="http://www.w3.org/2000/svg"
   xmlns="http://www.w3.org/2000/svg"
   xmlns:sodipodi="http://sodipodi.sourceforge.net/DTD/sodipodi-0.dtd"
   xmlns:inkscape="http://www.inkscape.org/namespaces/inkscape"
   width="210mm"
   height="297mm"
   viewBox="0 0 744.09448819 1052.3622047"
   id="svg2"
   version="1.1"
   inkscape:version="0.91 r13725"
   sodipodi:docname="problem_fe_2015.svg">
  <sodipodi:namedview
     id="base"
     pagecolor="#ffffff"
     bordercolor="#666666"
     borderopacity="1.0"
     inkscape:pageopacity="0.0"
     inkscape:pageshadow="2"
     inkscape:zoom="2.5911161"
     inkscape:cx="146.86949"
     inkscape:cy="878.37872"
     inkscape:document-units="px"
     inkscape:current-layer="layer1"
     showgrid="false"
     inkscape:snap-center="true"
     inkscape:window-width="1920"
     inkscape:window-height="1007"
     inkscape:window-x="0"
     inkscape:window-y="25"
     inkscape:window-maximized="1" />
  <defs
     id="defs4">
    <marker
       inkscape:isstock="true"
       style="overflow:visible;"
       id="marker5766"
       refX="0.0"
       refY="0.0"
       orient="auto"
       inkscape:stockid="Arrow1Lend">
      <path
         transform="scale(0.8) rotate(180) translate(12.5,0)"
         style="fill-rule:evenodd;stroke:#000000;stroke-width:1pt;stroke-opacity:1;fill:#000000;fill-opacity:1"
         d="M 0.0,0.0 L 5.0,-5.0 L -12.5,0.0 L 5.0,5.0 L 0.0,0.0 z "
         id="path5768" />
    </marker>
    <marker
       inkscape:stockid="Arrow1Lend"
       orient="auto"
       refY="0.0"
       refX="0.0"
       id="marker5196"
       style="overflow:visible;"
       inkscape:isstock="true">
      <path
         id="path5198"
         d="M 0.0,0.0 L 5.0,-5.0 L -12.5,0.0 L 5.0,5.0 L 0.0,0.0 z "
         style="fill-rule:evenodd;stroke:#000000;stroke-width:1pt;stroke-opacity:1;fill:#000000;fill-opacity:1"
         transform="scale(0.8) rotate(180) translate(12.5,0)" />
    </marker>
    <marker
       inkscape:collect="always"
       inkscape:stockid="Arrow1Lend"
       orient="auto"
       refY="0.0"
       refX="0.0"
       id="marker4855"
       style="overflow:visible;"
       inkscape:isstock="true">
      <path
         id="path4857"
         d="M 0.0,0.0 L 5.0,-5.0 L -12.5,0.0 L 5.0,5.0 L 0.0,0.0 z "
         style="fill-rule:evenodd;stroke:#000000;stroke-width:1pt;stroke-opacity:1;fill:#000000;fill-opacity:1"
         transform="scale(0.8) rotate(180) translate(12.5,0)" />
    </marker>
    <marker
       inkscape:collect="always"
       inkscape:isstock="true"
       style="overflow:visible;"
       id="marker4677"
       refX="0.0"
       refY="0.0"
       orient="auto"
       inkscape:stockid="Arrow1Lend">
      <path
         transform="scale(0.8) rotate(180) translate(12.5,0)"
         style="fill-rule:evenodd;stroke:#000000;stroke-width:1pt;stroke-opacity:1;fill:#000000;fill-opacity:1"
         d="M 0.0,0.0 L 5.0,-5.0 L -12.5,0.0 L 5.0,5.0 L 0.0,0.0 z "
         id="path4679" />
    </marker>
    <marker
       inkscape:isstock="true"
       style="overflow:visible;"
       id="Arrow1Lend"
       refX="0.0"
       refY="0.0"
       orient="auto"
       inkscape:stockid="Arrow1Lend">
      <path
         transform="scale(0.8) rotate(180) translate(12.5,0)"
         style="fill-rule:evenodd;stroke:#000000;stroke-width:1pt;stroke-opacity:1;fill:#000000;fill-opacity:1"
         d="M 0.0,0.0 L 5.0,-5.0 L -12.5,0.0 L 5.0,5.0 L 0.0,0.0 z "
         id="path4234" />
    </marker>
  </defs>
  <metadata
     id="metadata7">
    <rdf:RDF>
      <cc:Work
         rdf:about="">
        <dc:format>image/svg+xml</dc:format>
        <dc:type
           rdf:resource="http://purl.org/dc/dcmitype/StillImage" />
        <dc:title></dc:title>
      </cc:Work>
    </rdf:RDF>
  </metadata>
  <g
     id="layer1"
     inkscape:groupmode="layer"
     inkscape:label="Layer 1">
    <path
       inkscape:connector-curvature="0"
       id="path5176"
       d="m 172.98332,153.82276 c -0.39636,-0.0595 -0.94192,-0.3294 -1.21236,-0.59984 -0.63847,-0.63847 -1.8195,-0.62926 -2.40596,0.0188 -0.42515,0.46978 -0.78612,0.51047 -4.52906,0.51047 -3.87467,0 -4.08846,-0.0264 -4.51894,-0.55802 -0.65792,-0.81249 -6.71358,-2.51389 -7.79087,-2.18893 -0.65786,0.19845 -6.67264,-1.53031 -40.58886,-11.666 -21.89911,-6.54443 -40.017559,-11.95901 -40.263222,-12.03239 -0.603681,-0.18033 -0.582489,-0.34767 0.467803,-3.69397 2.936511,-9.35591 8.076951,-19.79424 13.754034,-27.929353 6.259724,-8.97002 15.344005,-18.213906 24.254745,-24.680886 35.6898,-25.901909 84.49058,-26.099597 120.29515,-0.487306 9.34402,6.68411 18.33847,15.759422 24.89481,25.118628 5.93547,8.472897 11.1542,19.201377 14.09397,28.973867 0.53525,1.7793 0.84722,3.22988 0.71909,3.34355 -0.12447,0.11043 -18.35342,5.49496 -40.50877,11.96562 -34.20791,9.99073 -40.37462,11.72285 -40.89369,11.48635 -0.49675,-0.22634 -1.24611,-0.099 -4.00071,0.67969 -1.86421,0.527 -3.62658,1.17558 -3.91639,1.44129 -0.46534,0.42664 -0.91276,0.47863 -3.82851,0.44486 -1.81588,-0.021 -3.62589,-0.0869 -4.02226,-0.14639 z m -7.3468,-5.30291 c 1.49507,-1.99591 1.63486,-2.50125 0.52805,-1.90891 -0.68002,0.36394 -0.81301,0.81352 1.95948,-6.6244 1.17385,-3.14915 2.13427,-5.81954 2.13427,-5.9342 0,-0.11465 -0.0997,-0.20847 -0.22152,-0.20847 -0.12183,0 -1.29118,2.88038 -2.59855,6.40084 -2.35451,6.34018 -2.3807,6.39399 -2.76365,5.67897 l -0.38662,-0.72188 -0.1762,1.02094 c -0.27845,1.61334 -0.40583,4.48166 -0.19571,4.40691 0.10502,-0.0374 0.87922,-0.98677 1.72045,-2.1098 z m 11.8688,-0.31904 c -0.16756,-2.52569 -0.42217,-3.35767 -0.73037,-2.38661 -0.0936,0.29488 -0.25714,0.53616 -0.36344,0.53616 -0.1063,0 -1.20136,-2.72782 -2.43347,-6.06182 -2.13322,-5.77234 -2.53604,-6.69249 -2.80989,-6.41864 -0.0658,0.0658 0.95051,2.98695 2.25844,6.49146 1.30793,3.50452 2.34595,6.40987 2.30671,6.45634 -0.0392,0.0465 -0.32073,-0.049 -0.62553,-0.21211 -0.3048,-0.16312 -0.60934,-0.24144 -0.67675,-0.17403 -0.15048,0.15048 2.7685,4.21974 3.04282,4.2419 0.10812,0.009 0.12228,-1.10396 0.0315,-2.47265 z m -12.26085,-17.23196 c 0.68305,-0.9184 0.72781,-3.73598 0.0789,-4.96973 -0.75259,-1.43102 -2.64718,-1.44638 -3.38095,-0.0274 -0.59578,1.15211 -0.42743,4.54259 0.26347,5.30602 0.72931,0.80588 2.33051,0.64311 3.03853,-0.30887 z m 7.76679,0.35896 c 0.0561,-0.16838 -0.18134,-0.29151 -0.56218,-0.29151 l -0.65936,0 0,-3.06282 c 0,-1.68454 -0.0287,-3.06108 -0.0638,-3.05896 -0.0351,0.002 -0.52323,0.16371 -1.08475,0.35912 -1.0086,0.35098 -1.25672,0.86041 -0.34373,0.70573 0.43237,-0.0733 0.47135,0.13254 0.47135,2.48854 0,2.39823 -0.0338,2.56839 -0.51047,2.56839 -0.28076,0 -0.51047,0.14947 -0.51047,0.33215 0,0.42995 3.1195,0.3911 3.26341,-0.0406 z m 4.08574,-1.35691 c 0.0777,-1.75961 0.42332,-2.38822 1.15814,-2.10624 0.30636,0.11756 0.42256,0.59784 0.47901,1.97976 0.0612,1.49938 0.15412,1.83974 0.52118,1.90978 0.3798,0.0725 0.44718,-0.11816 0.45014,-1.27347 0.004,-1.70783 0.19529,-2.43096 0.69211,-2.62161 0.7671,-0.29437 1.09105,0.36068 1.09105,2.20621 0,1.55191 0.0559,1.76343 0.44666,1.68894 0.63245,-0.12059 0.78243,-3.29748 0.1978,-4.18973 -0.4501,-0.68694 -1.31507,-0.79682 -2.04883,-0.26028 -0.40863,0.2988 -0.53392,0.2988 -0.83272,0 -0.41766,-0.41766 -1.17968,-0.45344 -1.86344,-0.0875 -0.34031,0.18213 -0.49369,0.18213 -0.49369,0 0,-0.14532 -0.17228,-0.26421 -0.38285,-0.26421 -0.31365,0 -0.38285,0.44165 -0.38285,2.44344 0,2.18937 0.0464,2.43458 0.44666,2.35828 0.36263,-0.0691 0.46076,-0.40465 0.52163,-1.78337 z m -9.13579,1.0654 c 0,-0.34032 -0.17016,-0.51047 -0.51047,-0.51047 -0.34031,0 -0.51047,0.17015 -0.51047,0.51047 0,0.34031 0.17016,0.51047 0.51047,0.51047 0.34031,0 0.51047,-0.17016 0.51047,-0.51047 z"
       style="fill:#000000;fill-opacity:0.10215054;stroke:none;stroke-width:0.68913275;stroke-linecap:round;stroke-linejoin:round;stroke-miterlimit:4;stroke-dasharray:none;stroke-dashoffset:0;stroke-opacity:1" />
    <path
       inkscape:connector-curvature="0"
       id="path5180"
       d="m 163.49461,257.72882 c -0.7019,-0.0558 -2.82672,-0.28097 -4.72184,-0.50043 -39.88289,-4.61865 -73.546268,-32.02029 -86.135753,-70.11363 -0.752214,-2.27605 -1.435206,-4.48284 -1.517761,-4.90397 l -0.150099,-0.76571 40.497393,-12.19723 c 27.99619,-8.43206 40.57921,-12.11543 40.76243,-11.93221 0.4117,0.4117 1.07191,0.32185 4.49557,-0.61186 2.11809,-0.57764 3.32259,-1.03941 3.5978,-1.37928 0.39214,-0.48427 0.62507,-0.50321 4.46482,-0.36307 3.64765,0.13314 4.09243,0.1989 4.46611,0.66039 0.56221,0.69429 1.86201,0.67046 2.62694,-0.0482 0.57893,-0.54386 0.71468,-0.55563 4.52834,-0.39253 3.26838,0.13979 4.01762,0.24554 4.44198,0.627 0.42919,0.38579 2.77463,1.09746 6.68675,2.02894 0.50335,0.11985 1.04158,0.0798 1.40379,-0.10433 0.50832,-0.25847 6.0068,1.33521 40.83071,11.83444 22.1338,6.67322 40.31577,12.20623 40.40439,12.29557 0.23343,0.23536 -2.62617,8.74281 -4.18208,12.44186 -9.6172,22.86414 -26.58827,41.16982 -48.51743,52.33284 -10.97746,5.58808 -21.38489,8.79834 -34.06916,10.50892 -2.90928,0.39235 -5.61712,0.53706 -11.23493,0.6004 -4.07099,0.0459 -7.97608,0.0378 -8.67797,-0.0179 l 0,-1e-5 z"
       style="fill:#000000;fill-opacity:0.10215053;stroke:none;stroke-width:2.70000005;stroke-linecap:round;stroke-linejoin:round;stroke-miterlimit:4;stroke-dasharray:none;stroke-dashoffset:0;stroke-opacity:1" />
    <path
       sodipodi:nodetypes="csccsc"
       inkscape:connector-curvature="0"
       id="path4138"
       d="M 69.959125,127.03239 C 82.075255,82.797704 122.56273,50.290877 170.64258,50.290878 c 48.36221,10e-7 89.0426,32.88975 100.89397,77.522042 m -0.0681,53.97596 c -11.93843,44.50242 -52.55587,77.26686 -100.82586,77.26686 -48.34358,0 -89.011267,-32.86442 -100.880272,-77.47049"
       style="fill:none;fill-opacity:1;stroke:#000000;stroke-width:2;stroke-linecap:round;stroke-linejoin:round;stroke-miterlimit:4;stroke-dasharray:none;stroke-dashoffset:0;stroke-opacity:1" />
    <circle
       r="1.4206212"
       cy="154.67331"
       cx="182.14241"
       id="path4143"
       style="fill:#000000;fill-opacity:1;stroke:#000000;stroke-width:0.44895995;stroke-linecap:butt;stroke-linejoin:miter;stroke-miterlimit:4;stroke-dasharray:none;stroke-dashoffset:0;stroke-opacity:1" />
    <path
       sodipodi:nodetypes="ccc"
       inkscape:connector-curvature="0"
       id="path4145"
       d="m 69.580023,127.31938 89.801857,26.84208 -89.76863,27.07073"
       style="fill:none;fill-rule:evenodd;stroke:#000000;stroke-width:2;stroke-linecap:butt;stroke-linejoin:round;stroke-opacity:1;stroke-miterlimit:4;stroke-dasharray:none" />
    <path
       sodipodi:nodetypes="ccc"
       inkscape:connector-curvature="0"
       id="path4147"
       d="m 271.62654,128.27599 -89.72326,26.2267 89.48459,26.96116"
       style="fill:none;fill-rule:evenodd;stroke:#000000;stroke-width:2;stroke-linecap:butt;stroke-linejoin:round;stroke-opacity:1;stroke-miterlimit:4;stroke-dasharray:none" />
    <circle
       style="fill:#000000;fill-opacity:1;stroke:#000000;stroke-width:0.44895995;stroke-linecap:butt;stroke-linejoin:miter;stroke-miterlimit:4;stroke-dasharray:none;stroke-dashoffset:0;stroke-opacity:1"
       id="circle4150"
       cx="158.97115"
       cy="154.21332"
       r="1.4206212" />
    <circle
       r="1.4206212"
       cy="154.44331"
       cx="170.55678"
       id="circle4152"
       style="fill:#000000;fill-opacity:1;stroke:#000000;stroke-width:0.44895995;stroke-linecap:butt;stroke-linejoin:miter;stroke-miterlimit:4;stroke-dasharray:none;stroke-dashoffset:0;stroke-opacity:1" />
    <path
       inkscape:connector-curvature="0"
       id="path4154"
       d="m 158.97115,154.21332 23.17126,0.45999"
       style="fill:none;fill-rule:evenodd;stroke:#000000;stroke-width:1px;stroke-linecap:butt;stroke-linejoin:miter;stroke-opacity:1" />
    <g
       id="content"
       transform="matrix(1.1,0,0,-1.1,-96.468996,902.48146)"
       xml:space="preserve"
       stroke-miterlimit="10.433"
       font-style="normal"
       font-variant="normal"
       font-weight="normal"
       font-stretch="normal"
       font-size-adjust="none"
       letter-spacing="normal"
       word-spacing="normal"
       ns0:text="$0.1\\,\\textsf{m}$"
       ns0:preamble="/str/dev/empty"
       style="font-style:normal;font-variant:normal;font-weight:normal;font-stretch:normal;letter-spacing:normal;word-spacing:normal;text-anchor:start;fill:none;fill-opacity:1;fill-rule:evenodd;stroke:#000000;stroke-linecap:butt;stroke-linejoin:miter;stroke-miterlimit:10.43299961;stroke-dasharray:none;stroke-dashoffset:0;stroke-opacity:1"><path
         style="fill:#000000;stroke-width:0"
         inkscape:connector-curvature="0"
         d="m 238.08627,705.17451 0,0.13432 0,0.13433 0,0.13432 -0.009,0.13433 -0.009,0.13432 -0.009,0.12537 -0.009,0.13433 -0.0179,0.13432 -0.0269,0.13433 -0.0179,0.12537 -0.0358,0.13432 -0.0269,0.12537 -0.0448,0.12537 -0.0448,0.12537 -0.0448,0.12537 -0.0269,0.0627 -0.0269,0.0627 c -0.41193,0.85968 -1.14624,1.00296 -1.52235,1.00296 -0.5373,0 -1.18206,-0.23283 -1.54922,-1.06564 -0.28656,-0.60894 -0.33133,-1.30743 -0.33133,-2.02383 0,-0.67163 0.0358,-1.46862 0.40297,-2.1492 0.38507,-0.72536 1.03878,-0.90446 1.46862,-0.90446 l 0,0.19701 c -0.34924,0 -0.86863,0.22388 -1.02982,1.08356 -0.0985,0.5373 -0.0985,1.3522 -0.0985,1.88055 0,0.57312 0,1.15519 0.0716,1.63876 0.17015,1.06565 0.83282,1.14624 1.05669,1.14624 0.29552,0 0.88655,-0.16119 1.05669,-1.04773 0.0896,-0.49253 0.0896,-1.17311 0.0896,-1.73727 0,-0.67163 0,-1.27161 -0.0985,-1.84473 -0.13433,-0.85073 -0.64476,-1.11938 -1.04774,-1.11938 l 0,0 0,-0.19701 c 0.48357,0 1.16415,0.18806 1.55817,1.03878 0.27761,0.6179 0.32238,1.30743 0.32238,2.01488 z"
         id="path4202" /><path
         style="fill:#000000;stroke-width:0"
         inkscape:connector-curvature="0"
         d="m 240.15488,702.79248 0,0.0269 0,0.0179 0,0.0269 -0.009,0.0269 0,0.0179 -0.009,0.0269 -0.009,0.0179 -0.009,0.0269 -0.009,0.0179 -0.009,0.0179 -0.009,0.0179 -0.0179,0.0179 -0.009,0.0269 -0.0179,0.0179 -0.009,0.009 -0.0179,0.0179 -0.0179,0.0179 -0.0179,0.0179 -0.0179,0.009 -0.0179,0.0179 -0.0179,0.009 -0.0179,0.009 -0.0269,0.0179 -0.0179,0.009 -0.0179,0.009 -0.0269,0 -0.0179,0.009 -0.0269,0.009 -0.0179,0 -0.0269,0.009 -0.0269,0 -0.0179,0 c -0.2597,0 -0.47462,-0.21492 -0.47462,-0.47461 0,-0.2597 0.21492,-0.47462 0.47462,-0.47462 0.25969,0 0.46566,0.21492 0.46566,0.47462 z"
         id="path4204" /><path
         style="fill:#000000;stroke-width:0"
         inkscape:connector-curvature="0"
         d="m 243.54882,708.03115 0,0.009 0,0.009 0,0.009 0,0.009 0,0.009 0,0.009 0,0.009 0,0.009 0,0.009 0,0.009 0,0 0,0.009 0,0.009 0,0.009 0,0 0,0.009 -0.009,0.009 0,0 0,0.009 0,0.0179 0,0.009 -0.009,0.009 0,0 0,0.009 -0.009,0.009 -0.009,0 0,0.009 -0.009,0 -0.009,0.009 -0.009,0 0,0 -0.009,0.009 0,0 -0.009,0 0,0 -0.009,0 0,0 -0.009,0 -0.009,0 0,0 -0.009,0.009 -0.009,0 -0.009,0 0,0 -0.009,0 -0.009,0 -0.009,0 -0.009,0 -0.009,0 -0.009,0 -0.009,0 -0.009,0 c -0.55521,-0.57312 -1.34325,-0.57312 -1.62086,-0.57312 l 0,-0.2776 c 0.1791,0 0.69849,0 1.16415,0.23283 l 0,-4.62078 c 0,-0.32238 -0.0269,-0.42984 -0.82386,-0.42984 l -0.28656,0 0,-0.27761 c 0.31343,0.0269 1.08356,0.0269 1.44176,0.0269 0.3582,0 1.13728,0 1.44175,-0.0269 l 0,0.27761 -0.2776,0 c -0.80595,0 -0.83282,0.0985 -0.83282,0.42984 z"
         id="path4206" /><path
         style="fill:#000000;stroke-width:0"
         inkscape:connector-curvature="0"
         d="m 253.23813,704.9775 0,0.0537 0,0.0627 -0.009,0.0537 0,0.0627 -0.009,0.0627 0,0.0537 -0.009,0.0627 -0.0179,0.0627 -0.009,0.0537 -0.0179,0.0627 -0.009,0.0627 -0.0269,0.0537 -0.0179,0.0537 -0.0269,0.0537 -0.0269,0.0537 -0.0269,0.0537 -0.0358,0.0537 -0.0358,0.0448 -0.0448,0.0537 -0.0448,0.0448 -0.0448,0.0358 -0.0537,0.0448 -0.0537,0.0358 -0.0537,0.0269 -0.0358,0.0179 -0.0358,0.0179 -0.0269,0.009 -0.0358,0.0179 -0.0358,0.009 -0.0358,0.009 -0.0448,0.009 -0.0358,0.0179 -0.0448,0 -0.0358,0.009 -0.0448,0.009 -0.0448,0 -0.0448,0.009 -0.0537,0 -0.0448,0 -0.0537,0.009 c -0.52834,0 -0.994,-0.25074 -1.32533,-0.73431 -0.23283,0.68058 -0.85968,0.73431 -1.14624,0.73431 -0.63581,0 -1.05669,-0.36715 -1.29848,-0.68953 l 0,0.64476 -0.64476,0 0,-4.0208 0.69849,0 0,2.18502 c 0,0.60894 0.24179,1.3343 0.8955,1.3343 0.83282,0 0.87759,-0.58208 0.87759,-0.92237 l 0,-2.59695 0.69849,0 0,2.18502 c 0,0.60894 0.24179,1.3343 0.90446,1.3343 0.82385,0 0.86863,-0.58208 0.86863,-0.92237 l 0,-2.59695 0.69849,0 z"
         id="path4208" /><path
         sodipodi:nodetypes="cc"
         inkscape:connector-curvature="0"
         id="path4675"
         d="M 242.05652,700.15098 236.5605,685.3356"
         style="fill:none;fill-rule:evenodd;stroke:#000000;stroke-width:0.27272728;stroke-linecap:butt;stroke-linejoin:miter;stroke-miterlimit:10.43299961;stroke-dasharray:none;stroke-opacity:1;marker-end:url(#marker4677)" /><path
         style="fill:none;fill-rule:evenodd;stroke:#000000;stroke-width:0.27272728;stroke-linecap:butt;stroke-linejoin:miter;stroke-miterlimit:10.43299961;stroke-dasharray:none;stroke-opacity:1;marker-end:url(#marker4855)"
         d="m 243.20652,700.15098 5.49602,-14.81538"
         id="path4853"
         inkscape:connector-curvature="0"
         sodipodi:nodetypes="cc" /></g>    <g
       id="g5126"
       transform="matrix(1.6833075,0,0,-1.6833075,-270.02856,1350.4425)"
       xml:space="preserve"
       stroke-miterlimit="10.433"
       font-style="normal"
       font-variant="normal"
       font-weight="normal"
       font-stretch="normal"
       font-size-adjust="none"
       letter-spacing="normal"
       word-spacing="normal"
       ns0:text="$2\\delta$"
       ns0:preamble="/str/dev/empty"
       style="font-style:normal;font-variant:normal;font-weight:normal;font-stretch:normal;letter-spacing:normal;word-spacing:normal;text-anchor:start;fill:none;fill-opacity:1;fill-rule:evenodd;stroke:#000000;stroke-linecap:butt;stroke-linejoin:miter;stroke-miterlimit:10.43299961;stroke-dasharray:none;stroke-dashoffset:0;stroke-opacity:1"><path
         style="fill:#000000;stroke-width:0"
         inkscape:connector-curvature="0"
         d="m 224.7,707.89 1.05,1.03 c 1.56,1.37 2.16,1.91 2.16,2.91 0,1.13 -0.9,1.93 -2.12,1.93 -1.12,0 -1.86,-0.92 -1.86,-1.81 0,-0.55 0.5,-0.55 0.53,-0.55 0.17,0 0.52,0.12 0.52,0.52 0,0.26 -0.18,0.52 -0.53,0.52 -0.08,0 -0.1,0 -0.13,-0.01 0.23,0.65 0.77,1.02 1.34,1.02 0.91,0 1.34,-0.81 1.34,-1.62 0,-0.8 -0.5,-1.59 -1.05,-2.21 l -1.91,-2.13 c -0.11,-0.11 -0.11,-0.13 -0.11,-0.37 l 3.7,0 0.28,1.74 -0.25,0 c -0.05,-0.3 -0.12,-0.74 -0.22,-0.89 -0.07,-0.08 -0.73,-0.08 -0.95,-0.08 z"
         id="path5128" /><path
         style="fill:#000000;stroke-width:0"
         inkscape:connector-curvature="0"
         d="m 231.04,711.48 -0.11,-0.03 -0.12,-0.04 -0.11,-0.04 -0.11,-0.05 -0.11,-0.05 -0.1,-0.06 -0.11,-0.06 -0.1,-0.07 -0.1,-0.07 -0.09,-0.07 -0.09,-0.08 -0.09,-0.08 -0.09,-0.09 -0.08,-0.09 -0.08,-0.09 -0.08,-0.09 -0.07,-0.1 -0.07,-0.1 -0.07,-0.1 -0.06,-0.11 -0.05,-0.1 -0.06,-0.11 -0.05,-0.11 -0.04,-0.11 -0.04,-0.11 -0.03,-0.11 -0.03,-0.12 -0.03,-0.11 -0.01,-0.11 -0.02,-0.12 -0.01,-0.11 0,-0.11 c 0,-0.96 0.64,-1.68 1.57,-1.68 l 0,0.22 c -0.54,0 -0.95,0.42 -0.95,1.18 0,0.63 0.37,2.5 1.71,2.86 l 0,0 c 0.25,-0.46 0.55,-1 0.55,-1.72 0,-0.65 -0.38,-2.32 -1.31,-2.32 l 0,-0.22 c 1.17,0 2,1.57 2,2.94 0,0.91 -0.4,1.41 -0.74,1.85 -0.36,0.45 -0.95,1.2 -0.95,1.64 0,0.22 0.2,0.46 0.55,0.46 0.3,0 0.5,-0.13 0.71,-0.27 0.2,-0.12 0.4,-0.25 0.55,-0.25 0.25,0 0.4,0.24 0.4,0.4 0,0.22 -0.16,0.25 -0.52,0.33 -0.52,0.11 -0.66,0.11 -0.82,0.11 -0.78,0 -1.13,-0.43 -1.13,-1.03 0,-0.54 0.28,-1.1 0.59,-1.7 z"
         id="path5130" /></g>    <g
       style="font-style:normal;font-variant:normal;font-weight:normal;font-stretch:normal;letter-spacing:normal;word-spacing:normal;text-anchor:start;fill:none;fill-opacity:1;fill-rule:evenodd;stroke:#000000;stroke-linecap:butt;stroke-linejoin:miter;stroke-miterlimit:10.43299961;stroke-dasharray:none;stroke-dashoffset:0;stroke-opacity:1"
       ns0:preamble="/str/dev/empty"
       ns0:text="$2\\delta$"
       word-spacing="normal"
       letter-spacing="normal"
       font-size-adjust="none"
       font-stretch="normal"
       font-weight="normal"
       font-variant="normal"
       font-style="normal"
       stroke-miterlimit="10.433"
       xml:space="preserve"
       transform="matrix(1.6833075,0,0,-1.6833075,-157.74461,1351.0366)"
       id="g5158"><path
         id="path5160"
         d="m 224.7,707.89 1.05,1.03 c 1.56,1.37 2.16,1.91 2.16,2.91 0,1.13 -0.9,1.93 -2.12,1.93 -1.12,0 -1.86,-0.92 -1.86,-1.81 0,-0.55 0.5,-0.55 0.53,-0.55 0.17,0 0.52,0.12 0.52,0.52 0,0.26 -0.18,0.52 -0.53,0.52 -0.08,0 -0.1,0 -0.13,-0.01 0.23,0.65 0.77,1.02 1.34,1.02 0.91,0 1.34,-0.81 1.34,-1.62 0,-0.8 -0.5,-1.59 -1.05,-2.21 l -1.91,-2.13 c -0.11,-0.11 -0.11,-0.13 -0.11,-0.37 l 3.7,0 0.28,1.74 -0.25,0 c -0.05,-0.3 -0.12,-0.74 -0.22,-0.89 -0.07,-0.08 -0.73,-0.08 -0.95,-0.08 z"
         inkscape:connector-curvature="0"
         style="fill:#000000;stroke-width:0" /><path
         id="path5162"
         d="m 231.04,711.48 -0.11,-0.03 -0.12,-0.04 -0.11,-0.04 -0.11,-0.05 -0.11,-0.05 -0.1,-0.06 -0.11,-0.06 -0.1,-0.07 -0.1,-0.07 -0.09,-0.07 -0.09,-0.08 -0.09,-0.08 -0.09,-0.09 -0.08,-0.09 -0.08,-0.09 -0.08,-0.09 -0.07,-0.1 -0.07,-0.1 -0.07,-0.1 -0.06,-0.11 -0.05,-0.1 -0.06,-0.11 -0.05,-0.11 -0.04,-0.11 -0.04,-0.11 -0.03,-0.11 -0.03,-0.12 -0.03,-0.11 -0.01,-0.11 -0.02,-0.12 -0.01,-0.11 0,-0.11 c 0,-0.96 0.64,-1.68 1.57,-1.68 l 0,0.22 c -0.54,0 -0.95,0.42 -0.95,1.18 0,0.63 0.37,2.5 1.71,2.86 l 0,0 c 0.25,-0.46 0.55,-1 0.55,-1.72 0,-0.65 -0.38,-2.32 -1.31,-2.32 l 0,-0.22 c 1.17,0 2,1.57 2,2.94 0,0.91 -0.4,1.41 -0.74,1.85 -0.36,0.45 -0.95,1.2 -0.95,1.64 0,0.22 0.2,0.46 0.55,0.46 0.3,0 0.5,-0.13 0.71,-0.27 0.2,-0.12 0.4,-0.25 0.55,-0.25 0.25,0 0.4,0.24 0.4,0.4 0,0.22 -0.16,0.25 -0.52,0.33 -0.52,0.11 -0.66,0.11 -0.82,0.11 -0.78,0 -1.13,-0.43 -1.13,-1.03 0,-0.54 0.28,-1.1 0.59,-1.7 z"
         inkscape:connector-curvature="0"
         style="fill:#000000;stroke-width:0" /></g>    <path
       sodipodi:nodetypes="cc"
       inkscape:connector-curvature="0"
       id="path5164"
       d="m 159.09877,153.95809 -5.83054,-1.67986"
       style="fill:none;fill-rule:evenodd;stroke:#000000;stroke-width:2.70000005;stroke-linecap:round;stroke-linejoin:miter;stroke-miterlimit:4;stroke-dasharray:none;stroke-opacity:1" />
    <path
       sodipodi:nodetypes="cc"
       inkscape:connector-curvature="0"
       id="path5170"
       d="m 158.97115,154.57529 -5.83054,1.55224"
       style="fill:none;fill-rule:evenodd;stroke:#000000;stroke-width:2.70000005;stroke-linecap:round;stroke-linejoin:miter;stroke-miterlimit:4;stroke-dasharray:none;stroke-opacity:1" />
    <path
       style="fill:none;fill-rule:evenodd;stroke:#000000;stroke-width:2.70000005;stroke-linecap:round;stroke-linejoin:miter;stroke-miterlimit:4;stroke-dasharray:none;stroke-opacity:1"
       d="m 182.23723,154.34094 5.83054,-1.67986"
       id="path5172"
       inkscape:connector-curvature="0"
       sodipodi:nodetypes="cc" />
    <path
       style="fill:none;fill-rule:evenodd;stroke:#000000;stroke-width:2.70000005;stroke-linecap:round;stroke-linejoin:miter;stroke-miterlimit:4;stroke-dasharray:none;stroke-opacity:1"
       d="m 182.36485,154.95814 5.83054,1.55224"
       id="path5174"
       inkscape:connector-curvature="0"
       sodipodi:nodetypes="cc" />
    <path
       inkscape:connector-curvature="0"
       id="path5178"
       d="m 163.01369,131.06895 c -0.6288,-0.69481 -0.49967,-5.07573 0.16187,-5.49186 0.75768,-0.47659 1.32301,0.11237 1.4676,1.52899 0.18048,1.76815 -0.0895,3.92427 -0.526,4.20045 -0.51361,0.32498 -0.6139,0.30339 -1.10347,-0.23758 z"
       style="fill:#000000;fill-opacity:0.10215053;stroke:none;stroke-width:2.70000005;stroke-linecap:round;stroke-linejoin:round;stroke-miterlimit:4;stroke-dasharray:none;stroke-dashoffset:0;stroke-opacity:1" />
    <g
       style="font-style:normal;font-variant:normal;font-weight:normal;font-stretch:normal;letter-spacing:normal;word-spacing:normal;text-anchor:start;fill:none;fill-opacity:1;fill-rule:evenodd;stroke:#000000;stroke-linecap:butt;stroke-linejoin:miter;stroke-miterlimit:10.43299961;stroke-dasharray:none;stroke-dashoffset:0;stroke-opacity:1"
       ns0:preamble="/str/dev/empty"
       ns0:text="$0.1\\,\\textsf{m}$"
       word-spacing="normal"
       letter-spacing="normal"
       font-size-adjust="none"
       font-stretch="normal"
       font-weight="normal"
       font-variant="normal"
       font-style="normal"
       stroke-miterlimit="10.433"
       xml:space="preserve"
       transform="matrix(1.1,0,0,-1.1,-95.327747,947.24698)"
       id="g5182"><path
         style="fill:none;fill-rule:evenodd;stroke:#000000;stroke-width:0.27272728;stroke-linecap:butt;stroke-linejoin:miter;stroke-miterlimit:10.43299961;stroke-dasharray:none;stroke-opacity:1;marker-end:url(#marker5196)"
         d="m 239.60058,708.65907 -9.79393,8.95465"
         id="path5192"
         inkscape:connector-curvature="0"
         sodipodi:nodetypes="cc" /><path
         sodipodi:nodetypes="cc"
         inkscape:connector-curvature="0"
         id="path5194"
         d="m 245.13619,708.8345 8.2151,7.98981"
         style="fill:none;fill-rule:evenodd;stroke:#000000;stroke-width:0.27272728;stroke-linecap:butt;stroke-linejoin:miter;stroke-miterlimit:10.43299961;stroke-dasharray:none;stroke-opacity:1;marker-end:url(#marker5766)" /></g>    <g
       ns0:preamble="/str/dev/empty"
       ns0:text="$0.03\\,\\textsf{m}$"
       word-spacing="normal"
       letter-spacing="normal"
       font-size-adjust="none"
       font-stretch="normal"
       font-weight="normal"
       font-variant="normal"
       font-style="normal"
       stroke-miterlimit="10.433"
       xml:space="preserve"
       transform="matrix(0.7817537,0,0,-0.7817537,-13.686296,727.74729)"
       id="g6257"
       style="font-style:normal;font-variant:normal;font-weight:normal;font-stretch:normal;letter-spacing:normal;word-spacing:normal;text-anchor:start;fill:none;fill-opacity:1;fill-rule:evenodd;stroke:#000000;stroke-linecap:butt;stroke-linejoin:miter;stroke-miterlimit:10.43299961;stroke-dasharray:none;stroke-dashoffset:0;stroke-opacity:1"><path
         id="path6259"
         d="m 228.01,710.31 0,0.15 0,0.15 0,0.15 -0.01,0.15 -0.01,0.15 -0.01,0.14 -0.01,0.15 -0.02,0.15 -0.03,0.15 -0.02,0.14 -0.04,0.15 -0.03,0.14 -0.05,0.14 -0.05,0.14 -0.05,0.14 -0.03,0.07 -0.03,0.07 c -0.46,0.96 -1.28,1.12 -1.7,1.12 -0.6,0 -1.32,-0.26 -1.73,-1.19 -0.32,-0.68 -0.37,-1.46 -0.37,-2.26 0,-0.75 0.04,-1.64 0.45,-2.4 0.43,-0.81 1.16,-1.01 1.64,-1.01 l 0,0.22 c -0.39,0 -0.97,0.25 -1.15,1.21 -0.11,0.6 -0.11,1.51 -0.11,2.1 0,0.64 0,1.29 0.08,1.83 0.19,1.19 0.93,1.28 1.18,1.28 0.33,0 0.99,-0.18 1.18,-1.17 0.1,-0.55 0.1,-1.31 0.1,-1.94 0,-0.75 0,-1.42 -0.11,-2.06 -0.15,-0.95 -0.72,-1.25 -1.17,-1.25 l 0,0 0,-0.22 c 0.54,0 1.3,0.21 1.74,1.16 0.31,0.69 0.36,1.46 0.36,2.25 z"
         inkscape:connector-curvature="0"
         style="fill:#000000;stroke-width:0" /><path
         id="path6261"
         d="m 230.32,707.65 0,0.03 0,0.02 0,0.03 -0.01,0.03 0,0.02 -0.01,0.03 -0.01,0.02 -0.01,0.03 -0.01,0.02 -0.01,0.02 -0.01,0.02 -0.02,0.02 -0.01,0.03 -0.02,0.02 -0.01,0.01 -0.02,0.02 -0.02,0.02 -0.02,0.02 -0.02,0.01 -0.02,0.02 -0.02,0.01 -0.02,0.01 -0.03,0.02 -0.02,0.01 -0.02,0.01 -0.03,0 -0.02,0.01 -0.03,0.01 -0.02,0 -0.03,0.01 -0.03,0 -0.02,0 c -0.29,0 -0.53,-0.24 -0.53,-0.53 0,-0.29 0.24,-0.53 0.53,-0.53 0.29,0 0.52,0.24 0.52,0.53 z"
         inkscape:connector-curvature="0"
         style="fill:#000000;stroke-width:0" /><path
         id="path6263"
         d="m 235.76,710.31 0,0.15 0,0.15 0,0.15 -0.01,0.15 -0.01,0.15 -0.01,0.14 -0.02,0.15 -0.02,0.15 -0.02,0.15 -0.03,0.14 -0.03,0.15 -0.04,0.14 -0.04,0.14 -0.05,0.14 -0.05,0.14 -0.03,0.07 -0.04,0.07 c -0.45,0.96 -1.27,1.12 -1.69,1.12 -0.6,0 -1.32,-0.26 -1.73,-1.19 -0.32,-0.68 -0.37,-1.46 -0.37,-2.26 0,-0.75 0.04,-1.64 0.45,-2.4 0.43,-0.81 1.15,-1.01 1.64,-1.01 l 0,0.22 c -0.39,0 -0.98,0.25 -1.15,1.21 -0.11,0.6 -0.11,1.51 -0.11,2.1 0,0.64 0,1.29 0.08,1.83 0.18,1.19 0.93,1.28 1.18,1.28 0.33,0 0.99,-0.18 1.18,-1.17 0.1,-0.55 0.1,-1.31 0.1,-1.94 0,-0.75 0,-1.42 -0.11,-2.06 -0.15,-0.95 -0.72,-1.25 -1.17,-1.25 l 0,0 0,-0.22 c 0.54,0 1.3,0.21 1.73,1.16 0.32,0.69 0.37,1.46 0.37,2.25 z"
         inkscape:connector-curvature="0"
         style="fill:#000000;stroke-width:0" /><path
         id="path6265"
         d="m 239.05,710.63 0.07,0.03 0.08,0.02 0.07,0.04 0.07,0.03 0.07,0.04 0.07,0.03 0.07,0.04 0.06,0.05 0.06,0.04 0.06,0.05 0.06,0.04 0.06,0.05 0.05,0.06 0.06,0.05 0.05,0.06 0.04,0.05 0.05,0.06 0.04,0.06 0.04,0.06 0.04,0.06 0.03,0.07 0.04,0.06 0.02,0.07 0.03,0.06 0.02,0.07 0.03,0.07 0.01,0.07 0.02,0.07 0.01,0.07 0.01,0.08 0,0.07 0,0.07 c 0,0.82 -0.87,1.38 -1.83,1.38 -1.01,0 -1.76,-0.6 -1.76,-1.36 0,-0.33 0.22,-0.51 0.51,-0.51 0.3,0 0.5,0.21 0.5,0.5 0,0.5 -0.46,0.5 -0.61,0.5 0.3,0.49 0.96,0.62 1.32,0.62 0.41,0 0.96,-0.22 0.96,-1.12 0,-0.12 -0.02,-0.69 -0.28,-1.13 -0.3,-0.48 -0.64,-0.51 -0.89,-0.52 -0.08,-0.01 -0.32,-0.03 -0.39,-0.03 -0.08,-0.01 -0.15,-0.02 -0.15,-0.12 0,-0.11 0.07,-0.11 0.24,-0.11 l 0.44,0 c 0.82,0 1.19,-0.68 1.19,-1.65 0,-1.36 -0.69,-1.65 -1.13,-1.65 -0.43,0 -1.18,0.17 -1.52,0.76 0.34,-0.05 0.65,0.17 0.65,0.55 0,0.36 -0.26,0.55 -0.55,0.55 -0.24,0 -0.56,-0.13 -0.56,-0.57 0,-0.91 0.93,-1.57 2.01,-1.57 1.22,0 2.12,0.91 2.12,1.93 0,0.81 -0.62,1.59 -1.66,1.8 z"
         inkscape:connector-curvature="0"
         style="fill:#000000;stroke-width:0" /><path
         id="path6267"
         d="m 249.91,710.09 0,0.06 0,0.07 -0.01,0.06 0,0.07 -0.01,0.07 0,0.06 -0.01,0.07 -0.02,0.07 -0.01,0.06 -0.02,0.07 -0.01,0.07 -0.03,0.06 -0.02,0.06 -0.03,0.06 -0.03,0.06 -0.03,0.06 -0.04,0.06 -0.04,0.05 -0.05,0.06 -0.05,0.05 -0.05,0.04 -0.06,0.05 -0.06,0.04 -0.06,0.03 -0.04,0.02 -0.04,0.02 -0.03,0.01 -0.04,0.02 -0.04,0.01 -0.04,0.01 -0.05,0.01 -0.04,0.02 -0.05,0 -0.04,0.01 -0.05,0.01 -0.05,0 -0.05,0.01 -0.06,0 -0.05,0 -0.06,0.01 c -0.59,0 -1.11,-0.28 -1.48,-0.82 -0.26,0.76 -0.96,0.82 -1.28,0.82 -0.71,0 -1.18,-0.41 -1.45,-0.77 l 0,0.72 -0.72,0 0,-4.49 0.78,0 0,2.44 c 0,0.68 0.27,1.49 1.01,1.49 0.92,0 0.97,-0.65 0.97,-1.03 l 0,-2.9 0.78,0 0,2.44 c 0,0.68 0.27,1.49 1,1.49 0.93,0 0.98,-0.65 0.98,-1.03 l 0,-2.9 0.78,0 z"
         inkscape:connector-curvature="0"
         style="fill:#000000;stroke-width:0" /></g>    <circle
       style="fill:none;fill-opacity:0.10215053;stroke:#000000;stroke-width:1.07596469;stroke-linecap:butt;stroke-linejoin:miter;stroke-miterlimit:4;stroke-dasharray:1.07596469,2.15192938;stroke-dashoffset:0;stroke-opacity:1"
       id="path6318"
       cx="170.64943"
       cy="154.67331"
       r="23.894968" />
  </g>
</svg>
